processor.vcd
$date
	Sun Nov 23 00:42:13 2025
$end
$version
	Icarus Verilog
$end
$timescale
	1ps
$end
$scope module tb_processor $end
$scope module uut $end
$var wire 5 ! A_WB_destination [4:0] $end
$var wire 5 " B_WB_destination [4:0] $end
$var wire 1 # clock $end
$var wire 32 $ counter_out [31:0] $end
$var wire 1 % dir_pred $end
$var wire 1 & intra_packet_hazard $end
$var wire 1 ' load_use_hazard $end
$var wire 1 ( reset $end
$var wire 32 ) tar_pred [31:0] $end
$var wire 1 * trash $end
$var wire 1 + taken $end
$var wire 32 , dataOut [31:0] $end
$var wire 5 - B_src2 [4:0] $end
$var wire 5 . B_src1 [4:0] $end
$var wire 1 / B_isStore $end
$var wire 1 0 B_isLui $end
$var wire 1 1 B_isLoad $end
$var wire 1 2 B_isJalr $end
$var wire 1 3 B_isJal $end
$var wire 1 4 B_isAuipc $end
$var wire 1 5 B_isABranch $end
$var wire 32 6 B_instruction [31:0] $end
$var wire 5 7 B_dest [4:0] $end
$var wire 32 8 B_data_readReg2 [31:0] $end
$var wire 32 9 B_data_readReg1 [31:0] $end
$var wire 32 : B_aluResult [31:0] $end
$var wire 1 ; B_RWE $end
$var wire 4 < B_ALUop [3:0] $end
$var wire 1 = B_ALUinB $end
$var wire 5 > A_src2 [4:0] $end
$var wire 5 ? A_src1 [4:0] $end
$var wire 1 @ A_isStore $end
$var wire 1 A A_isLui $end
$var wire 1 B A_isLoad $end
$var wire 1 C A_isJalr $end
$var wire 1 D A_isJal $end
$var wire 1 E A_isAuipc $end
$var wire 1 F A_isABranch $end
$var wire 32 G A_instruction [31:0] $end
$var wire 5 H A_dest [4:0] $end
$var wire 32 I A_data_readReg2 [31:0] $end
$var wire 32 J A_data_readReg1 [31:0] $end
$var wire 32 K A_aluResult [31:0] $end
$var wire 1 L A_RWE $end
$var wire 4 M A_ALUop [3:0] $end
$var wire 1 N A_ALUinB $end
$var parameter 32 O NOP $end
$var reg 1 P A_DX_ALUinB $end
$var reg 4 Q A_DX_ALUop [3:0] $end
$var reg 32 R A_DX_PC [31:0] $end
$var reg 1 S A_DX_RWE $end
$var reg 32 T A_DX_dataA [31:0] $end
$var reg 32 U A_DX_dataB [31:0] $end
$var reg 3 V A_DX_func3 [2:0] $end
$var reg 32 W A_DX_imm [31:0] $end
$var reg 32 X A_DX_immB [31:0] $end
$var reg 32 Y A_DX_immJ [31:0] $end
$var reg 32 Z A_DX_immS [31:0] $end
$var reg 32 [ A_DX_immU [31:0] $end
$var reg 32 \ A_DX_inst [31:0] $end
$var reg 1 ] A_DX_isABranch $end
$var reg 1 ^ A_DX_isAuipc $end
$var reg 1 _ A_DX_isJal $end
$var reg 1 ` A_DX_isJalr $end
$var reg 1 a A_DX_isLoad $end
$var reg 1 b A_DX_isLui $end
$var reg 1 c A_DX_isStore $end
$var reg 1 d A_DX_prediction $end
$var reg 5 e A_DX_rd [4:0] $end
$var reg 5 f A_DX_src1 [4:0] $end
$var reg 5 g A_DX_src2 [4:0] $end
$var reg 32 h A_DX_target [31:0] $end
$var reg 32 i A_FD_PC [31:0] $end
$var reg 32 j A_FD_inst [31:0] $end
$var reg 3 k A_F_ALU1 [2:0] $end
$var reg 3 l A_F_ALU2 [2:0] $end
$var reg 32 m A_MW_ALURESULT [31:0] $end
$var reg 32 n A_MW_PC [31:0] $end
$var reg 1 o A_MW_RWE $end
$var reg 32 p A_MW_auipcResult [31:0] $end
$var reg 32 q A_MW_dataA [31:0] $end
$var reg 32 r A_MW_dataB [31:0] $end
$var reg 32 s A_MW_dmemOut [31:0] $end
$var reg 32 t A_MW_imm [31:0] $end
$var reg 32 u A_MW_immU [31:0] $end
$var reg 32 v A_MW_inst [31:0] $end
$var reg 1 w A_MW_isABranch $end
$var reg 1 x A_MW_isAuipc $end
$var reg 1 y A_MW_isJal $end
$var reg 1 z A_MW_isJalr $end
$var reg 1 { A_MW_isLoad $end
$var reg 1 | A_MW_isLui $end
$var reg 1 } A_MW_isStore $end
$var reg 5 ~ A_MW_rd [4:0] $end
$var reg 5 !" A_MW_src1 [4:0] $end
$var reg 5 "" A_MW_src2 [4:0] $end
$var reg 1 #" A_MW_taken $end
$var reg 32 $" A_XM_ALURESULT [31:0] $end
$var reg 32 %" A_XM_PC [31:0] $end
$var reg 1 &" A_XM_RWE $end
$var reg 32 '" A_XM_auipcResult [31:0] $end
$var reg 32 (" A_XM_dataA [31:0] $end
$var reg 32 )" A_XM_dataB [31:0] $end
$var reg 3 *" A_XM_func3 [2:0] $end
$var reg 32 +" A_XM_imm [31:0] $end
$var reg 32 ," A_XM_immU [31:0] $end
$var reg 32 -" A_XM_inst [31:0] $end
$var reg 1 ." A_XM_isABranch $end
$var reg 1 /" A_XM_isAuipc $end
$var reg 1 0" A_XM_isJal $end
$var reg 1 1" A_XM_isJalr $end
$var reg 1 2" A_XM_isLoad $end
$var reg 1 3" A_XM_isLui $end
$var reg 1 4" A_XM_isStore $end
$var reg 5 5" A_XM_rd [4:0] $end
$var reg 5 6" A_XM_src1 [4:0] $end
$var reg 5 7" A_XM_src2 [4:0] $end
$var reg 1 8" A_XM_taken $end
$var reg 32 9" A_data_writeReg [31:0] $end
$var reg 3 :" A_func3 [2:0] $end
$var reg 7 ;" A_func7 [6:0] $end
$var reg 32 <" A_imm_B [31:0] $end
$var reg 32 =" A_imm_I [31:0] $end
$var reg 32 >" A_imm_J [31:0] $end
$var reg 32 ?" A_imm_S [31:0] $end
$var reg 32 @" A_imm_U [31:0] $end
$var reg 7 A" A_opcode [6:0] $end
$var reg 32 B" A_operand1 [31:0] $end
$var reg 32 C" A_operand2 [31:0] $end
$var reg 5 D" A_rd [4:0] $end
$var reg 5 E" A_rs1 [4:0] $end
$var reg 5 F" A_rs2 [4:0] $end
$var reg 1 G" B_DX_ALUinB $end
$var reg 4 H" B_DX_ALUop [3:0] $end
$var reg 32 I" B_DX_PC [31:0] $end
$var reg 1 J" B_DX_RWE $end
$var reg 32 K" B_DX_dataA [31:0] $end
$var reg 32 L" B_DX_dataB [31:0] $end
$var reg 3 M" B_DX_func3 [2:0] $end
$var reg 32 N" B_DX_imm [31:0] $end
$var reg 32 O" B_DX_immB [31:0] $end
$var reg 32 P" B_DX_immJ [31:0] $end
$var reg 32 Q" B_DX_immS [31:0] $end
$var reg 32 R" B_DX_immU [31:0] $end
$var reg 32 S" B_DX_inst [31:0] $end
$var reg 1 T" B_DX_isABranch $end
$var reg 1 U" B_DX_isAuipc $end
$var reg 1 V" B_DX_isJal $end
$var reg 1 W" B_DX_isJalr $end
$var reg 1 X" B_DX_isLoad $end
$var reg 1 Y" B_DX_isLui $end
$var reg 1 Z" B_DX_isStore $end
$var reg 1 [" B_DX_prediction $end
$var reg 5 \" B_DX_rd [4:0] $end
$var reg 5 ]" B_DX_src1 [4:0] $end
$var reg 5 ^" B_DX_src2 [4:0] $end
$var reg 32 _" B_DX_target [31:0] $end
$var reg 32 `" B_FD_PC [31:0] $end
$var reg 32 a" B_FD_inst [31:0] $end
$var reg 3 b" B_F_ALU1 [2:0] $end
$var reg 3 c" B_F_ALU2 [2:0] $end
$var reg 32 d" B_MW_ALURESULT [31:0] $end
$var reg 32 e" B_MW_PC [31:0] $end
$var reg 1 f" B_MW_RWE $end
$var reg 32 g" B_MW_auipcResult [31:0] $end
$var reg 32 h" B_MW_dataA [31:0] $end
$var reg 32 i" B_MW_dataB [31:0] $end
$var reg 32 j" B_MW_dmemOut [31:0] $end
$var reg 32 k" B_MW_imm [31:0] $end
$var reg 32 l" B_MW_immU [31:0] $end
$var reg 32 m" B_MW_inst [31:0] $end
$var reg 1 n" B_MW_isABranch $end
$var reg 1 o" B_MW_isAuipc $end
$var reg 1 p" B_MW_isJal $end
$var reg 1 q" B_MW_isJalr $end
$var reg 1 r" B_MW_isLoad $end
$var reg 1 s" B_MW_isLui $end
$var reg 1 t" B_MW_isStore $end
$var reg 5 u" B_MW_rd [4:0] $end
$var reg 5 v" B_MW_src1 [4:0] $end
$var reg 5 w" B_MW_src2 [4:0] $end
$var reg 1 x" B_MW_taken $end
$var reg 32 y" B_XM_ALURESULT [31:0] $end
$var reg 32 z" B_XM_PC [31:0] $end
$var reg 1 {" B_XM_RWE $end
$var reg 32 |" B_XM_auipcResult [31:0] $end
$var reg 32 }" B_XM_dataA [31:0] $end
$var reg 32 ~" B_XM_dataB [31:0] $end
$var reg 3 !# B_XM_func3 [2:0] $end
$var reg 32 "# B_XM_imm [31:0] $end
$var reg 32 ## B_XM_immU [31:0] $end
$var reg 32 $# B_XM_inst [31:0] $end
$var reg 1 %# B_XM_isABranch $end
$var reg 1 &# B_XM_isAuipc $end
$var reg 1 '# B_XM_isJal $end
$var reg 1 (# B_XM_isJalr $end
$var reg 1 )# B_XM_isLoad $end
$var reg 1 *# B_XM_isLui $end
$var reg 1 +# B_XM_isStore $end
$var reg 5 ,# B_XM_rd [4:0] $end
$var reg 5 -# B_XM_src1 [4:0] $end
$var reg 5 .# B_XM_src2 [4:0] $end
$var reg 1 /# B_XM_taken $end
$var reg 32 0# B_data_writeReg [31:0] $end
$var reg 3 1# B_func3 [2:0] $end
$var reg 7 2# B_func7 [6:0] $end
$var reg 32 3# B_imm_B [31:0] $end
$var reg 32 4# B_imm_I [31:0] $end
$var reg 32 5# B_imm_J [31:0] $end
$var reg 32 6# B_imm_S [31:0] $end
$var reg 32 7# B_imm_U [31:0] $end
$var reg 7 8# B_opcode [6:0] $end
$var reg 32 9# B_operand1 [31:0] $end
$var reg 32 :# B_operand2 [31:0] $end
$var reg 5 ;# B_rd [4:0] $end
$var reg 5 <# B_rs1 [4:0] $end
$var reg 5 =# B_rs2 [4:0] $end
$var reg 1 ># EX_mispredict $end
$var reg 32 ?# EX_target [31:0] $end
$var reg 1 @# FD_prediction $end
$var reg 32 A# FD_target [31:0] $end
$var reg 2 B# MEM_F [1:0] $end
$var reg 32 C# PC [31:0] $end
$var reg 32 D# PCplus4 [31:0] $end
$var reg 32 E# PCplus8 [31:0] $end
$var reg 32 F# auipcResult [31:0] $end
$var reg 32 G# branchTarget [31:0] $end
$var reg 32 H# counter [31:0] $end
$var reg 32 I# dataIn [31:0] $end
$var reg 1 J# isCtrlA $end
$var reg 1 K# isCtrlB $end
$var reg 1 L# isMemA $end
$var reg 1 M# isMemB $end
$var reg 32 N# jalTarget [31:0] $end
$var reg 32 O# jalrTarget [31:0] $end
$var reg 32 P# nextPC [31:0] $end
$var reg 7 Q# opcodeA [6:0] $end
$var reg 7 R# opcodeB [6:0] $end
$var reg 2 S# pcSelect [1:0] $end
$scope module ALU_unit_A $end
$var wire 4 T# ALUop [3:0] $end
$var wire 32 U# operandA [31:0] $end
$var wire 32 V# operandB [31:0] $end
$var wire 32 W# signedA [31:0] $end
$var wire 32 X# signedB [31:0] $end
$var reg 1 + branch $end
$var reg 32 Y# result [31:0] $end
$scope begin alu $end
$upscope $end
$scope begin branchcomb $end
$upscope $end
$upscope $end
$scope module ALU_unit_B $end
$var wire 4 Z# ALUop [3:0] $end
$var wire 32 [# operandA [31:0] $end
$var wire 32 \# operandB [31:0] $end
$var wire 32 ]# signedA [31:0] $end
$var wire 32 ^# signedB [31:0] $end
$var reg 1 * branch $end
$var reg 32 _# result [31:0] $end
$scope begin alu $end
$upscope $end
$scope begin branchcomb $end
$upscope $end
$upscope $end
$scope module InstMem $end
$var wire 16 `# addrA [15:0] $end
$var wire 16 a# addrB [15:0] $end
$var wire 1 # clk $end
$var parameter 32 b# ADDRESS_WIDTH $end
$var parameter 32 c# DATA_WIDTH $end
$var parameter 32 d# DEPTH $end
$var parameter 160 e# MEMFILE $end
$var reg 32 f# dataOutA [31:0] $end
$var reg 32 g# dataOutB [31:0] $end
$upscope $end
$scope module ProcMem $end
$var wire 32 h# addr [31:0] $end
$var wire 1 # clk $end
$var wire 32 i# dataIn [31:0] $end
$var wire 3 j# func3 [2:0] $end
$var wire 1 +# wEn $end
$var wire 32 k# ram_data_out [31:0] $end
$var parameter 32 l# ADDRESS_WIDTH $end
$var parameter 32 m# DATA_WIDTH $end
$var parameter 32 n# DEPTH $end
$var reg 16 o# addra [15:0] $end
$var reg 4 p# byte_wea [3:0] $end
$var reg 32 q# dataOut [31:0] $end
$var reg 32 r# ram_data_in [31:0] $end
$scope module my_favorite_rammy $end
$var wire 16 s# addrA [15:0] $end
$var wire 16 t# addrB [15:0] $end
$var wire 1 # clkA $end
$var wire 1 # clkB $end
$var wire 32 u# dinA [31:0] $end
$var wire 32 v# dinB [31:0] $end
$var wire 1 w# enaA $end
$var wire 1 x# enaB $end
$var wire 4 y# weA [3:0] $end
$var wire 4 z# weB [3:0] $end
$var parameter 32 {# ADDR_WIDTH $end
$var parameter 32 |# COL_WIDTH $end
$var parameter 64 }# DATA_WIDTH $end
$var parameter 32 ~# NUM_COL $end
$var reg 32 !$ doutA [31:0] $end
$var reg 32 "$ doutB [31:0] $end
$var integer 32 #$ i [31:0] $end
$upscope $end
$upscope $end
$scope module RegisterFile $end
$var wire 1 o A_ctrl_writeEnable $end
$var wire 5 $$ A_ctrl_writeReg [4:0] $end
$var wire 32 %$ A_data_writeReg [31:0] $end
$var wire 1 f" B_ctrl_writeEnable $end
$var wire 5 &$ B_ctrl_writeReg [4:0] $end
$var wire 32 '$ B_data_writeReg [31:0] $end
$var wire 1 # clock $end
$var wire 1 ( ctrl_reset $end
$var wire 5 ($ B_ctrl_readReg2 [4:0] $end
$var wire 5 )$ B_ctrl_readReg1 [4:0] $end
$var wire 5 *$ A_ctrl_readReg2 [4:0] $end
$var wire 5 +$ A_ctrl_readReg1 [4:0] $end
$var reg 32 ,$ A_data_readReg1 [31:0] $end
$var reg 32 -$ A_data_readReg2 [31:0] $end
$var reg 32 .$ B_data_readReg1 [31:0] $end
$var reg 32 /$ B_data_readReg2 [31:0] $end
$scope begin $ivl_for_loop0 $end
$var integer 32 0$ i [31:0] $end
$upscope $end
$upscope $end
$scope module branch_predictor $end
$var wire 32 1$ PC [31:0] $end
$var wire 1 # clock $end
$var wire 1 % direction $end
$var wire 32 2$ target [31:0] $end
$upscope $end
$scope module control_unit $end
$var wire 3 3$ A_func3 [2:0] $end
$var wire 7 4$ A_func7 [6:0] $end
$var wire 7 5$ A_opcode [6:0] $end
$var wire 3 6$ B_func3 [2:0] $end
$var wire 7 7$ B_func7 [6:0] $end
$var wire 7 8$ B_opcode [6:0] $end
$var reg 1 N A_ALUinB $end
$var reg 4 9$ A_ALUop [3:0] $end
$var reg 1 L A_RWE $end
$var reg 1 F A_isABranch $end
$var reg 1 E A_isAuipc $end
$var reg 1 D A_isJal $end
$var reg 1 C A_isJalr $end
$var reg 1 B A_isLoad $end
$var reg 1 A A_isLui $end
$var reg 1 @ A_isStore $end
$var reg 1 :$ A_useFunc7 $end
$var reg 1 = B_ALUinB $end
$var reg 4 ;$ B_ALUop [3:0] $end
$var reg 1 ; B_RWE $end
$var reg 1 5 B_isABranch $end
$var reg 1 4 B_isAuipc $end
$var reg 1 3 B_isJal $end
$var reg 1 2 B_isJalr $end
$var reg 1 1 B_isLoad $end
$var reg 1 0 B_isLui $end
$var reg 1 / B_isStore $end
$var reg 1 <$ B_useFunc7 $end
$upscope $end
$scope module set_src_dest $end
$var wire 5 =$ A_dest [4:0] $end
$var wire 7 >$ A_opcode [6:0] $end
$var wire 5 ?$ A_src1 [4:0] $end
$var wire 5 @$ A_src2 [4:0] $end
$var wire 5 A$ B_dest [4:0] $end
$var wire 7 B$ B_opcode [6:0] $end
$var wire 5 C$ B_src1 [4:0] $end
$var wire 5 D$ B_src2 [4:0] $end
$var reg 5 E$ A_out_dest [4:0] $end
$var reg 5 F$ A_out_src1 [4:0] $end
$var reg 5 G$ A_out_src2 [4:0] $end
$var reg 5 H$ B_out_dest [4:0] $end
$var reg 5 I$ B_out_src1 [4:0] $end
$var reg 5 J$ B_out_src2 [4:0] $end
$upscope $end
$scope begin DX_LATCH $end
$upscope $end
$scope begin FD_LATCH $end
$upscope $end
$scope begin MW_LATCH $end
$upscope $end
$scope begin XM_LATCH $end
$upscope $end
$scope begin fetch_comb $end
$upscope $end
$scope begin program_counter $end
$upscope $end
$upscope $end
$upscope $end
$enddefinitions $end
$comment Show the parameter values. $end
$dumpall
b100 ~#
b100000 }#
b1000 |#
b10000 {#
b1000000000000 n#
b100000 m#
b100000 l#
b110000101110010011010010111010001101000010111110110111001101111010111110110100001100001011110100110000101110010011001000111001100101110011011010110010101101101 e#
b10000000000000000 d#
b100000 c#
b10000 b#
b10011 O
$end
#0
$dumpvars
b0 J$
b0 I$
b0 H$
b0 G$
b0 F$
b0 E$
b0 D$
b0 C$
b0 B$
b0 A$
b0 @$
b0 ?$
b0 >$
b0 =$
0<$
b0 ;$
0:$
b0 9$
b0 8$
b0 7$
b0 6$
b0 5$
b0 4$
b0 3$
b0 2$
b0 1$
b0 0$
b0 /$
b0 .$
b0 -$
b0 ,$
b0 +$
b0 *$
b0 )$
b0 ($
b0 '$
b0 &$
b0 %$
b0 $$
bx #$
bx "$
bx !$
b0 z#
b0 y#
0x#
1w#
b0 v#
b0 u#
b0 t#
b0 s#
b0 r#
bx q#
b0 p#
b0 o#
bx k#
b0 j#
b0 i#
b0 h#
b0 g#
b0 f#
b1 a#
b0 `#
b0 _#
b0 ^#
b0 ]#
b0 \#
b0 [#
b0 Z#
b0 Y#
b0 X#
b0 W#
b0 V#
b0 U#
b0 T#
b0 S#
b0 R#
b0 Q#
b1000 P#
b0 O#
bx N#
0M#
0L#
0K#
0J#
b0 I#
b0 H#
bx G#
bx F#
b1000 E#
b100 D#
b0 C#
b0 B#
b0 A#
0@#
b0 ?#
0>#
b0 =#
b0 <#
b0 ;#
b0 :#
b0 9#
b0 8#
b0 7#
b0 6#
b0 5#
b0 4#
b0 3#
b0 2#
b0 1#
b0 0#
0/#
b0 .#
b0 -#
b0 ,#
0+#
0*#
0)#
0(#
0'#
0&#
0%#
b0 $#
b0 ##
b0 "#
b0 !#
b0 ~"
b0 }"
b0 |"
0{"
b0 z"
b0 y"
0x"
b0 w"
b0 v"
b0 u"
0t"
0s"
0r"
0q"
0p"
0o"
0n"
b0 m"
b0 l"
b0 k"
b0 j"
b0 i"
b0 h"
b0 g"
0f"
b0 e"
b0 d"
b0 c"
b0 b"
b0 a"
b0 `"
b0 _"
b0 ^"
b0 ]"
b0 \"
0["
0Z"
0Y"
0X"
0W"
0V"
0U"
0T"
b0 S"
b0 R"
b0 Q"
b0 P"
b0 O"
b0 N"
b0 M"
b0 L"
b0 K"
0J"
bx I"
b0 H"
0G"
b0 F"
b0 E"
b0 D"
b0 C"
b0 B"
b0 A"
b0 @"
b0 ?"
b0 >"
b0 ="
b0 <"
b0 ;"
b0 :"
b0 9"
08"
b0 7"
b0 6"
b0 5"
04"
03"
02"
01"
00"
0/"
0."
b0 -"
b0 ,"
b0 +"
b0 *"
b0 )"
b0 ("
b0 '"
0&"
b0 %"
b0 $"
0#"
b0 ""
b0 !"
b0 ~
0}
0|
0{
0z
0y
0x
0w
b0 v
b0 u
b0 t
b0 s
b0 r
b0 q
b0 p
0o
b0 n
b0 m
b0 l
b0 k
b0 j
b0 i
b0 h
b0 g
b0 f
b0 e
0d
0c
0b
0a
0`
0_
0^
0]
b0 \
b0 [
b0 Z
b0 Y
b0 X
b0 W
b0 V
b0 U
b0 T
0S
bx R
b0 Q
0P
0N
b0 M
1L
b0 K
b0 J
b0 I
b0 H
b0 G
0F
0E
0D
0C
0B
0A
0@
b0 ?
b0 >
0=
b0 <
1;
b0 :
b0 9
b0 8
b0 7
b0 6
05
04
03
02
01
00
0/
b0 .
b0 -
bx ,
1+
1*
b0 )
1(
0'
0&
0%
b0 $
0#
b0 "
b0 !
$end
#5000
b10011 R#
b10011 Q#
b10000000000000100010011 6
b10000000000000100010011 g#
b1100000000000010010011 G
b1100000000000010010011 f#
b100000 0$
b100 #$
1#
#10000
0#
#15000
b100000 0$
b100 #$
1#
#20000
1=
1N
b10 7
b10 H$
b1 H
b1 E$
b0 F#
b0 N#
b0 G#
b100 5#
b10000000000000000000000 7#
b10 3#
b10 6#
b100 4#
b100 =#
b100 D$
b10 ;#
b10 A$
b10011 8#
b10011 8$
b10011 B$
b100000000010 >"
b1100000000000000000000 @"
b100000000000 <"
b1 ?"
b11 ="
b11 F"
b11 @$
b1 D"
b1 =$
b10011 A"
b10011 5$
b10011 >$
b10 `#
b11 a#
b10000 P#
b10000 E#
b1100 D#
bx j"
bx |"
1/#
bx z"
bx '"
18"
bx %"
1J"
b0 I"
1S
b0 R
b10000000000000100010011 a"
b1100000000000010010011 j
b100 `"
b1000 C#
b1000 1$
0#
0(
#25000
b1100 P#
1J#
b1101111 Q#
b100100000000001100010011 6
b100100000000001100010011 g#
b100000000000010001101111 G
b100000000000010001101111 f#
b1 $
b1 H#
b100 #$
1#
#30000
0*
b100 :
b100 _#
0+
b11 K
b11 Y#
13
0=
b1000 7
b1000 H$
b0 H
b0 E$
b10000000000000000000100 F#
b100 O#
b1000 N#
b110 G#
b100 :#
b100 \#
b100 ^#
b11 C"
b11 V#
b11 X#
b1000 5#
b100000000000000000000000 7#
b1000 3#
b1000 6#
b1000 4#
b1000 =#
b1000 D$
b1000 ;#
b1000 A$
b1101111 8#
b1101111 8$
b1101111 B$
b0 >"
b0 @"
b0 <"
b0 ?"
b0 ="
b0 F"
b0 @$
b0 D"
b0 =$
b11 `#
b100 a#
1J#
b10000 P#
b10100 E#
b10000 D#
bx g"
1x"
bx e"
bx p
1#"
bx n
b0 |"
1{"
b0 z"
b0 '"
1&"
b0 %"
b10 \"
1G"
b100 P"
b10000000000000000000000 R"
b10 O"
b10 Q"
b100 N"
b10000000000000100010011 S"
b100 I"
b1 e
1P
b100000000010 Y
b1100000000000000000000 [
b100000000000 X
b1 Z
b11 W
b1100000000000010010011 \
b100000000000010001101111 a"
b10011 j
b1000 `"
b1000 i
b1100 C#
b1100 1$
0#
#35000
0J#
b10011 Q#
b10100 P#
b10100000000000110010011 6
b10100000000000110010011 g#
b100100000000001100010011 G
b100100000000001100010011 f#
b10 $
b10 H#
b100 #$
1#
#40000
0&
1*
b0 :
b0 _#
1+
b0 K
b0 Y#
03
1=
b11 7
b11 H$
b110 H
b110 E$
b1 o#
b1 s#
b10 S#
b10000 ?#
1>#
b100000000000000000001000 F#
b1000 O#
b10000 N#
b10000 G#
b0 :#
b0 \#
b0 ^#
b0 C"
b0 V#
b0 X#
b100000000100 5#
b10100000000000000000000 7#
b100000000010 3#
b11 6#
b101 4#
b101 =#
b101 D$
b11 ;#
b11 A$
b10011 8#
b10011 8$
b10011 B$
b100000001000 >"
b100100000000000000000000 @"
b110 <"
b110 ?"
b1001 ="
b1001 F"
b1001 @$
b110 D"
b110 =$
b101 `#
b110 a#
b10000 P#
b11100 E#
b11000 D#
b0 g"
1f"
b0 e"
b0 p
1o
b0 n
b10000000000000000000000 ##
b10000000000000000000100 |"
b10 ,#
0/#
b100 y"
b100 h#
b100 "#
b10000000000000100010011 $#
b100 z"
b1100000000000000000000 ,"
b10000000000000000000100 '"
b1 5"
08"
b11 $"
b11 +"
b1100000000000010010011 -"
1V"
b1000 \"
0G"
b1000 P"
b100000000000000000000000 R"
b1000 O"
b1000 Q"
b1000 N"
b100000000000010001101111 S"
b1000 I"
b0 e
b0 Y
b0 [
b0 X
b0 Z
b0 W
b10011 \
b1000 R
b10100000000000110010011 a"
b100100000000001100010011 j
b10000 `"
b1100 i
b10100 C#
b10100 1$
0#
#45000
1K#
b1100111 R#
b10000 P#
b1000000000001100111 6
b1000000000001100111 g#
b11000000000001000010011 G
b11000000000001000010011 f#
b11 $
b11 H#
b100 #$
1#
#50000
0=
0N
b0 7
b0 H$
b0 H
b0 E$
b100 0#
b100 '$
b11 9"
b11 %$
b0 o#
b0 s#
b0 S#
b0 ?#
0>#
b1000 F#
b0 O#
b1000 N#
b1000 G#
b0 5#
b0 7#
b0 3#
b0 6#
b0 4#
b0 =#
b0 D$
b0 ;#
b0 A$
b0 8#
b0 8$
b0 B$
b0 >"
b0 @"
b0 <"
b0 ?"
b0 ="
b0 F"
b0 @$
b0 D"
b0 =$
b0 A"
b0 5$
b0 >$
b100 `#
b101 a#
1K#
b11000 P#
b11000 E#
b10100 D#
b10000000000000000000000 l"
b10000000000000000000100 g"
b10 "
b10 &$
b10 u"
0x"
b100 d"
b100 k"
b10000000000000100010011 m"
b100 e"
b1100000000000000000000 u
b10000000000000000000100 p
b1 !
b1 $$
b1 ~
0#"
b11 m
b11 t
b1100000000000010010011 v
b100000000000000000000000 ##
b100000000000000000001000 |"
1'#
b1000 ,#
1/#
b0 y"
b0 h#
b1000 "#
b100000000000010001101111 $#
b1000 z"
b0 ,"
b100000000000000000001000 '"
b0 5"
18"
b0 $"
b0 +"
b10011 -"
b1000 %"
0V"
0J"
b0 \"
b0 P"
b0 R"
b0 O"
b0 Q"
b0 N"
b0 S"
0S
0P
b0 \
b0 a"
b0 j
b0 `"
b0 i
b10000 C#
b10000 1$
0#
#55000
0K#
b10011 R#
b11000000000001000010011 6
b11000000000001000010011 g#
b10100000000000110010011 G
b10100000000000110010011 f#
b100 $
b100 H#
b100 #$
1#
#60000
1=
1N
b100 7
b100 H$
b11 H
b11 E$
b1100 0#
b1100 '$
b0 9"
b0 %$
b0 F#
b0 N#
b0 G#
b110 5#
b11000000000000000000000 7#
b100 3#
b100 6#
b110 4#
b110 =#
b110 D$
b100 ;#
b100 A$
b10011 8#
b10011 8$
b10011 B$
b100000000100 >"
b10100000000000000000000 @"
b100000000010 <"
b11 ?"
b101 ="
b101 F"
b101 @$
b11 D"
b11 =$
b10011 A"
b10011 5$
b10011 >$
b110 `#
b111 a#
b100000 P#
b100000 E#
b11100 D#
b100000000000000000000000 l"
b100000000000000000001000 g"
1p"
b1000 "
b1000 &$
b1000 u"
1x"
b0 d"
b1000 k"
b100000000000010001101111 m"
b1000 e"
b0 u
b100000000000000000001000 p
b0 !
b0 $$
b0 ~
1#"
b0 m
b0 t
b10011 v
b1000 n
b0 ##
b1000 |"
0'#
0{"
b0 ,#
b0 "#
b0 $#
b1000 '"
0&"
b0 -"
1J"
b0 I"
1S
b0 R
b11000000000001000010011 a"
b10100000000000110010011 j
b10100 `"
b10000 i
b11000 C#
b11000 1$
0#
#65000
b11100 P#
xM#
xK#
1J#
bx R#
b1100111 Q#
bx 6
bx g#
b1000000000001100111 G
b1000000000001100111 f#
b101 $
b101 H#
b100 #$
1#
#70000
b1100 9
b1100 .$
0*
b110 :
b110 _#
0+
b101 K
b101 Y#
12
0=
b0 7
b0 H$
b1000 .
b1000 )$
b1000 I$
b0 H
b0 E$
b0 0#
b0 '$
b11000000000000000010100 F#
b110 O#
b11010 N#
b11000 G#
b110 :#
b110 \#
b110 ^#
b101 C"
b101 V#
b101 X#
b1000000000000000000 5#
b1000000000000000000 7#
b0 3#
b0 6#
b0 4#
b0 =#
b0 D$
b1000 <#
b1000 C$
b0 ;#
b0 A$
b1100111 8#
b1100111 8$
b1100111 B$
b0 >"
b0 @"
b0 <"
b0 ?"
b0 ="
b0 F"
b0 @$
b0 D"
b0 =$
b111 `#
b1000 a#
xK#
1J#
b100000 P#
b100100 E#
b100000 D#
b0 l"
b1000 g"
0p"
0f"
b0 "
b0 &$
b0 u"
b0 k"
b0 m"
b1000 p
0o
b0 v
b0 |"
1{"
b0 z"
b0 '"
1&"
b0 %"
b100 \"
1G"
b110 P"
b11000000000000000000000 R"
b100 O"
b100 Q"
b110 N"
b11000000000001000010011 S"
b10100 I"
b11 e
1P
b100000000100 Y
b10100000000000000000000 [
b100000000010 X
b11 Z
b101 W
b10100000000000110010011 \
b10000 R
b1000000000001100111 a"
b10011 j
b11000 `"
b11000 i
b11100 C#
b11100 1$
0#
#75000
xL#
xK#
xJ#
bx Q#
b100100 P#
bx G
bx f#
b110 $
b110 H#
b100 #$
1#
