processor.vcd
$date
	Sun Nov 30 00:14:27 2025
$end
$version
	Icarus Verilog
$end
$timescale
	1ps
$end
$scope module tb_processor $end
$scope module uut $end
$var wire 5 ! A_WB_destination [4:0] $end
$var wire 5 " B_WB_destination [4:0] $end
$var wire 1 # clock $end
$var wire 1 $ dir_pred $end
$var wire 1 % intra_packet_hazard $end
$var wire 1 & load_use_hazard $end
$var wire 1 ' reset $end
$var wire 32 ( tar_pred [31:0] $end
$var wire 1 ) trash $end
$var wire 1 * taken $end
$var wire 32 + dataOut [31:0] $end
$var wire 5 , B_src2 [4:0] $end
$var wire 5 - B_src1 [4:0] $end
$var wire 1 . B_isStore $end
$var wire 1 / B_isLui $end
$var wire 1 0 B_isLoad $end
$var wire 1 1 B_isJalr $end
$var wire 1 2 B_isJal $end
$var wire 1 3 B_isAuipc $end
$var wire 1 4 B_isABranch $end
$var wire 32 5 B_instruction [31:0] $end
$var wire 5 6 B_dest [4:0] $end
$var wire 32 7 B_data_readReg2 [31:0] $end
$var wire 32 8 B_data_readReg1 [31:0] $end
$var wire 32 9 B_aluResult [31:0] $end
$var wire 1 : B_RWE $end
$var wire 4 ; B_ALUop [3:0] $end
$var wire 1 < B_ALUinB $end
$var wire 5 = A_src2 [4:0] $end
$var wire 5 > A_src1 [4:0] $end
$var wire 1 ? A_isStore $end
$var wire 1 @ A_isLui $end
$var wire 1 A A_isLoad $end
$var wire 1 B A_isJalr $end
$var wire 1 C A_isJal $end
$var wire 1 D A_isAuipc $end
$var wire 1 E A_isABranch $end
$var wire 32 F A_instruction [31:0] $end
$var wire 5 G A_dest [4:0] $end
$var wire 32 H A_data_readReg2 [31:0] $end
$var wire 32 I A_data_readReg1 [31:0] $end
$var wire 32 J A_aluResult [31:0] $end
$var wire 1 K A_RWE $end
$var wire 4 L A_ALUop [3:0] $end
$var wire 1 M A_ALUinB $end
$var parameter 32 N NOP $end
$var reg 1 O A_DX_ALUinB $end
$var reg 4 P A_DX_ALUop [3:0] $end
$var reg 32 Q A_DX_PC [31:0] $end
$var reg 1 R A_DX_RWE $end
$var reg 32 S A_DX_dataA [31:0] $end
$var reg 32 T A_DX_dataB [31:0] $end
$var reg 3 U A_DX_func3 [2:0] $end
$var reg 32 V A_DX_imm [31:0] $end
$var reg 32 W A_DX_immB [31:0] $end
$var reg 32 X A_DX_immJ [31:0] $end
$var reg 32 Y A_DX_immS [31:0] $end
$var reg 32 Z A_DX_immU [31:0] $end
$var reg 32 [ A_DX_inst [31:0] $end
$var reg 1 \ A_DX_isABranch $end
$var reg 1 ] A_DX_isAuipc $end
$var reg 1 ^ A_DX_isJal $end
$var reg 1 _ A_DX_isJalr $end
$var reg 1 ` A_DX_isLoad $end
$var reg 1 a A_DX_isLui $end
$var reg 1 b A_DX_isStore $end
$var reg 1 c A_DX_prediction $end
$var reg 5 d A_DX_rd [4:0] $end
$var reg 5 e A_DX_src1 [4:0] $end
$var reg 5 f A_DX_src2 [4:0] $end
$var reg 32 g A_DX_target [31:0] $end
$var reg 32 h A_FD_PC [31:0] $end
$var reg 32 i A_FD_inst [31:0] $end
$var reg 3 j A_F_ALU1 [2:0] $end
$var reg 3 k A_F_ALU2 [2:0] $end
$var reg 32 l A_MW_ALURESULT [31:0] $end
$var reg 32 m A_MW_PC [31:0] $end
$var reg 1 n A_MW_RWE $end
$var reg 32 o A_MW_auipcResult [31:0] $end
$var reg 32 p A_MW_dataA [31:0] $end
$var reg 32 q A_MW_dataB [31:0] $end
$var reg 32 r A_MW_dmemOut [31:0] $end
$var reg 32 s A_MW_imm [31:0] $end
$var reg 32 t A_MW_immU [31:0] $end
$var reg 32 u A_MW_inst [31:0] $end
$var reg 1 v A_MW_isABranch $end
$var reg 1 w A_MW_isAuipc $end
$var reg 1 x A_MW_isJal $end
$var reg 1 y A_MW_isJalr $end
$var reg 1 z A_MW_isLoad $end
$var reg 1 { A_MW_isLui $end
$var reg 1 | A_MW_isStore $end
$var reg 5 } A_MW_rd [4:0] $end
$var reg 5 ~ A_MW_src1 [4:0] $end
$var reg 5 !" A_MW_src2 [4:0] $end
$var reg 1 "" A_MW_taken $end
$var reg 32 #" A_XM_ALURESULT [31:0] $end
$var reg 32 $" A_XM_PC [31:0] $end
$var reg 1 %" A_XM_RWE $end
$var reg 32 &" A_XM_auipcResult [31:0] $end
$var reg 32 '" A_XM_dataA [31:0] $end
$var reg 32 (" A_XM_dataB [31:0] $end
$var reg 3 )" A_XM_func3 [2:0] $end
$var reg 32 *" A_XM_imm [31:0] $end
$var reg 32 +" A_XM_immU [31:0] $end
$var reg 32 ," A_XM_inst [31:0] $end
$var reg 1 -" A_XM_isABranch $end
$var reg 1 ." A_XM_isAuipc $end
$var reg 1 /" A_XM_isJal $end
$var reg 1 0" A_XM_isJalr $end
$var reg 1 1" A_XM_isLoad $end
$var reg 1 2" A_XM_isLui $end
$var reg 1 3" A_XM_isStore $end
$var reg 5 4" A_XM_rd [4:0] $end
$var reg 5 5" A_XM_src1 [4:0] $end
$var reg 5 6" A_XM_src2 [4:0] $end
$var reg 1 7" A_XM_taken $end
$var reg 32 8" A_data_writeReg [31:0] $end
$var reg 3 9" A_func3 [2:0] $end
$var reg 7 :" A_func7 [6:0] $end
$var reg 32 ;" A_imm_B [31:0] $end
$var reg 32 <" A_imm_I [31:0] $end
$var reg 32 =" A_imm_J [31:0] $end
$var reg 32 >" A_imm_S [31:0] $end
$var reg 32 ?" A_imm_U [31:0] $end
$var reg 7 @" A_opcode [6:0] $end
$var reg 32 A" A_operand1 [31:0] $end
$var reg 32 B" A_operand2 [31:0] $end
$var reg 5 C" A_rd [4:0] $end
$var reg 5 D" A_rs1 [4:0] $end
$var reg 5 E" A_rs2 [4:0] $end
$var reg 1 F" B_DX_ALUinB $end
$var reg 4 G" B_DX_ALUop [3:0] $end
$var reg 32 H" B_DX_PC [31:0] $end
$var reg 1 I" B_DX_RWE $end
$var reg 32 J" B_DX_dataA [31:0] $end
$var reg 32 K" B_DX_dataB [31:0] $end
$var reg 3 L" B_DX_func3 [2:0] $end
$var reg 32 M" B_DX_imm [31:0] $end
$var reg 32 N" B_DX_immB [31:0] $end
$var reg 32 O" B_DX_immJ [31:0] $end
$var reg 32 P" B_DX_immS [31:0] $end
$var reg 32 Q" B_DX_immU [31:0] $end
$var reg 32 R" B_DX_inst [31:0] $end
$var reg 1 S" B_DX_isABranch $end
$var reg 1 T" B_DX_isAuipc $end
$var reg 1 U" B_DX_isJal $end
$var reg 1 V" B_DX_isJalr $end
$var reg 1 W" B_DX_isLoad $end
$var reg 1 X" B_DX_isLui $end
$var reg 1 Y" B_DX_isStore $end
$var reg 1 Z" B_DX_prediction $end
$var reg 5 [" B_DX_rd [4:0] $end
$var reg 5 \" B_DX_src1 [4:0] $end
$var reg 5 ]" B_DX_src2 [4:0] $end
$var reg 32 ^" B_DX_target [31:0] $end
$var reg 32 _" B_FD_PC [31:0] $end
$var reg 32 `" B_FD_inst [31:0] $end
$var reg 3 a" B_F_ALU1 [2:0] $end
$var reg 3 b" B_F_ALU2 [2:0] $end
$var reg 32 c" B_MW_ALURESULT [31:0] $end
$var reg 32 d" B_MW_PC [31:0] $end
$var reg 1 e" B_MW_RWE $end
$var reg 32 f" B_MW_auipcResult [31:0] $end
$var reg 32 g" B_MW_dataA [31:0] $end
$var reg 32 h" B_MW_dataB [31:0] $end
$var reg 32 i" B_MW_dmemOut [31:0] $end
$var reg 32 j" B_MW_imm [31:0] $end
$var reg 32 k" B_MW_immU [31:0] $end
$var reg 32 l" B_MW_inst [31:0] $end
$var reg 1 m" B_MW_isABranch $end
$var reg 1 n" B_MW_isAuipc $end
$var reg 1 o" B_MW_isJal $end
$var reg 1 p" B_MW_isJalr $end
$var reg 1 q" B_MW_isLoad $end
$var reg 1 r" B_MW_isLui $end
$var reg 1 s" B_MW_isStore $end
$var reg 5 t" B_MW_rd [4:0] $end
$var reg 5 u" B_MW_src1 [4:0] $end
$var reg 5 v" B_MW_src2 [4:0] $end
$var reg 1 w" B_MW_taken $end
$var reg 32 x" B_XM_ALURESULT [31:0] $end
$var reg 32 y" B_XM_PC [31:0] $end
$var reg 1 z" B_XM_RWE $end
$var reg 32 {" B_XM_auipcResult [31:0] $end
$var reg 32 |" B_XM_dataA [31:0] $end
$var reg 32 }" B_XM_dataB [31:0] $end
$var reg 3 ~" B_XM_func3 [2:0] $end
$var reg 32 !# B_XM_imm [31:0] $end
$var reg 32 "# B_XM_immU [31:0] $end
$var reg 32 ## B_XM_inst [31:0] $end
$var reg 1 $# B_XM_isABranch $end
$var reg 1 %# B_XM_isAuipc $end
$var reg 1 &# B_XM_isJal $end
$var reg 1 '# B_XM_isJalr $end
$var reg 1 (# B_XM_isLoad $end
$var reg 1 )# B_XM_isLui $end
$var reg 1 *# B_XM_isStore $end
$var reg 5 +# B_XM_rd [4:0] $end
$var reg 5 ,# B_XM_src1 [4:0] $end
$var reg 5 -# B_XM_src2 [4:0] $end
$var reg 1 .# B_XM_taken $end
$var reg 32 /# B_data_writeReg [31:0] $end
$var reg 3 0# B_func3 [2:0] $end
$var reg 7 1# B_func7 [6:0] $end
$var reg 32 2# B_imm_B [31:0] $end
$var reg 32 3# B_imm_I [31:0] $end
$var reg 32 4# B_imm_J [31:0] $end
$var reg 32 5# B_imm_S [31:0] $end
$var reg 32 6# B_imm_U [31:0] $end
$var reg 7 7# B_opcode [6:0] $end
$var reg 32 8# B_operand1 [31:0] $end
$var reg 32 9# B_operand2 [31:0] $end
$var reg 5 :# B_rd [4:0] $end
$var reg 5 ;# B_rs1 [4:0] $end
$var reg 5 <# B_rs2 [4:0] $end
$var reg 1 =# EX_mispredict $end
$var reg 32 ># EX_target [31:0] $end
$var reg 1 ?# FD_prediction $end
$var reg 32 @# FD_target [31:0] $end
$var reg 2 A# MEM_F [1:0] $end
$var reg 32 B# PC [31:0] $end
$var reg 32 C# PCplus4 [31:0] $end
$var reg 32 D# PCplus8 [31:0] $end
$var reg 32 E# auipcResult [31:0] $end
$var reg 32 F# branchTarget [31:0] $end
$var reg 32 G# counter [31:0] $end
$var reg 32 H# counter_out [31:0] $end
$var reg 32 I# dataIn [31:0] $end
$var reg 1 J# isCtrlA $end
$var reg 1 K# isCtrlB $end
$var reg 1 L# isMemA $end
$var reg 1 M# isMemB $end
$var reg 32 N# jalTarget [31:0] $end
$var reg 32 O# jalrTarget [31:0] $end
$var reg 32 P# nextPC [31:0] $end
$var reg 7 Q# opcodeA [6:0] $end
$var reg 7 R# opcodeB [6:0] $end
$var reg 2 S# pcSelect [1:0] $end
$scope module ALU_unit_A $end
$var wire 4 T# ALUop [3:0] $end
$var wire 32 U# operandA [31:0] $end
$var wire 32 V# operandB [31:0] $end
$var wire 32 W# signedA [31:0] $end
$var wire 32 X# signedB [31:0] $end
$var reg 1 ) branch $end
$var reg 32 Y# result [31:0] $end
$scope begin alu $end
$upscope $end
$scope begin branchcomb $end
$upscope $end
$upscope $end
$scope module ALU_unit_B $end
$var wire 4 Z# ALUop [3:0] $end
$var wire 32 [# operandA [31:0] $end
$var wire 32 \# operandB [31:0] $end
$var wire 32 ]# signedA [31:0] $end
$var wire 32 ^# signedB [31:0] $end
$var reg 1 * branch $end
$var reg 32 _# result [31:0] $end
$scope begin alu $end
$upscope $end
$scope begin branchcomb $end
$upscope $end
$upscope $end
$scope module InstMem $end
$var wire 16 `# addrA [15:0] $end
$var wire 16 a# addrB [15:0] $end
$var wire 1 # clk $end
$var parameter 32 b# ADDRESS_WIDTH $end
$var parameter 32 c# DATA_WIDTH $end
$var parameter 32 d# DEPTH $end
$var parameter 160 e# MEMFILE $end
$var reg 32 f# dataOutA [31:0] $end
$var reg 32 g# dataOutB [31:0] $end
$upscope $end
$scope module ProcMem $end
$var wire 32 h# addr [31:0] $end
$var wire 1 # clk $end
$var wire 32 i# dataIn [31:0] $end
$var wire 3 j# func3 [2:0] $end
$var wire 1 *# wEn $end
$var wire 32 k# ram_data_out [31:0] $end
$var parameter 32 l# ADDRESS_WIDTH $end
$var parameter 32 m# DATA_WIDTH $end
$var parameter 32 n# DEPTH $end
$var reg 16 o# addra [15:0] $end
$var reg 4 p# byte_wea [3:0] $end
$var reg 32 q# dataOut [31:0] $end
$var reg 32 r# ram_data_in [31:0] $end
$scope module my_favorite_rammy $end
$var wire 16 s# addrA [15:0] $end
$var wire 16 t# addrB [15:0] $end
$var wire 1 # clkA $end
$var wire 1 # clkB $end
$var wire 32 u# dinA [31:0] $end
$var wire 32 v# dinB [31:0] $end
$var wire 1 w# enaA $end
$var wire 1 x# enaB $end
$var wire 4 y# weA [3:0] $end
$var wire 4 z# weB [3:0] $end
$var parameter 32 {# ADDR_WIDTH $end
$var parameter 32 |# COL_WIDTH $end
$var parameter 64 }# DATA_WIDTH $end
$var parameter 32 ~# NUM_COL $end
$var reg 32 !$ doutA [31:0] $end
$var reg 32 "$ doutB [31:0] $end
$var integer 32 #$ i [31:0] $end
$upscope $end
$upscope $end
$scope module RegisterFile $end
$var wire 1 n A_ctrl_writeEnable $end
$var wire 5 $$ A_ctrl_writeReg [4:0] $end
$var wire 32 %$ A_data_writeReg [31:0] $end
$var wire 1 e" B_ctrl_writeEnable $end
$var wire 5 &$ B_ctrl_writeReg [4:0] $end
$var wire 32 '$ B_data_writeReg [31:0] $end
$var wire 1 # clock $end
$var wire 1 ' ctrl_reset $end
$var wire 5 ($ B_ctrl_readReg2 [4:0] $end
$var wire 5 )$ B_ctrl_readReg1 [4:0] $end
$var wire 5 *$ A_ctrl_readReg2 [4:0] $end
$var wire 5 +$ A_ctrl_readReg1 [4:0] $end
$var reg 32 ,$ A_data_readReg1 [31:0] $end
$var reg 32 -$ A_data_readReg2 [31:0] $end
$var reg 32 .$ B_data_readReg1 [31:0] $end
$var reg 32 /$ B_data_readReg2 [31:0] $end
$scope begin $ivl_for_loop0 $end
$var integer 32 0$ i [31:0] $end
$upscope $end
$upscope $end
$scope module control_unit $end
$var wire 3 1$ A_func3 [2:0] $end
$var wire 7 2$ A_func7 [6:0] $end
$var wire 7 3$ A_opcode [6:0] $end
$var wire 3 4$ B_func3 [2:0] $end
$var wire 7 5$ B_func7 [6:0] $end
$var wire 7 6$ B_opcode [6:0] $end
$var reg 1 M A_ALUinB $end
$var reg 4 7$ A_ALUop [3:0] $end
$var reg 1 K A_RWE $end
$var reg 1 E A_isABranch $end
$var reg 1 D A_isAuipc $end
$var reg 1 8$ A_isHalt $end
$var reg 1 C A_isJal $end
$var reg 1 B A_isJalr $end
$var reg 1 A A_isLoad $end
$var reg 1 @ A_isLui $end
$var reg 1 ? A_isStore $end
$var reg 1 9$ A_useFunc7 $end
$var reg 1 < B_ALUinB $end
$var reg 4 :$ B_ALUop [3:0] $end
$var reg 1 : B_RWE $end
$var reg 1 4 B_isABranch $end
$var reg 1 3 B_isAuipc $end
$var reg 1 ;$ B_isHalt $end
$var reg 1 2 B_isJal $end
$var reg 1 1 B_isJalr $end
$var reg 1 0 B_isLoad $end
$var reg 1 / B_isLui $end
$var reg 1 . B_isStore $end
$var reg 1 <$ B_useFunc7 $end
$upscope $end
$scope module set_src_dest $end
$var wire 5 =$ A_dest [4:0] $end
$var wire 7 >$ A_opcode [6:0] $end
$var wire 5 ?$ A_src1 [4:0] $end
$var wire 5 @$ A_src2 [4:0] $end
$var wire 5 A$ B_dest [4:0] $end
$var wire 7 B$ B_opcode [6:0] $end
$var wire 5 C$ B_src1 [4:0] $end
$var wire 5 D$ B_src2 [4:0] $end
$var reg 5 E$ A_out_dest [4:0] $end
$var reg 5 F$ A_out_src1 [4:0] $end
$var reg 5 G$ A_out_src2 [4:0] $end
$var reg 5 H$ B_out_dest [4:0] $end
$var reg 5 I$ B_out_src1 [4:0] $end
$var reg 5 J$ B_out_src2 [4:0] $end
$upscope $end
$scope begin DX_LATCH $end
$upscope $end
$scope begin FD_LATCH $end
$upscope $end
$scope begin MW_LATCH $end
$upscope $end
$scope begin XM_LATCH $end
$upscope $end
$scope begin fetch_comb $end
$upscope $end
$scope begin program_counter $end
$upscope $end
$upscope $end
$upscope $end
$enddefinitions $end
$comment Show the parameter values. $end
$dumpall
b100 ~#
b100000 }#
b1000 |#
b10000 {#
b1000000000000 n#
b100000 m#
b100000 l#
b110000101110010011010010111010001101000010111110110111001101111010111110110100001100001011110100110000101110010011001000111001100101110011011010110010101101101 e#
b10000000000000000 d#
b100000 c#
b10000 b#
b10011 N
$end
#0
$dumpvars
b0 J$
b0 I$
b0 H$
b0 G$
b0 F$
b0 E$
b0 D$
b0 C$
b0 B$
b0 A$
b0 @$
b0 ?$
b0 >$
b0 =$
0<$
0;$
b0 :$
09$
08$
b0 7$
b0 6$
b0 5$
b0 4$
b0 3$
b0 2$
b0 1$
b0 0$
b0 /$
b0 .$
b0 -$
b0 ,$
b0 +$
b0 *$
b0 )$
b0 ($
b0 '$
b0 &$
b0 %$
b0 $$
bx #$
bx "$
bx !$
b0 z#
b0 y#
0x#
1w#
b0 v#
b0 u#
b0 t#
b0 s#
b0 r#
bx q#
b0 p#
b0 o#
bx k#
b0 j#
b0 i#
b0 h#
b0 g#
b0 f#
b1 a#
b0 `#
b0 _#
b0 ^#
b0 ]#
b0 \#
b0 [#
b0 Z#
b0 Y#
b0 X#
b0 W#
b0 V#
b0 U#
b0 T#
b0 S#
b0 R#
b0 Q#
b1000 P#
b0 O#
bx N#
0M#
0L#
0K#
0J#
b0 I#
bx H#
b0 G#
bx F#
bx E#
b1000 D#
b100 C#
b0 B#
b0 A#
b0 @#
0?#
b0 >#
0=#
b0 <#
b0 ;#
b0 :#
b0 9#
b0 8#
b0 7#
b0 6#
b0 5#
b0 4#
b0 3#
b0 2#
b0 1#
b0 0#
b0 /#
0.#
b0 -#
b0 ,#
b0 +#
0*#
0)#
0(#
0'#
0&#
0%#
0$#
b0 ##
b0 "#
b0 !#
b0 ~"
b0 }"
b0 |"
b0 {"
0z"
b0 y"
b0 x"
0w"
b0 v"
b0 u"
b0 t"
0s"
0r"
0q"
0p"
0o"
0n"
0m"
b0 l"
b0 k"
b0 j"
b0 i"
b0 h"
b0 g"
b0 f"
0e"
b0 d"
b0 c"
b0 b"
b0 a"
b0 `"
b0 _"
b0 ^"
b0 ]"
b0 \"
b0 ["
0Z"
0Y"
0X"
0W"
0V"
0U"
0T"
0S"
b0 R"
b0 Q"
b0 P"
b0 O"
b0 N"
b0 M"
b0 L"
b0 K"
b0 J"
0I"
bx H"
b0 G"
0F"
b0 E"
b0 D"
b0 C"
b0 B"
b0 A"
b0 @"
b0 ?"
b0 >"
b0 ="
b0 <"
b0 ;"
b0 :"
b0 9"
b0 8"
07"
b0 6"
b0 5"
b0 4"
03"
02"
01"
00"
0/"
0."
0-"
b0 ,"
b0 +"
b0 *"
b0 )"
b0 ("
b0 '"
b0 &"
0%"
b0 $"
b0 #"
0""
b0 !"
b0 ~
b0 }
0|
0{
0z
0y
0x
0w
0v
b0 u
b0 t
b0 s
b0 r
b0 q
b0 p
b0 o
0n
b0 m
b0 l
b0 k
b0 j
b0 i
b0 h
b0 g
b0 f
b0 e
b0 d
0c
0b
0a
0`
0_
0^
0]
0\
b0 [
b0 Z
b0 Y
b0 X
b0 W
b0 V
b0 U
b0 T
b0 S
0R
bx Q
b0 P
0O
0M
b0 L
1K
b0 J
b0 I
b0 H
b0 G
b0 F
0E
0D
0C
0B
0A
0@
0?
b0 >
b0 =
0<
b0 ;
1:
b0 9
b0 8
b0 7
b0 6
b0 5
04
03
02
01
00
0/
0.
b0 -
b0 ,
bx +
1*
1)
b0 (
1'
0&
0%
0$
0#
b0 "
b0 !
$end
#5000
b10011 R#
b10011 Q#
b10000000000000000000100010011 5
b10000000000000000000100010011 g#
b11000000000010100010011 F
b11000000000010100010011 f#
b100000 0$
b100 #$
1#
#10000
0#
#15000
b100000 0$
b100 #$
1#
#20000
1<
1M
b10 6
b10 H$
b1010 G
b1010 E$
b0 E#
b0 N#
b0 F#
b100000000 4#
b10000000000000000000000000000 6#
b100000010 2#
b100000010 5#
b100000000 3#
b10 :#
b10 A$
b1000 1#
b1000 5$
b10011 7#
b10011 6$
b10011 B$
b110 ="
b11000000000000000000000 ?"
b1010 ;"
b1010 >"
b110 <"
b110 E"
b110 @$
b1010 C"
b1010 =$
b10011 @"
b10011 3$
b10011 >$
b10000 P#
b10000 D#
b1100 C#
b10 `#
b11 a#
bx i"
bx {"
1.#
bx y"
bx &"
17"
bx $"
1I"
b0 H"
1R
b0 Q
b10000000000000000000100010011 `"
b11000000000010100010011 i
b100 _"
b1000 B#
0#
0'
#25000
b1100 P#
1J#
b1101111 Q#
b1010000001010010011 5
b1010000001010010011 g#
b110000000000000011101111 F
b110000000000000011101111 f#
b1 G#
b100 #$
1#
#30000
0*
b100000000 9
b100000000 _#
0)
b110 J
b110 Y#
12
0<
b1 6
b1 H$
b0 G
b0 E$
b10000000000000000000000000100 E#
b100000000 O#
b100000100 N#
b100000110 F#
b100000000 9#
b100000000 \#
b100000000 ^#
b110 B"
b110 V#
b110 X#
b1100 4#
b110000000000000000000000 6#
b100000000000 2#
b1 5#
b1100 3#
b1100 <#
b1100 D$
b1 :#
b1 A$
b0 1#
b0 5$
b1101111 7#
b1101111 6$
b1101111 B$
b0 ="
b0 ?"
b0 ;"
b0 >"
b0 <"
b0 E"
b0 @$
b0 C"
b0 =$
1J#
b10000 P#
b10100 D#
b10000 C#
b11 `#
b100 a#
bx f"
1w"
bx d"
bx o
1""
bx m
b0 {"
1z"
b0 y"
b0 &"
1%"
b0 $"
b10 ["
1F"
b100000000 O"
b10000000000000000000000000000 Q"
b100000010 N"
b100000010 P"
b100000000 M"
b10000000000000000000100010011 R"
b100 H"
b1010 d
1O
b110 X
b11000000000000000000000 Z
b1010 W
b1010 Y
b110 V
b11000000000010100010011 [
b110000000000000011101111 `"
b10011 i
b1000 _"
b1000 h
b1100 B#
0#
#35000
1K#
0J#
b1101111 R#
b10011 Q#
b10100 P#
b101000000000000000001101111 5
b101000000000000000001101111 g#
b1010000001010010011 F
b1010000001010010011 f#
b10 G#
b100 #$
1#
#40000
0%
1*
b0 9
b0 _#
1)
b0 J
b0 Y#
b0 6
b0 H$
b101 G
b101 E$
b1010 >
b1010 +$
b1010 F$
b1000000 o#
b1000000 s#
b10 S#
b10100 >#
1=#
b110000000000000000001000 E#
b1100 O#
b10100 N#
b100000001000 F#
b0 9#
b0 \#
b0 ^#
b0 B"
b0 V#
b0 X#
b1010000 4#
b101000000000000000000000000 6#
b1000000 2#
b1000000 5#
b1010000 3#
b10000 <#
b10000 D$
b0 :#
b0 A$
b10 1#
b10 5$
b1010000000000000000 ="
b1010000000000000000 ?"
b100000000100 ;"
b101 >"
b1010 D"
b1010 ?$
b101 C"
b101 =$
1K#
b10100 P#
b11100 D#
b11000 C#
b101 `#
b110 a#
b0 f"
1e"
b0 d"
b0 o
1n
b0 m
b10000000000000000000000000000 "#
b10000000000000000000000000100 {"
b10 +#
0.#
b100000000 x"
b100000000 h#
b100000000 !#
b10000000000000000000100010011 ##
b100 y"
b11000000000000000000000 +"
b10000000000000000000000000100 &"
b1010 4"
07"
b110 #"
b110 *"
b11000000000010100010011 ,"
1U"
b1 ["
0F"
b1100 O"
b110000000000000000000000 Q"
b100000000000 N"
b1 P"
b1100 M"
b110000000000000011101111 R"
b1000 H"
b0 d
b0 X
b0 Z
b0 W
b0 Y
b0 V
b10011 [
b1000 Q
b101000000000000000001101111 `"
b1010000001010010011 i
b10000 _"
b1100 h
b10100 B#
0#
#45000
1M#
0K#
b100011 R#
b10100 P#
b100010010001000100011 5
b100010010001000100011 g#
b11111111100000010000000100010011 F
b11111111100000010000000100010011 f#
b11 G#
b100 #$
1#
#50000
b11100 P#
02
0M
b0 G
b0 E$
b0 >
b0 +$
b0 F$
b100000000 /#
b100000000 '$
b110 8"
b110 %$
b0 o#
b0 s#
b0 S#
b0 >#
0=#
b1000 E#
b0 O#
b1000 N#
b1000 F#
b0 4#
b0 6#
b0 2#
b0 5#
b0 3#
b0 <#
b0 D$
b0 1#
b0 5$
b0 7#
b0 6$
b0 B$
b0 ="
b0 ?"
b0 ;"
b0 >"
b0 D"
b0 ?$
b0 C"
b0 =$
b0 @"
b0 3$
b0 >$
b10000000000000000000000000000 k"
b10000000000000000000000000100 f"
b10 "
b10 &$
b10 t"
0w"
b100000000 c"
b100000000 j"
b10000000000000000000100010011 l"
b100 d"
b11000000000000000000000 t
b10000000000000000000000000100 o
b1010 !
b1010 $$
b1010 }
0""
b110 l
b110 s
b11000000000010100010011 u
b110000000000000000000000 "#
b110000000000000000001000 {"
1&#
b1 +#
1.#
b0 x"
b0 h#
b1100 !#
b110000000000000011101111 ##
b1000 y"
b0 +"
b110000000000000000001000 &"
b0 4"
17"
b0 #"
b0 *"
b10011 ,"
b1000 $"
0U"
0I"
b0 ["
b0 O"
b0 Q"
b0 N"
b0 P"
b0 M"
b0 R"
0R
0O
b0 [
b0 `"
b0 i
b0 _"
b0 h
0#
#55000
b100 G#
b100 #$
1#
#60000
1%
b100000000 8
b100000000 .$
b100000000 I
b100000000 ,$
0:
1.
1M
b1 ,
b1 ($
b1 J$
b10 -
b10 )$
b10 I$
b10 G
b10 E$
b10 >
b10 +$
b10 F$
b1100 /#
b1100 '$
b0 8"
b0 %$
b0 E#
b0 N#
b0 F#
b10010100000000000 4#
b100010010000000000000 6#
b100 2#
b100 5#
b1 3#
b1 <#
b1 D$
b10 ;#
b10 C$
b100 :#
b100 A$
b10 0#
b10 4$
b100011 7#
b100011 6$
b100011 B$
b11111111111100010000011111111000 ="
b11111111100000010000000000000000 ?"
b11111111111111111111011111100010 ;"
b11111111111111111111111111100010 >"
b11111111111111111111111111111000 <"
b11000 E"
b11000 @$
b10 D"
b10 ?$
b10 C"
b10 =$
b1111111 :"
b1111111 2$
b10011 @"
b10011 3$
b10011 >$
b100100 P#
b100100 D#
b100000 C#
b111 `#
b1000 a#
b110000000000000000000000 k"
b110000000000000000001000 f"
1o"
b1 "
b1 &$
b1 t"
1w"
b0 c"
b1100 j"
b110000000000000011101111 l"
b1000 d"
b0 t
b110000000000000000001000 o
b0 !
b0 $$
b0 }
1""
b0 l
b0 s
b10011 u
b1000 m
b0 "#
b1000 {"
0&#
0z"
b0 +#
b0 !#
b0 ##
b1000 &"
0%"
b0 ,"
1I"
b0 H"
1R
b0 Q
b100010010001000100011 `"
b11111111100000010000000100010011 i
b11000 _"
b10100 h
b11100 B#
0#
#65000
b100000 P#
0M#
1L#
b10011 R#
b100011 Q#
b1100 7
b1100 /$
b11111111111001010000010110010011 5
b11111111111001010000010110010011 g#
b101000010010000000100011 F
b101000010010000000100011 f#
b101 G#
b100 #$
1#
#70000
0%
b0 I
b0 ,$
0)
b11111000 J
b11111000 Y#
b0 G
b0 E$
b0 >
b0 +$
b0 F$
b0 /#
b0 '$
b11111111111111111111111111111000 B"
b11111111111111111111111111111000 V#
b11111111111111111111111111111000 X#
b100000000 A"
b100000000 U#
b100000000 W#
b0 ="
b0 ?"
b0 ;"
b0 >"
b0 <"
b0 E"
b0 @$
b0 D"
b0 ?$
b0 C"
b0 =$
b0 :"
b0 2$
b0 k"
b1000 f"
0o"
0e"
b0 "
b0 &$
b0 t"
b0 j"
b0 l"
b1000 o
0n
b0 u
b0 {"
1z"
b0 y"
b0 &"
1%"
b0 $"
0I"
b10 e
b10 d
1O
b100000000 S
b11111111111100010000011111111000 X
b11111111100000010000000000000000 Z
b11111111111111111111011111100010 W
b11111111111111111111111111100010 Y
b11111111111111111111111111111000 V
b11111111100000010000000100010011 [
b10100 Q
b10011 i
0#
#75000
b110 G#
b100 #$
1#
#80000
b110 7
b110 /$
0*
b11111100 9
b11111100 _#
1)
b0 J
b0 Y#
b1010 ,
b1010 ($
b1010 J$
b100010010000000011000 E#
b11111000 O#
b10010100000011000 N#
b11100 F#
b10 a"
b100 9#
b100 \#
b100 ^#
b11111000 8#
b11111000 [#
b11111000 ]#
b0 B"
b0 V#
b0 X#
b0 A"
b0 U#
b0 W#
b10010000000001010 4#
b101000010010000000000000 6#
b0 2#
b0 5#
b1010 3#
b1010 <#
b1010 D$
b0 :#
b0 A$
b100100 P#
b101000 D#
b100100 C#
b1000 `#
b1001 a#
b0 f"
1e"
b0 d"
b0 o
1n
b0 m
0z"
b11111111100000010000000000000000 +"
b10 5"
b10 4"
b11111000 #"
b100000000 '"
b11111111111111111111111111111000 *"
b11111111100000010000000100010011 ,"
b10100 $"
1Y"
b10 L"
b1 ]"
b10 \"
b1100 K"
b100000000 J"
b10010100000000000 O"
b100010010000000000000 Q"
b100 N"
b100 P"
b1 M"
b100010010001000100011 R"
b11000 H"
b0 e
b0 d
b0 S
b0 X
b0 Z
b0 W
b0 Y
b0 V
b10011 [
b101000010010000000100011 `"
b11100 _"
b11100 h
b100000 B#
0#
#85000
0L#
1K#
b1100011 R#
b10011 Q#
b101000 P#
b10000001011100011001100011 5
b10000001011100011001100011 g#
b11111111111001010000010110010011 F
b11111111111001010000010110010011 f#
b111 G#
b100 #$
1#
