processor.vcd
$date
	Sat Nov 15 15:23:04 2025
$end
$version
	Icarus Verilog
$end
$timescale
	1ps
$end
$scope module tb_processor $end
$scope module uut $end
$var wire 5 ! WB_destination [4:0] $end
$var wire 1 " clock $end
$var wire 1 # dir_pred $end
$var wire 1 $ load_use_hazard $end
$var wire 1 % reset $end
$var wire 32 & tar_pred [31:0] $end
$var wire 1 ' taken $end
$var wire 5 ( src2 [4:0] $end
$var wire 5 ) src1 [4:0] $end
$var wire 1 * isStore $end
$var wire 1 + isLui $end
$var wire 1 , isLoad $end
$var wire 1 - isJalr $end
$var wire 1 . isJal $end
$var wire 1 / isAuipc $end
$var wire 1 0 isABranch $end
$var wire 32 1 instruction [31:0] $end
$var wire 5 2 dest [4:0] $end
$var wire 32 3 data_readRegB [31:0] $end
$var wire 32 4 data_readRegA [31:0] $end
$var wire 32 5 dataOut [31:0] $end
$var wire 32 6 dataIn [31:0] $end
$var wire 32 7 aluResult [31:0] $end
$var wire 1 8 RWE $end
$var wire 4 9 ALUop [3:0] $end
$var wire 1 : ALUinB $end
$var reg 1 ; DX_ALUinB $end
$var reg 4 < DX_ALUop [3:0] $end
$var reg 32 = DX_PC [31:0] $end
$var reg 1 > DX_RWE $end
$var reg 32 ? DX_dataA [31:0] $end
$var reg 32 @ DX_dataB [31:0] $end
$var reg 3 A DX_func3 [2:0] $end
$var reg 32 B DX_imm [31:0] $end
$var reg 32 C DX_immB [31:0] $end
$var reg 32 D DX_immJ [31:0] $end
$var reg 32 E DX_immS [31:0] $end
$var reg 32 F DX_immU [31:0] $end
$var reg 32 G DX_inst [31:0] $end
$var reg 1 H DX_isABranch $end
$var reg 1 I DX_isAuipc $end
$var reg 1 J DX_isJal $end
$var reg 1 K DX_isJalr $end
$var reg 1 L DX_isLoad $end
$var reg 1 M DX_isLui $end
$var reg 1 N DX_isStore $end
$var reg 1 O DX_prediction $end
$var reg 5 P DX_rd [4:0] $end
$var reg 5 Q DX_src1 [4:0] $end
$var reg 5 R DX_src2 [4:0] $end
$var reg 32 S DX_target [31:0] $end
$var reg 1 T EX_mispredict $end
$var reg 32 U EX_target [31:0] $end
$var reg 32 V FD_PC [31:0] $end
$var reg 32 W FD_inst [31:0] $end
$var reg 1 X FD_prediction $end
$var reg 32 Y FD_target [31:0] $end
$var reg 32 Z MW_ALURESULT [31:0] $end
$var reg 32 [ MW_PC [31:0] $end
$var reg 1 \ MW_RWE $end
$var reg 32 ] MW_auipcResult [31:0] $end
$var reg 32 ^ MW_dataA [31:0] $end
$var reg 32 _ MW_dataB [31:0] $end
$var reg 32 ` MW_dmemOut [31:0] $end
$var reg 32 a MW_imm [31:0] $end
$var reg 32 b MW_immU [31:0] $end
$var reg 32 c MW_inst [31:0] $end
$var reg 1 d MW_isABranch $end
$var reg 1 e MW_isAuipc $end
$var reg 1 f MW_isJal $end
$var reg 1 g MW_isJalr $end
$var reg 1 h MW_isLoad $end
$var reg 1 i MW_isLui $end
$var reg 1 j MW_isStore $end
$var reg 5 k MW_rd [4:0] $end
$var reg 5 l MW_src1 [4:0] $end
$var reg 5 m MW_src2 [4:0] $end
$var reg 1 n MW_taken $end
$var reg 32 o PC [31:0] $end
$var reg 32 p PCplus4 [31:0] $end
$var reg 32 q XM_ALURESULT [31:0] $end
$var reg 32 r XM_PC [31:0] $end
$var reg 1 s XM_RWE $end
$var reg 32 t XM_auipcResult [31:0] $end
$var reg 32 u XM_dataA [31:0] $end
$var reg 32 v XM_dataB [31:0] $end
$var reg 3 w XM_func3 [2:0] $end
$var reg 32 x XM_imm [31:0] $end
$var reg 32 y XM_immU [31:0] $end
$var reg 32 z XM_inst [31:0] $end
$var reg 1 { XM_isABranch $end
$var reg 1 | XM_isAuipc $end
$var reg 1 } XM_isJal $end
$var reg 1 ~ XM_isJalr $end
$var reg 1 !" XM_isLoad $end
$var reg 1 "" XM_isLui $end
$var reg 1 #" XM_isStore $end
$var reg 5 $" XM_rd [4:0] $end
$var reg 5 %" XM_src1 [4:0] $end
$var reg 5 &" XM_src2 [4:0] $end
$var reg 1 '" XM_taken $end
$var reg 32 (" auipcResult [31:0] $end
$var reg 32 )" branchTarget [31:0] $end
$var reg 32 *" data_writeReg [31:0] $end
$var reg 2 +" forwardA [1:0] $end
$var reg 2 ," forwardB [1:0] $end
$var reg 1 -" forwardC $end
$var reg 3 ." func3 [2:0] $end
$var reg 7 /" func7 [6:0] $end
$var reg 32 0" imm_B [31:0] $end
$var reg 32 1" imm_I [31:0] $end
$var reg 32 2" imm_J [31:0] $end
$var reg 32 3" imm_S [31:0] $end
$var reg 32 4" imm_U [31:0] $end
$var reg 32 5" jalTarget [31:0] $end
$var reg 32 6" jalrTarget [31:0] $end
$var reg 32 7" nextPC [31:0] $end
$var reg 7 8" opcode [6:0] $end
$var reg 32 9" operandA [31:0] $end
$var reg 32 :" operandB [31:0] $end
$var reg 2 ;" pcSelect [1:0] $end
$var reg 5 <" rd [4:0] $end
$var reg 5 =" rs1 [4:0] $end
$var reg 5 >" rs2 [4:0] $end
$scope module ALU_unit $end
$var wire 4 ?" ALUop [3:0] $end
$var wire 32 @" operandA [31:0] $end
$var wire 32 A" operandB [31:0] $end
$var wire 32 B" signedA [31:0] $end
$var wire 32 C" signedB [31:0] $end
$var reg 1 ' branch $end
$var reg 32 D" result [31:0] $end
$scope begin alu $end
$upscope $end
$scope begin branchcomb $end
$upscope $end
$upscope $end
$scope module InstMem $end
$var wire 16 E" addr [15:0] $end
$var wire 1 " clk $end
$var parameter 32 F" ADDRESS_WIDTH $end
$var parameter 32 G" DATA_WIDTH $end
$var parameter 32 H" DEPTH $end
$var parameter 56 I" MEMFILE $end
$var reg 32 J" dataOut [31:0] $end
$upscope $end
$scope module ProcMem $end
$var wire 32 K" addr [31:0] $end
$var wire 1 " clk $end
$var wire 32 L" dataIn [31:0] $end
$var wire 3 M" func3 [2:0] $end
$var wire 1 #" wEn $end
$var wire 32 N" ram_data_out [31:0] $end
$var parameter 32 O" ADDRESS_WIDTH $end
$var parameter 32 P" DATA_WIDTH $end
$var parameter 32 Q" DEPTH $end
$var reg 16 R" addra [15:0] $end
$var reg 4 S" byte_wea [3:0] $end
$var reg 32 T" dataOut [31:0] $end
$var reg 32 U" ram_data_in [31:0] $end
$scope module my_favorite_rammy $end
$var wire 16 V" addrA [15:0] $end
$var wire 16 W" addrB [15:0] $end
$var wire 1 " clkA $end
$var wire 1 " clkB $end
$var wire 32 X" dinA [31:0] $end
$var wire 32 Y" dinB [31:0] $end
$var wire 1 Z" enaA $end
$var wire 1 [" enaB $end
$var wire 4 \" weA [3:0] $end
$var wire 4 ]" weB [3:0] $end
$var parameter 32 ^" ADDR_WIDTH $end
$var parameter 32 _" COL_WIDTH $end
$var parameter 64 `" DATA_WIDTH $end
$var parameter 32 a" NUM_COL $end
$var reg 32 b" doutA [31:0] $end
$var reg 32 c" doutB [31:0] $end
$var integer 32 d" i [31:0] $end
$upscope $end
$upscope $end
$scope module RegisterFile $end
$var wire 1 " clock $end
$var wire 1 % ctrl_reset $end
$var wire 1 \ ctrl_writeEnable $end
$var wire 5 e" ctrl_writeReg [4:0] $end
$var wire 32 f" data_writeReg [31:0] $end
$var wire 5 g" ctrl_readRegB [4:0] $end
$var wire 5 h" ctrl_readRegA [4:0] $end
$var reg 32 i" data_readRegA [31:0] $end
$var reg 32 j" data_readRegB [31:0] $end
$scope begin $ivl_for_loop0 $end
$var integer 32 k" i [31:0] $end
$upscope $end
$upscope $end
$scope module branch_predictor $end
$var wire 32 l" PC [31:0] $end
$var wire 1 " clock $end
$var wire 1 # direction $end
$var wire 32 m" target [31:0] $end
$upscope $end
$scope module control_unit $end
$var wire 3 n" func3 [2:0] $end
$var wire 7 o" func7 [6:0] $end
$var wire 7 p" opcode [6:0] $end
$var reg 1 : ALUinB $end
$var reg 4 q" ALUop [3:0] $end
$var reg 1 8 RWE $end
$var reg 1 0 isABranch $end
$var reg 1 / isAuipc $end
$var reg 1 . isJal $end
$var reg 1 - isJalr $end
$var reg 1 , isLoad $end
$var reg 1 + isLui $end
$var reg 1 * isStore $end
$var reg 1 r" useFunc7 $end
$upscope $end
$scope module set_src_dest $end
$var wire 5 s" dest [4:0] $end
$var wire 7 t" opcode [6:0] $end
$var wire 5 u" src1 [4:0] $end
$var wire 5 v" src2 [4:0] $end
$var reg 5 w" out_dest [4:0] $end
$var reg 5 x" out_src1 [4:0] $end
$var reg 5 y" out_src2 [4:0] $end
$upscope $end
$scope begin DX_LATCH $end
$upscope $end
$scope begin FD_LATCH $end
$upscope $end
$scope begin MW_LATCH $end
$upscope $end
$scope begin XM_LATCH $end
$upscope $end
$scope begin fetch_comb $end
$upscope $end
$scope begin program_counter $end
$upscope $end
$upscope $end
$upscope $end
$enddefinitions $end
$comment Show the parameter values. $end
$dumpall
b100 a"
b100000 `"
b1000 _"
b10000 ^"
b1000000000000 Q"
b100000 P"
b100000 O"
b1101010011000010110110000101110011011010110010101101101 I"
b10000000000000000 H"
b100000 G"
b10000 F"
$end
#0
$dumpvars
b0 y"
b0 x"
b0 w"
b0 v"
b0 u"
b0 t"
b0 s"
0r"
b0 q"
b0 p"
b0 o"
b0 n"
b0 m"
b0 l"
b0 k"
b0 j"
b0 i"
b0 h"
b0 g"
b0 f"
b0 e"
bx d"
bx c"
bx b"
b0 ]"
b0 \"
0["
1Z"
b0 Y"
b0 X"
b0 W"
b0 V"
b0 U"
bx T"
b0 S"
b0 R"
bx N"
b0 M"
b0 L"
b0 K"
b0 J"
b0 E"
b0 D"
b0 C"
b0 B"
b0 A"
b0 @"
b0 ?"
b0 >"
b0 ="
b0 <"
b0 ;"
b0 :"
b0 9"
b0 8"
b100 7"
b0 6"
bx 5"
b0 4"
b0 3"
b0 2"
b0 1"
b0 0"
b0 /"
b0 ."
0-"
b0 ,"
b0 +"
b0 *"
bx )"
bx ("
0'"
b0 &"
b0 %"
b0 $"
0#"
0""
0!"
0~
0}
0|
0{
b0 z
b0 y
b0 x
b0 w
b0 v
b0 u
b0 t
0s
b0 r
b0 q
b100 p
b0 o
0n
b0 m
b0 l
b0 k
0j
0i
0h
0g
0f
0e
0d
b0 c
b0 b
b0 a
b0 `
b0 _
b0 ^
b0 ]
0\
b0 [
b0 Z
b0 Y
0X
b0 W
b0 V
b0 U
0T
b0 S
b0 R
b0 Q
b0 P
0O
0N
0M
0L
0K
0J
0I
0H
b0 G
b0 F
b0 E
b0 D
b0 C
b0 B
b0 A
b0 @
b0 ?
0>
bx =
b0 <
0;
0:
b0 9
18
b0 7
b0 6
bx 5
b0 4
b0 3
b0 2
b0 1
00
0/
0.
0-
0,
0+
0*
b0 )
b0 (
1'
b0 &
1%
0$
0#
0"
b0 !
$end
#5000
b100000000001010010011 1
b100000000001010010011 J"
b100000 k"
b100 d"
1"
#10000
0"
#15000
b100000 k"
b100 d"
1"
#20000
1:
b101 2
b101 w"
b0 ("
b0 5"
b0 )"
b100000000000 2"
b100000000000000000000 4"
b100000000100 0"
b101 3"
b1 1"
b1 >"
b1 v"
b101 <"
b101 s"
b10011 8"
b10011 p"
b10011 t"
b1 E"
b1000 7"
b1000 p
bx `
bx t
1'"
bx r
1>
b0 =
b100000000001010010011 W
b100 o
b100 l"
0"
0%
#25000
b110000000000000011101111 1
b110000000000000011101111 J"
b100 d"
1"
#30000
0'
b1 7
b1 D"
1.
0:
b1 2
b1 w"
b100000000000000000000 ("
b100000000000 5"
b100000000100 )"
b1 :"
b1 A"
b1 C"
b1100 2"
b110000000000000000000000 4"
b100000000000 0"
b1 3"
b1100 1"
b1100 >"
b1100 v"
b1 <"
b1 s"
b1101111 8"
b1101111 p"
b1101111 t"
b10 E"
b1100 7"
b1100 p
bx ]
1n
bx [
b0 t
1s
b0 r
b101 P
1;
b100000000000 D
b100000000000000000000 F
b100000000100 C
b101 E
b1 B
b100000000001010010011 G
b110000000000000011101111 W
b100 V
b1000 o
b1000 l"
0"
#35000
b110010000101000001010010011 1
b110010000101000001010010011 J"
b100 d"
1"
#40000
1'
b0 7
b0 D"
0.
1:
b101 2
b101 w"
b101 )
b101 h"
b101 x"
bx 5
bx T"
b0 :"
b0 A"
b0 C"
b10 ;"
b10000 U
1T
b110000000000000000000100 ("
b1100 6"
b10000 5"
b101000000001100100 2"
b110010000101000000000000000 4"
b100001100100 0"
b1100101 3"
b1100100 1"
b100 >"
b100 v"
b101 ="
b101 u"
b101 <"
b101 s"
b11 /"
b11 o"
b10011 8"
b10011 p"
b10011 t"
b11 E"
b10000 7"
b10000 p
b0 ]
1\
b0 [
b100000000000000000000 y
b100000000000000000000 t
b101 $"
0'"
b1 q
b1 K"
b1 x
b100000000001010010011 z
1J
b1 P
0;
b1100 D
b110000000000000000000000 F
b100000000000 C
b1 E
b1100 B
b110000000000000011101111 G
b100 =
b110010000101000001010010011 W
b1000 V
b1100 o
b1100 l"
0"
#45000
b110000000000000001101111 1
b110000000000000001101111 J"
b100 d"
1"
#50000
b10100 7"
0:
b0 2
b0 w"
b0 )
b0 h"
b0 x"
b1 *"
b1 f"
b0 ;"
b0 U
0T
b100 ("
b0 6"
b100 5"
b100 )"
b0 2"
b0 4"
b0 0"
b0 3"
b0 1"
b0 >"
b0 v"
b0 ="
b0 u"
b0 <"
b0 s"
b0 /"
b0 o"
b0 8"
b0 p"
b0 t"
b100 E"
b10100 p
b100000000000000000000 b
b100000000000000000000 ]
b101 !
b101 e"
b101 k
0n
b1 Z
b1 a
b100000000001010010011 c
b110000000000000000000000 y
b110000000000000000000100 t
1}
b1 $"
1'"
b0 q
b0 K"
b1100 x
b110000000000000011101111 z
b100 r
0J
0>
b0 P
b0 D
b0 F
b0 C
b0 E
b0 B
b0 G
b0 W
b0 V
b10000 o
b10000 l"
0"
#55000
b101000101000001010010011 1
b101000101000001010010011 J"
b100 d"
1"
#60000
b1 4
b1 i"
1:
b101 2
b101 w"
b101 )
b101 h"
b101 x"
b1000 *"
b1000 f"
b0 ("
b0 5"
b0 )"
b101000000000001010 2"
b101000101000000000000000 4"
b100000000100 0"
b101 3"
b1010 1"
b1010 >"
b1010 v"
b101 ="
b101 u"
b101 <"
b101 s"
b10011 8"
b10011 p"
b10011 t"
b101 E"
b11000 7"
b11000 p
b110000000000000000000000 b
b110000000000000000000100 ]
1f
b1 !
b1 e"
b1 k
1n
b0 Z
b1100 a
b110000000000000011101111 c
b100 [
b0 y
b100 t
0}
0s
b0 $"
b0 x
b0 z
1>
b0 =
b101000101000001010010011 W
b10000 V
b10100 o
b10100 l"
0"
#65000
b1000000001100111 1
b1000000001100111 J"
b100 d"
1"
#70000
b1000 4
b1000 i"
0'
b1011 7
b1011 D"
1-
0:
b0 2
b0 w"
b1 )
b1 h"
b1 x"
b0 *"
b0 f"
b1010 :"
b1010 A"
b1010 C"
b1 9"
b1 @"
b1 B"
b101000101000000000010000 ("
b1010 6"
b101000000000011010 5"
b100000010100 )"
b1000000000000000 2"
b1000000000000000 4"
b0 0"
b0 3"
b0 1"
b0 >"
b0 v"
b1 ="
b1 u"
b0 <"
b0 s"
b1100111 8"
b1100111 p"
b1100111 t"
b110 E"
b11100 7"
b11100 p
b0 b
b100 ]
0f
0\
b0 !
b0 e"
b0 k
b0 a
b0 c
b0 t
1s
b0 r
b101 Q
b101 P
1;
b1 ?
b101000000000001010 D
b101000101000000000000000 F
b100000000100 C
b101 E
b1010 B
b101000101000001010010011 G
b10000 =
b1000000001100111 W
b10100 V
b11000 o
b11000 l"
0"
#75000
b1101111 1
b1101111 J"
b100 d"
1"
#80000
b0 4
b0 i"
b1000 7
b1000 D"
b1000 U
0-
1.
b0 )
b0 h"
b0 x"
bx 5
bx T"
b10 R"
b10 V"
b0 :"
b0 A"
b0 C"
b1000 9"
b1000 @"
b1000 B"
b11 ;"
1T
b1000000000010100 ("
b1000 6"
b1000000000010100 5"
b10100 )"
b0 2"
b0 4"
b0 ="
b0 u"
b1101111 8"
b1101111 p"
b1101111 t"
b111 E"
b1000 7"
b100000 p
b0 ]
1\
b0 [
b101000101000000000000000 y
b101000101000000000010000 t
b101 %"
b101 $"
0'"
b1011 q
b1011 K"
b1 u
b1010 x
b101000101000001010010011 z
b10000 r
1K
b1 Q
b0 P
0;
b1000 ?
b1000000000000000 D
b1000000000000000 F
b0 C
b0 E
b0 B
b1000000001100111 G
b10100 =
b1101111 W
b11000 V
b11100 o
b11100 l"
0"
#85000
bx 1
bx J"
b100 d"
1"
#90000
1'
b0 7
b0 D"
b0 6"
b1100 7"
0.
b1011 *"
b1011 f"
b0 9"
b0 @"
b0 B"
b0 ;"
b0 U
0T
b10100 ("
b10100 5"
b0 8"
b0 p"
b0 t"
b10 E"
b1100 p
b101000101000000000000000 b
b101000101000000000010000 ]
b101 l
b101 !
b101 e"
b101 k
0n
b1011 Z
b1 ^
b1010 a
b101000101000001010010011 c
b10000 [
b1000000000000000 y
b1000000000010100 t
1~
b1 %"
b0 $"
b1000 q
b1000 K"
b1000 u
b0 x
b1000000001100111 z
b10100 r
0K
0>
b0 Q
b0 ?
b0 D
b0 F
b0 G
b0 W
b0 V
b1000 o
b1000 l"
0"
#95000
b110010000101000001010010011 1
b110010000101000001010010011 J"
b100 d"
1"
#100000
b1011 4
b1011 i"
1:
b101 2
b101 w"
b101 )
b101 h"
b101 x"
b11000 *"
b11000 f"
b0 R"
b0 V"
b0 ("
b0 5"
b0 )"
b101000000001100100 2"
b110010000101000000000000000 4"
b100001100100 0"
b1100101 3"
b1100100 1"
b100 >"
b100 v"
b101 ="
b101 u"
b101 <"
b101 s"
b11 /"
b11 o"
b10011 8"
b10011 p"
b10011 t"
b11 E"
b10000 7"
b10000 p
b1000000000000000 b
b1000000000010100 ]
1g
b1 l
b0 !
b0 e"
b0 k
b1000 Z
b1000 ^
b0 a
b1000000001100111 c
b10100 [
b0 y
b10100 t
0~
0s
b0 %"
1'"
b0 q
b0 K"
b0 u
b0 z
1>
b0 =
b110010000101000001010010011 W
b1000 V
b1100 o
b1100 l"
0"
#105000
b110000000000000001101111 1
b110000000000000001101111 J"
b100 d"
1"
#110000
b0 4
b0 i"
0'
b1101111 7
b1101111 D"
1.
0:
b0 2
b0 w"
b0 )
b0 h"
b0 x"
b0 *"
b0 f"
b1100100 :"
b1100100 A"
b1100100 C"
b1011 9"
b1011 @"
b1011 B"
b110010000101000000000001000 ("
b1101110 6"
b101000000001101100 5"
b100001101100 )"
b1100 2"
b110000000000000000000000 4"
b0 0"
b0 3"
b1100 1"
b1100 >"
b1100 v"
b0 ="
b0 u"
b0 <"
b0 s"
b0 /"
b0 o"
b1101111 8"
b1101111 p"
b1101111 t"
b100 E"
b10100 7"
b10100 p
b0 b
b10100 ]
0g
0\
b0 l
1n
b0 Z
b0 ^
b0 c
b0 t
1s
b0 r
b101 Q
b101 P
1;
b1011 ?
b101000000001100100 D
b110010000101000000000000000 F
b100001100100 C
b1100101 E
b1100100 B
b110010000101000001010010011 G
b1000 =
b110000000000000001101111 W
b1100 V
b10000 o
b10000 l"
0"
#115000
b101000101000001010010011 1
b101000101000001010010011 J"
b100 d"
1"
#120000
b1011 4
b1011 i"
1'
b0 7
b0 D"
0.
1:
b101 2
b101 w"
b101 )
b101 h"
b101 x"
bx 5
bx T"
b11011 R"
b11011 V"
b0 :"
b0 A"
b0 C"
b0 9"
b0 @"
b0 B"
b10 ;"
b11000 U
1T
b110000000000000000001100 ("
b1100 6"
b11000 5"
b1100 )"
b101000000000001010 2"
b101000101000000000000000 4"
b100000000100 0"
b101 3"
b1010 1"
b1010 >"
b1010 v"
b101 ="
b101 u"
b101 <"
b101 s"
b10011 8"
b10011 p"
b10011 t"
b101 E"
b11000 7"
b11000 p
b0 ]
1\
b0 [
b110010000101000000000000000 y
b110010000101000000000001000 t
b101 %"
b101 $"
0'"
b1101111 q
b1101111 K"
b1011 u
b1100100 x
b110010000101000001010010011 z
b1000 r
1J
b0 Q
b0 P
0;
b0 ?
b1100 D
b110000000000000000000000 F
b0 C
b0 E
b1100 B
b110000000000000001101111 G
b1100 =
b101000101000001010010011 W
b10000 V
b10100 o
b10100 l"
0"
#125000
b1000000001100111 1
b1000000001100111 J"
b100 d"
1"
#130000
b0 4
b0 i"
b11100 7"
0:
b0 2
b0 w"
b0 )
b0 h"
b0 x"
b1101111 *"
b1101111 f"
b0 R"
b0 V"
b0 ;"
b0 U
0T
b1100 ("
b0 6"
b1100 5"
b0 2"
b0 4"
b0 0"
b0 3"
b0 1"
b0 >"
b0 v"
b0 ="
b0 u"
b0 <"
b0 s"
b0 8"
b0 p"
b0 t"
b110 E"
b11100 p
b110010000101000000000000000 b
b110010000101000000000001000 ]
b101 l
b101 !
b101 e"
b101 k
0n
b1101111 Z
b1011 ^
b1100100 a
b110010000101000001010010011 c
b1000 [
b110000000000000000000000 y
b110000000000000000001100 t
1}
b0 %"
b0 $"
1'"
b0 q
b0 K"
b0 u
b1100 x
b110000000000000001101111 z
b1100 r
0J
0>
b0 D
b0 F
b0 B
b0 G
b0 W
b0 V
b11000 o
b11000 l"
0"
#135000
b1101111 1
b1101111 J"
b100 d"
1"
#140000
1.
b10000 *"
b10000 f"
b0 ("
b0 5"
b0 )"
b1101111 8"
b1101111 p"
b1101111 t"
b111 E"
b100000 7"
b100000 p
b110000000000000000000000 b
b110000000000000000001100 ]
1f
b0 l
b0 !
b0 e"
b0 k
1n
b0 Z
b0 ^
b1100 a
b110000000000000001101111 c
b1100 [
b0 y
b1100 t
0}
0s
b0 x
b0 z
1>
b0 =
b1101111 W
b11000 V
b11100 o
b11100 l"
0"
#145000
bx 1
bx J"
b100 d"
1"
#150000
bx 3
bx j"
bx 4
bx i"
x+
x/
x-
x.
x8
x0
x:
bx 9
bx q"
x*
x,
xr"
bx 2
bx w"
bx (
bx g"
bx y"
bx )
bx h"
bx x"
b0 *"
b0 f"
b10 ;"
b11000 U
1T
b11000 ("
b11000 5"
b11000 )"
bx0 2"
bx000000000000 4"
bx0 0"
bx 3"
bx 1"
bx >"
bx v"
bx ="
bx u"
bx <"
bx s"
bx ."
bx n"
bx /"
bx o"
bx 8"
bx p"
bx t"
b1000 E"
b11000 7"
b100100 p
b0 b
b1100 ]
0f
0\
b0 a
b0 c
b0 t
1s
b0 r
1J
b1101111 G
b11000 =
bx W
b11100 V
b100000 o
b100000 l"
0"
#155000
b100 d"
1"
#160000
b0 3
b0 j"
b0 4
b0 i"
b11100 7"
0+
0/
0-
0.
18
00
0:
b0 9
b0 q"
0*
0,
0r"
b0 2
b0 w"
b0 (
b0 g"
b0 y"
b0 )
b0 h"
b0 x"
b0 ;"
b0 U
0T
b0 2"
b0 4"
b0 0"
b0 3"
b0 1"
b0 >"
b0 v"
b0 ="
b0 u"
b0 <"
b0 s"
b0 ."
b0 n"
b0 /"
b0 o"
b0 8"
b0 p"
b0 t"
b110 E"
b11100 p
b0 ]
1\
b0 [
b11000 t
1}
b1101111 z
b11000 r
0J
0>
b0 G
b0 W
b0 V
b11000 o
b11000 l"
0"
#165000
b1101111 1
b1101111 J"
b100 d"
1"
#170000
1.
b11100 *"
b11100 f"
b0 ("
b0 5"
b0 )"
b1101111 8"
b1101111 p"
b1101111 t"
b111 E"
b100000 7"
b100000 p
b11000 ]
1f
b1101111 c
b11000 [
0}
0s
b0 z
1>
b0 =
b1101111 W
b11000 V
b11100 o
b11100 l"
0"
#175000
bx 1
bx J"
b100 d"
1"
#180000
bx 3
bx j"
bx 4
bx i"
x+
x/
x-
x.
x8
x0
x:
bx 9
bx q"
x*
x,
xr"
bx 2
bx w"
bx (
bx g"
bx y"
bx )
bx h"
bx x"
b0 *"
b0 f"
b10 ;"
b11000 U
1T
b11000 ("
b11000 5"
b11000 )"
bx0 2"
bx000000000000 4"
bx0 0"
bx 3"
bx 1"
bx >"
bx v"
bx ="
bx u"
bx <"
bx s"
bx ."
bx n"
bx /"
bx o"
bx 8"
bx p"
bx t"
b1000 E"
b11000 7"
b100100 p
0f
0\
b0 c
b0 t
1s
b0 r
1J
b1101111 G
b11000 =
bx W
b11100 V
b100000 o
b100000 l"
0"
#185000
b100 d"
1"
#190000
b0 3
b0 j"
b0 4
b0 i"
b11100 7"
0+
0/
0-
0.
18
00
0:
b0 9
b0 q"
0*
0,
0r"
b0 2
b0 w"
b0 (
b0 g"
b0 y"
b0 )
b0 h"
b0 x"
b0 ;"
b0 U
0T
b0 2"
b0 4"
b0 0"
b0 3"
b0 1"
b0 >"
b0 v"
b0 ="
b0 u"
b0 <"
b0 s"
b0 ."
b0 n"
b0 /"
b0 o"
b0 8"
b0 p"
b0 t"
b110 E"
b11100 p
b0 ]
1\
b0 [
b11000 t
1}
b1101111 z
b11000 r
0J
0>
b0 G
b0 W
b0 V
b11000 o
b11000 l"
0"
#195000
b1101111 1
b1101111 J"
b100 d"
1"
#200000
1.
b11100 *"
b11100 f"
b0 ("
b0 5"
b0 )"
b1101111 8"
b1101111 p"
b1101111 t"
b111 E"
b100000 7"
b100000 p
b11000 ]
1f
b1101111 c
b11000 [
0}
0s
b0 z
1>
b0 =
b1101111 W
b11000 V
b11100 o
b11100 l"
0"
#205000
bx 1
bx J"
b100 d"
1"
#210000
bx 3
bx j"
bx 4
bx i"
x+
x/
x-
x.
x8
x0
x:
bx 9
bx q"
x*
x,
xr"
bx 2
bx w"
bx (
bx g"
bx y"
bx )
bx h"
bx x"
b0 *"
b0 f"
b10 ;"
b11000 U
1T
b11000 ("
b11000 5"
b11000 )"
bx0 2"
bx000000000000 4"
bx0 0"
bx 3"
bx 1"
bx >"
bx v"
bx ="
bx u"
bx <"
bx s"
bx ."
bx n"
bx /"
bx o"
bx 8"
bx p"
bx t"
b1000 E"
b11000 7"
b100100 p
0f
0\
b0 c
b0 t
1s
b0 r
1J
b1101111 G
b11000 =
bx W
b11100 V
b100000 o
b100000 l"
0"
#215000
b100 d"
1"
#220000
b0 3
b0 j"
b0 4
b0 i"
b11100 7"
0+
0/
0-
0.
18
00
0:
b0 9
b0 q"
0*
0,
0r"
b0 2
b0 w"
b0 (
b0 g"
b0 y"
b0 )
b0 h"
b0 x"
b0 ;"
b0 U
0T
b0 2"
b0 4"
b0 0"
b0 3"
b0 1"
b0 >"
b0 v"
b0 ="
b0 u"
b0 <"
b0 s"
b0 ."
b0 n"
b0 /"
b0 o"
b0 8"
b0 p"
b0 t"
b110 E"
b11100 p
b0 ]
1\
b0 [
b11000 t
1}
b1101111 z
b11000 r
0J
0>
b0 G
b0 W
b0 V
b11000 o
b11000 l"
0"
#225000
b1101111 1
b1101111 J"
b100 d"
1"
#230000
1.
b11100 *"
b11100 f"
b0 ("
b0 5"
b0 )"
b1101111 8"
b1101111 p"
b1101111 t"
b111 E"
b100000 7"
b100000 p
b11000 ]
1f
b1101111 c
b11000 [
0}
0s
b0 z
1>
b0 =
b1101111 W
b11000 V
b11100 o
b11100 l"
0"
#235000
bx 1
bx J"
b100 d"
1"
#240000
bx 3
bx j"
bx 4
bx i"
x+
x/
x-
x.
x8
x0
x:
bx 9
bx q"
x*
x,
xr"
bx 2
bx w"
bx (
bx g"
bx y"
bx )
bx h"
bx x"
b0 *"
b0 f"
b10 ;"
b11000 U
1T
b11000 ("
b11000 5"
b11000 )"
bx0 2"
bx000000000000 4"
bx0 0"
bx 3"
bx 1"
bx >"
bx v"
bx ="
bx u"
bx <"
bx s"
bx ."
bx n"
bx /"
bx o"
bx 8"
bx p"
bx t"
b1000 E"
b11000 7"
b100100 p
0f
0\
b0 c
b0 t
1s
b0 r
1J
b1101111 G
b11000 =
bx W
b11100 V
b100000 o
b100000 l"
0"
#245000
b100 d"
1"
#250000
b0 3
b0 j"
b0 4
b0 i"
b11100 7"
0+
0/
0-
0.
18
00
0:
b0 9
b0 q"
0*
0,
0r"
b0 2
b0 w"
b0 (
b0 g"
b0 y"
b0 )
b0 h"
b0 x"
b0 ;"
b0 U
0T
b0 2"
b0 4"
b0 0"
b0 3"
b0 1"
b0 >"
b0 v"
b0 ="
b0 u"
b0 <"
b0 s"
b0 ."
b0 n"
b0 /"
b0 o"
b0 8"
b0 p"
b0 t"
b110 E"
b11100 p
b0 ]
1\
b0 [
b11000 t
1}
b1101111 z
b11000 r
0J
0>
b0 G
b0 W
b0 V
b11000 o
b11000 l"
0"
#255000
b1101111 1
b1101111 J"
b100 d"
1"
#260000
1.
b11100 *"
b11100 f"
b0 ("
b0 5"
b0 )"
b1101111 8"
b1101111 p"
b1101111 t"
b111 E"
b100000 7"
b100000 p
b11000 ]
1f
b1101111 c
b11000 [
0}
0s
b0 z
1>
b0 =
b1101111 W
b11000 V
b11100 o
b11100 l"
0"
#265000
bx 1
bx J"
b100 d"
1"
#270000
bx 3
bx j"
bx 4
bx i"
x+
x/
x-
x.
x8
x0
x:
bx 9
bx q"
x*
x,
xr"
bx 2
bx w"
bx (
bx g"
bx y"
bx )
bx h"
bx x"
b0 *"
b0 f"
b10 ;"
b11000 U
1T
b11000 ("
b11000 5"
b11000 )"
bx0 2"
bx000000000000 4"
bx0 0"
bx 3"
bx 1"
bx >"
bx v"
bx ="
bx u"
bx <"
bx s"
bx ."
bx n"
bx /"
bx o"
bx 8"
bx p"
bx t"
b1000 E"
b11000 7"
b100100 p
0f
0\
b0 c
b0 t
1s
b0 r
1J
b1101111 G
b11000 =
bx W
b11100 V
b100000 o
b100000 l"
0"
#275000
b100 d"
1"
