processor.vcd
$date
	Sat Nov 22 14:06:45 2025
$end
$version
	Icarus Verilog
$end
$timescale
	1ps
$end
$scope module tb_processor $end
$scope module uut $end
$var wire 5 ! A_WB_destination [4:0] $end
$var wire 5 " B_WB_destination [4:0] $end
$var wire 1 # clock $end
$var wire 1 $ dir_pred $end
$var wire 1 % load_use_hazard $end
$var wire 1 & reset $end
$var wire 32 ' tar_pred [31:0] $end
$var wire 1 ( trash $end
$var wire 1 ) taken $end
$var wire 32 * dataOut [31:0] $end
$var wire 5 + B_src2 [4:0] $end
$var wire 5 , B_src1 [4:0] $end
$var wire 1 - B_isStore $end
$var wire 1 . B_isLui $end
$var wire 1 / B_isLoad $end
$var wire 1 0 B_isJalr $end
$var wire 1 1 B_isJal $end
$var wire 1 2 B_isAuipc $end
$var wire 1 3 B_isABranch $end
$var wire 32 4 B_instruction [31:0] $end
$var wire 5 5 B_dest [4:0] $end
$var wire 32 6 B_data_readReg2 [31:0] $end
$var wire 32 7 B_data_readReg1 [31:0] $end
$var wire 32 8 B_aluResult [31:0] $end
$var wire 1 9 B_RWE $end
$var wire 4 : B_ALUop [3:0] $end
$var wire 1 ; B_ALUinB $end
$var wire 5 < A_src2 [4:0] $end
$var wire 5 = A_src1 [4:0] $end
$var wire 1 > A_isStore $end
$var wire 1 ? A_isLui $end
$var wire 1 @ A_isLoad $end
$var wire 1 A A_isJalr $end
$var wire 1 B A_isJal $end
$var wire 1 C A_isAuipc $end
$var wire 1 D A_isABranch $end
$var wire 32 E A_instruction [31:0] $end
$var wire 5 F A_dest [4:0] $end
$var wire 32 G A_data_readReg2 [31:0] $end
$var wire 32 H A_data_readReg1 [31:0] $end
$var wire 32 I A_aluResult [31:0] $end
$var wire 1 J A_RWE $end
$var wire 4 K A_ALUop [3:0] $end
$var wire 1 L A_ALUinB $end
$var parameter 32 M NOP $end
$var reg 1 N A_DX_ALUinB $end
$var reg 4 O A_DX_ALUop [3:0] $end
$var reg 32 P A_DX_PC [31:0] $end
$var reg 1 Q A_DX_RWE $end
$var reg 32 R A_DX_dataA [31:0] $end
$var reg 32 S A_DX_dataB [31:0] $end
$var reg 3 T A_DX_func3 [2:0] $end
$var reg 32 U A_DX_imm [31:0] $end
$var reg 32 V A_DX_immB [31:0] $end
$var reg 32 W A_DX_immJ [31:0] $end
$var reg 32 X A_DX_immS [31:0] $end
$var reg 32 Y A_DX_immU [31:0] $end
$var reg 32 Z A_DX_inst [31:0] $end
$var reg 1 [ A_DX_isABranch $end
$var reg 1 \ A_DX_isAuipc $end
$var reg 1 ] A_DX_isJal $end
$var reg 1 ^ A_DX_isJalr $end
$var reg 1 _ A_DX_isLoad $end
$var reg 1 ` A_DX_isLui $end
$var reg 1 a A_DX_isStore $end
$var reg 1 b A_DX_prediction $end
$var reg 5 c A_DX_rd [4:0] $end
$var reg 5 d A_DX_src1 [4:0] $end
$var reg 5 e A_DX_src2 [4:0] $end
$var reg 32 f A_DX_target [31:0] $end
$var reg 32 g A_FD_PC [31:0] $end
$var reg 32 h A_FD_inst [31:0] $end
$var reg 3 i A_F_ALU1 [2:0] $end
$var reg 3 j A_F_ALU2 [2:0] $end
$var reg 32 k A_MW_ALURESULT [31:0] $end
$var reg 32 l A_MW_PC [31:0] $end
$var reg 1 m A_MW_RWE $end
$var reg 32 n A_MW_auipcResult [31:0] $end
$var reg 32 o A_MW_dataA [31:0] $end
$var reg 32 p A_MW_dataB [31:0] $end
$var reg 32 q A_MW_dmemOut [31:0] $end
$var reg 32 r A_MW_imm [31:0] $end
$var reg 32 s A_MW_immU [31:0] $end
$var reg 32 t A_MW_inst [31:0] $end
$var reg 1 u A_MW_isABranch $end
$var reg 1 v A_MW_isAuipc $end
$var reg 1 w A_MW_isJal $end
$var reg 1 x A_MW_isJalr $end
$var reg 1 y A_MW_isLoad $end
$var reg 1 z A_MW_isLui $end
$var reg 1 { A_MW_isStore $end
$var reg 5 | A_MW_rd [4:0] $end
$var reg 5 } A_MW_src1 [4:0] $end
$var reg 5 ~ A_MW_src2 [4:0] $end
$var reg 1 !" A_MW_taken $end
$var reg 32 "" A_XM_ALURESULT [31:0] $end
$var reg 32 #" A_XM_PC [31:0] $end
$var reg 1 $" A_XM_RWE $end
$var reg 32 %" A_XM_auipcResult [31:0] $end
$var reg 32 &" A_XM_dataA [31:0] $end
$var reg 32 '" A_XM_dataB [31:0] $end
$var reg 3 (" A_XM_func3 [2:0] $end
$var reg 32 )" A_XM_imm [31:0] $end
$var reg 32 *" A_XM_immU [31:0] $end
$var reg 32 +" A_XM_inst [31:0] $end
$var reg 1 ," A_XM_isABranch $end
$var reg 1 -" A_XM_isAuipc $end
$var reg 1 ." A_XM_isJal $end
$var reg 1 /" A_XM_isJalr $end
$var reg 1 0" A_XM_isLoad $end
$var reg 1 1" A_XM_isLui $end
$var reg 1 2" A_XM_isStore $end
$var reg 5 3" A_XM_rd [4:0] $end
$var reg 5 4" A_XM_src1 [4:0] $end
$var reg 5 5" A_XM_src2 [4:0] $end
$var reg 1 6" A_XM_taken $end
$var reg 32 7" A_data_writeReg [31:0] $end
$var reg 3 8" A_func3 [2:0] $end
$var reg 7 9" A_func7 [6:0] $end
$var reg 32 :" A_imm_B [31:0] $end
$var reg 32 ;" A_imm_I [31:0] $end
$var reg 32 <" A_imm_J [31:0] $end
$var reg 32 =" A_imm_S [31:0] $end
$var reg 32 >" A_imm_U [31:0] $end
$var reg 7 ?" A_opcode [6:0] $end
$var reg 32 @" A_operand1 [31:0] $end
$var reg 32 A" A_operand2 [31:0] $end
$var reg 5 B" A_rd [4:0] $end
$var reg 5 C" A_rs1 [4:0] $end
$var reg 5 D" A_rs2 [4:0] $end
$var reg 1 E" B_DX_ALUinB $end
$var reg 4 F" B_DX_ALUop [3:0] $end
$var reg 32 G" B_DX_PC [31:0] $end
$var reg 1 H" B_DX_RWE $end
$var reg 32 I" B_DX_dataA [31:0] $end
$var reg 32 J" B_DX_dataB [31:0] $end
$var reg 3 K" B_DX_func3 [2:0] $end
$var reg 32 L" B_DX_imm [31:0] $end
$var reg 32 M" B_DX_immB [31:0] $end
$var reg 32 N" B_DX_immJ [31:0] $end
$var reg 32 O" B_DX_immS [31:0] $end
$var reg 32 P" B_DX_immU [31:0] $end
$var reg 32 Q" B_DX_inst [31:0] $end
$var reg 1 R" B_DX_isABranch $end
$var reg 1 S" B_DX_isAuipc $end
$var reg 1 T" B_DX_isJal $end
$var reg 1 U" B_DX_isJalr $end
$var reg 1 V" B_DX_isLoad $end
$var reg 1 W" B_DX_isLui $end
$var reg 1 X" B_DX_isStore $end
$var reg 1 Y" B_DX_prediction $end
$var reg 5 Z" B_DX_rd [4:0] $end
$var reg 5 [" B_DX_src1 [4:0] $end
$var reg 5 \" B_DX_src2 [4:0] $end
$var reg 32 ]" B_DX_target [31:0] $end
$var reg 32 ^" B_FD_PC [31:0] $end
$var reg 32 _" B_FD_inst [31:0] $end
$var reg 3 `" B_F_ALU1 [2:0] $end
$var reg 3 a" B_F_ALU2 [2:0] $end
$var reg 32 b" B_MW_ALURESULT [31:0] $end
$var reg 32 c" B_MW_PC [31:0] $end
$var reg 1 d" B_MW_RWE $end
$var reg 32 e" B_MW_auipcResult [31:0] $end
$var reg 32 f" B_MW_dataA [31:0] $end
$var reg 32 g" B_MW_dataB [31:0] $end
$var reg 32 h" B_MW_dmemOut [31:0] $end
$var reg 32 i" B_MW_imm [31:0] $end
$var reg 32 j" B_MW_immU [31:0] $end
$var reg 32 k" B_MW_inst [31:0] $end
$var reg 1 l" B_MW_isABranch $end
$var reg 1 m" B_MW_isAuipc $end
$var reg 1 n" B_MW_isJal $end
$var reg 1 o" B_MW_isJalr $end
$var reg 1 p" B_MW_isLoad $end
$var reg 1 q" B_MW_isLui $end
$var reg 1 r" B_MW_isStore $end
$var reg 5 s" B_MW_rd [4:0] $end
$var reg 5 t" B_MW_src1 [4:0] $end
$var reg 5 u" B_MW_src2 [4:0] $end
$var reg 1 v" B_MW_taken $end
$var reg 32 w" B_XM_ALURESULT [31:0] $end
$var reg 32 x" B_XM_PC [31:0] $end
$var reg 1 y" B_XM_RWE $end
$var reg 32 z" B_XM_auipcResult [31:0] $end
$var reg 32 {" B_XM_dataA [31:0] $end
$var reg 32 |" B_XM_dataB [31:0] $end
$var reg 3 }" B_XM_func3 [2:0] $end
$var reg 32 ~" B_XM_imm [31:0] $end
$var reg 32 !# B_XM_immU [31:0] $end
$var reg 32 "# B_XM_inst [31:0] $end
$var reg 1 ## B_XM_isABranch $end
$var reg 1 $# B_XM_isAuipc $end
$var reg 1 %# B_XM_isJal $end
$var reg 1 &# B_XM_isJalr $end
$var reg 1 '# B_XM_isLoad $end
$var reg 1 (# B_XM_isLui $end
$var reg 1 )# B_XM_isStore $end
$var reg 5 *# B_XM_rd [4:0] $end
$var reg 5 +# B_XM_src1 [4:0] $end
$var reg 5 ,# B_XM_src2 [4:0] $end
$var reg 1 -# B_XM_taken $end
$var reg 32 .# B_data_writeReg [31:0] $end
$var reg 3 /# B_func3 [2:0] $end
$var reg 7 0# B_func7 [6:0] $end
$var reg 32 1# B_imm_B [31:0] $end
$var reg 32 2# B_imm_I [31:0] $end
$var reg 32 3# B_imm_J [31:0] $end
$var reg 32 4# B_imm_S [31:0] $end
$var reg 32 5# B_imm_U [31:0] $end
$var reg 7 6# B_opcode [6:0] $end
$var reg 32 7# B_operand1 [31:0] $end
$var reg 32 8# B_operand2 [31:0] $end
$var reg 5 9# B_rd [4:0] $end
$var reg 5 :# B_rs1 [4:0] $end
$var reg 5 ;# B_rs2 [4:0] $end
$var reg 1 <# EX_mispredict $end
$var reg 32 =# EX_target [31:0] $end
$var reg 1 ># FD_prediction $end
$var reg 32 ?# FD_target [31:0] $end
$var reg 2 @# MEM_F [1:0] $end
$var reg 32 A# PC [31:0] $end
$var reg 32 B# PCplus4 [31:0] $end
$var reg 32 C# PCplus8 [31:0] $end
$var reg 32 D# auipcResult [31:0] $end
$var reg 32 E# branchTarget [31:0] $end
$var reg 32 F# dataIn [31:0] $end
$var reg 1 G# isCtrlA $end
$var reg 1 H# isCtrlB $end
$var reg 1 I# isMemA $end
$var reg 1 J# isMemB $end
$var reg 32 K# jalTarget [31:0] $end
$var reg 32 L# jalrTarget [31:0] $end
$var reg 32 M# nextPC [31:0] $end
$var reg 7 N# opcodeA [6:0] $end
$var reg 7 O# opcodeB [6:0] $end
$var reg 2 P# pcSelect [1:0] $end
$scope module ALU_unit_A $end
$var wire 4 Q# ALUop [3:0] $end
$var wire 32 R# operandA [31:0] $end
$var wire 32 S# operandB [31:0] $end
$var wire 32 T# signedA [31:0] $end
$var wire 32 U# signedB [31:0] $end
$var reg 1 ) branch $end
$var reg 32 V# result [31:0] $end
$scope begin alu $end
$upscope $end
$scope begin branchcomb $end
$upscope $end
$upscope $end
$scope module ALU_unit_B $end
$var wire 4 W# ALUop [3:0] $end
$var wire 32 X# operandA [31:0] $end
$var wire 32 Y# operandB [31:0] $end
$var wire 32 Z# signedA [31:0] $end
$var wire 32 [# signedB [31:0] $end
$var reg 1 ( branch $end
$var reg 32 \# result [31:0] $end
$scope begin alu $end
$upscope $end
$scope begin branchcomb $end
$upscope $end
$upscope $end
$scope module InstMem $end
$var wire 16 ]# addrA [15:0] $end
$var wire 16 ^# addrB [15:0] $end
$var wire 1 # clk $end
$var parameter 32 _# ADDRESS_WIDTH $end
$var parameter 32 `# DATA_WIDTH $end
$var parameter 32 a# DEPTH $end
$var parameter 160 b# MEMFILE $end
$var reg 32 c# dataOutA [31:0] $end
$var reg 32 d# dataOutB [31:0] $end
$upscope $end
$scope module ProcMem $end
$var wire 32 e# addr [31:0] $end
$var wire 1 # clk $end
$var wire 32 f# dataIn [31:0] $end
$var wire 3 g# func3 [2:0] $end
$var wire 1 )# wEn $end
$var wire 32 h# ram_data_out [31:0] $end
$var parameter 32 i# ADDRESS_WIDTH $end
$var parameter 32 j# DATA_WIDTH $end
$var parameter 32 k# DEPTH $end
$var reg 16 l# addra [15:0] $end
$var reg 4 m# byte_wea [3:0] $end
$var reg 32 n# dataOut [31:0] $end
$var reg 32 o# ram_data_in [31:0] $end
$scope module my_favorite_rammy $end
$var wire 16 p# addrA [15:0] $end
$var wire 16 q# addrB [15:0] $end
$var wire 1 # clkA $end
$var wire 1 # clkB $end
$var wire 32 r# dinA [31:0] $end
$var wire 32 s# dinB [31:0] $end
$var wire 1 t# enaA $end
$var wire 1 u# enaB $end
$var wire 4 v# weA [3:0] $end
$var wire 4 w# weB [3:0] $end
$var parameter 32 x# ADDR_WIDTH $end
$var parameter 32 y# COL_WIDTH $end
$var parameter 64 z# DATA_WIDTH $end
$var parameter 32 {# NUM_COL $end
$var reg 32 |# doutA [31:0] $end
$var reg 32 }# doutB [31:0] $end
$var integer 32 ~# i [31:0] $end
$upscope $end
$upscope $end
$scope module RegisterFile $end
$var wire 1 m A_ctrl_writeEnable $end
$var wire 5 !$ A_ctrl_writeReg [4:0] $end
$var wire 32 "$ A_data_writeReg [31:0] $end
$var wire 1 d" B_ctrl_writeEnable $end
$var wire 5 #$ B_ctrl_writeReg [4:0] $end
$var wire 32 $$ B_data_writeReg [31:0] $end
$var wire 1 # clock $end
$var wire 1 & ctrl_reset $end
$var wire 5 %$ B_ctrl_readReg2 [4:0] $end
$var wire 5 &$ B_ctrl_readReg1 [4:0] $end
$var wire 5 '$ A_ctrl_readReg2 [4:0] $end
$var wire 5 ($ A_ctrl_readReg1 [4:0] $end
$var reg 32 )$ A_data_readReg1 [31:0] $end
$var reg 32 *$ A_data_readReg2 [31:0] $end
$var reg 32 +$ B_data_readReg1 [31:0] $end
$var reg 32 ,$ B_data_readReg2 [31:0] $end
$scope begin $ivl_for_loop0 $end
$var integer 32 -$ i [31:0] $end
$upscope $end
$upscope $end
$scope module branch_predictor $end
$var wire 32 .$ PC [31:0] $end
$var wire 1 # clock $end
$var wire 1 $ direction $end
$var wire 32 /$ target [31:0] $end
$upscope $end
$scope module control_unit $end
$var wire 3 0$ A_func3 [2:0] $end
$var wire 7 1$ A_func7 [6:0] $end
$var wire 7 2$ A_opcode [6:0] $end
$var wire 3 3$ B_func3 [2:0] $end
$var wire 7 4$ B_func7 [6:0] $end
$var wire 7 5$ B_opcode [6:0] $end
$var reg 1 L A_ALUinB $end
$var reg 4 6$ A_ALUop [3:0] $end
$var reg 1 J A_RWE $end
$var reg 1 D A_isABranch $end
$var reg 1 C A_isAuipc $end
$var reg 1 B A_isJal $end
$var reg 1 A A_isJalr $end
$var reg 1 @ A_isLoad $end
$var reg 1 ? A_isLui $end
$var reg 1 > A_isStore $end
$var reg 1 7$ A_useFunc7 $end
$var reg 1 ; B_ALUinB $end
$var reg 4 8$ B_ALUop [3:0] $end
$var reg 1 9 B_RWE $end
$var reg 1 3 B_isABranch $end
$var reg 1 2 B_isAuipc $end
$var reg 1 1 B_isJal $end
$var reg 1 0 B_isJalr $end
$var reg 1 / B_isLoad $end
$var reg 1 . B_isLui $end
$var reg 1 - B_isStore $end
$var reg 1 9$ B_useFunc7 $end
$upscope $end
$scope module set_src_dest $end
$var wire 5 :$ A_dest [4:0] $end
$var wire 7 ;$ A_opcode [6:0] $end
$var wire 5 <$ A_src1 [4:0] $end
$var wire 5 =$ A_src2 [4:0] $end
$var wire 5 >$ B_dest [4:0] $end
$var wire 7 ?$ B_opcode [6:0] $end
$var wire 5 @$ B_src1 [4:0] $end
$var wire 5 A$ B_src2 [4:0] $end
$var reg 5 B$ A_out_dest [4:0] $end
$var reg 5 C$ A_out_src1 [4:0] $end
$var reg 5 D$ A_out_src2 [4:0] $end
$var reg 5 E$ B_out_dest [4:0] $end
$var reg 5 F$ B_out_src1 [4:0] $end
$var reg 5 G$ B_out_src2 [4:0] $end
$upscope $end
$scope begin DX_LATCH $end
$upscope $end
$scope begin FD_LATCH $end
$upscope $end
$scope begin MW_LATCH $end
$upscope $end
$scope begin XM_LATCH $end
$upscope $end
$scope begin fetch_comb $end
$upscope $end
$scope begin program_counter $end
$upscope $end
$upscope $end
$upscope $end
$enddefinitions $end
$comment Show the parameter values. $end
$dumpall
b100 {#
b100000 z#
b1000 y#
b10000 x#
b1000000000000 k#
b100000 j#
b100000 i#
b110000101110010011010010111010001101000010111110110111001101111010111110110100001100001011110100110000101110010011001000111001100101110011011010110010101101101 b#
b10000000000000000 a#
b100000 `#
b10000 _#
b10011 M
$end
#0
$dumpvars
b0 G$
b0 F$
b0 E$
b0 D$
b0 C$
b0 B$
b0 A$
b0 @$
b0 ?$
b0 >$
b0 =$
b0 <$
b0 ;$
b0 :$
09$
b0 8$
07$
b0 6$
b0 5$
b0 4$
b0 3$
b0 2$
b0 1$
b0 0$
b0 /$
b0 .$
b0 -$
b0 ,$
b0 +$
b0 *$
b0 )$
b0 ($
b0 '$
b0 &$
b0 %$
b0 $$
b0 #$
b0 "$
b0 !$
bx ~#
bx }#
bx |#
b0 w#
b0 v#
0u#
1t#
b0 s#
b0 r#
b0 q#
b0 p#
b0 o#
bx n#
b0 m#
b0 l#
bx h#
b0 g#
b0 f#
b0 e#
b0 d#
b0 c#
b1 ^#
b0 ]#
b0 \#
b0 [#
b0 Z#
b0 Y#
b0 X#
b0 W#
b0 V#
b0 U#
b0 T#
b0 S#
b0 R#
b0 Q#
b0 P#
b0 O#
b0 N#
b1000 M#
b0 L#
bx K#
0J#
0I#
0H#
0G#
b0 F#
bx E#
bx D#
b1000 C#
b100 B#
b0 A#
b0 @#
b0 ?#
0>#
b0 =#
0<#
b0 ;#
b0 :#
b0 9#
b0 8#
b0 7#
b0 6#
b0 5#
b0 4#
b0 3#
b0 2#
b0 1#
b0 0#
b0 /#
b0 .#
0-#
b0 ,#
b0 +#
b0 *#
0)#
0(#
0'#
0&#
0%#
0$#
0##
b0 "#
b0 !#
b0 ~"
b0 }"
b0 |"
b0 {"
b0 z"
0y"
b0 x"
b0 w"
0v"
b0 u"
b0 t"
b0 s"
0r"
0q"
0p"
0o"
0n"
0m"
0l"
b0 k"
b0 j"
b0 i"
b0 h"
b0 g"
b0 f"
b0 e"
0d"
b0 c"
b0 b"
b0 a"
b0 `"
b0 _"
b0 ^"
b0 ]"
b0 \"
b0 ["
b0 Z"
0Y"
0X"
0W"
0V"
0U"
0T"
0S"
0R"
b0 Q"
b0 P"
b0 O"
b0 N"
b0 M"
b0 L"
b0 K"
b0 J"
b0 I"
0H"
bx G"
b0 F"
0E"
b0 D"
b0 C"
b0 B"
b0 A"
b0 @"
b0 ?"
b0 >"
b0 ="
b0 <"
b0 ;"
b0 :"
b0 9"
b0 8"
b0 7"
06"
b0 5"
b0 4"
b0 3"
02"
01"
00"
0/"
0."
0-"
0,"
b0 +"
b0 *"
b0 )"
b0 ("
b0 '"
b0 &"
b0 %"
0$"
b0 #"
b0 ""
0!"
b0 ~
b0 }
b0 |
0{
0z
0y
0x
0w
0v
0u
b0 t
b0 s
b0 r
b0 q
b0 p
b0 o
b0 n
0m
b0 l
b0 k
b0 j
b0 i
b0 h
b0 g
b0 f
b0 e
b0 d
b0 c
0b
0a
0`
0_
0^
0]
0\
0[
b0 Z
b0 Y
b0 X
b0 W
b0 V
b0 U
b0 T
b0 S
b0 R
0Q
bx P
b0 O
0N
0L
b0 K
1J
b0 I
b0 H
b0 G
b0 F
b0 E
0D
0C
0B
0A
0@
0?
0>
b0 =
b0 <
0;
b0 :
19
b0 8
b0 7
b0 6
b0 5
b0 4
03
02
01
00
0/
0.
0-
b0 ,
b0 +
bx *
1)
1(
b0 '
1&
0%
0$
0#
b0 "
b0 !
$end
#5000
b10011 O#
b10011 N#
b1010101100000000000100010011 4
b1010101100000000000100010011 d#
b10010011 E
b10010011 c#
b100000 -$
b100 ~#
1#
#10000
0#
#15000
b100000 -$
b100 ~#
1#
#20000
1;
1L
b10 5
b10 E$
b1 F
b1 B$
b0 D#
b0 K#
b0 E#
b100010101010 3#
b1010101100000000000000000000 5#
b10100010 1#
b10100010 4#
b10101011 2#
b1011 ;#
b1011 A$
b10 9#
b10 >$
b101 0#
b101 4$
b10011 6#
b10011 5$
b10011 ?$
b100000000000 :"
b1 ="
b1 B"
b1 :$
b10011 ?"
b10011 2$
b10011 ;$
b10 ]#
b11 ^#
b10000 M#
b10000 C#
b1100 B#
bx h"
bx z"
1-#
bx x"
bx %"
16"
bx #"
1H"
b0 G"
1Q
b0 P
b1010101100000000000100010011 _"
b10010011 h
b100 ^"
b1000 A#
b1000 .$
0#
0&
#25000
b10011 4
b10011 d#
b10011 E
b10011 c#
b100 ~#
1#
#30000
0(
b10101011 8
b10101011 \#
b0 5
b0 E$
b0 F
b0 B$
b1010101100000000000000000100 D#
b10101010 L#
b100010101110 K#
b10100110 E#
b10101011 8#
b10101011 Y#
b10101011 [#
b0 3#
b0 5#
b0 1#
b0 4#
b0 2#
b0 ;#
b0 A$
b0 9#
b0 >$
b0 0#
b0 4$
b0 :"
b0 ="
b0 B"
b0 :$
b100 ]#
b101 ^#
b11000 M#
b11000 C#
b10100 B#
bx e"
1v"
bx c"
bx n
1!"
bx l
b0 z"
1y"
b0 x"
b0 %"
1$"
b0 #"
b10 Z"
1E"
b100010101010 N"
b1010101100000000000000000000 P"
b10100010 M"
b10100010 O"
b10101011 L"
b1010101100000000000100010011 Q"
b100 G"
b1 c
1N
b100000000000 V
b1 X
b10010011 Z
b10011 _"
b10011 h
b1100 ^"
b1000 g
b10000 A#
b10000 .$
0#
#35000
b100 ~#
1#
#40000
1(
b0 8
b0 \#
bx *
bx n#
b101010 l#
b101010 p#
b1100 D#
b0 L#
b1100 K#
b1100 E#
b0 8#
b0 Y#
b0 [#
b110 ]#
b111 ^#
b100000 M#
b100000 C#
b11100 B#
b0 e"
1d"
b0 c"
b0 n
1m
b0 l
b1010101100000000000000000000 !#
b1010101100000000000000000100 z"
b10 *#
b10101011 w"
b10101011 e#
b10101011 ~"
b1010101100000000000100010011 "#
b100 x"
b1010101100000000000000000100 %"
b1 3"
b10010011 +"
b0 Z"
b0 N"
b0 P"
b0 M"
b0 O"
b0 L"
b10011 Q"
b1100 G"
b0 c
b0 V
b0 X
b10011 Z
b1000 P
b10100 ^"
b10000 g
b11000 A#
b11000 .$
0#
#45000
b10000010001000100010011 E
b10000010001000100010011 c#
b100 ~#
1#
#50000
b10 F
b10 B$
b10 =
b10 ($
b10 C$
b1 K
b1 6$
17$
b10101011 .#
b10101011 $$
b0 l#
b0 p#
b10100 D#
b10100 K#
b10100 E#
b10001000000000100 <"
b10000010001000000000000 >"
b10 :"
b10 ="
b100 ;"
b100 D"
b100 =$
b10 C"
b10 <$
b10 B"
b10 :$
b1 8"
b1 0$
b1000 ]#
b1001 ^#
b101000 M#
b101000 C#
b100100 B#
b1010101100000000000000000000 j"
b1010101100000000000000000100 e"
b10 "
b10 #$
b10 s"
b10101011 b"
b10101011 i"
b1010101100000000000100010011 k"
b100 c"
b1010101100000000000000000100 n
b1 !
b1 !$
b1 |
b10010011 t
b0 !#
b1100 z"
b0 *#
b0 w"
b0 e#
b0 ~"
b10011 "#
b1100 x"
b1100 %"
b0 3"
b10011 +"
b1000 #"
b10100 G"
b10000 P
b10000010001000100010011 h
b11100 ^"
b11000 g
b100000 A#
b100000 .$
0#
#55000
b10101011 H
b10101011 )$
b10011 E
b10011 c#
b100 ~#
1#
#60000
b0 H
b0 )$
b0 F
b0 B$
b0 =
b0 ($
b0 C$
b0 K
b0 6$
07$
b0 .#
b0 $$
b11100 D#
b11100 K#
b11100 E#
b101010110000 I
b101010110000 V#
b100 A"
b100 S#
b100 U#
b10101011 @"
b10101011 R#
b10101011 T#
b0 <"
b0 >"
b0 :"
b0 ="
b0 ;"
b0 D"
b0 =$
b0 C"
b0 <$
b0 B"
b0 :$
b0 8"
b0 0$
b1010 ]#
b1011 ^#
b110000 M#
b110000 C#
b101100 B#
b0 j"
b1100 e"
b0 "
b0 #$
b0 s"
b0 b"
b0 i"
b10011 k"
b1100 c"
b1100 n
b0 !
b0 !$
b0 |
b10011 t
b1000 l
b10100 z"
b10100 x"
b10100 %"
b10000 #"
b11100 G"
b1 T
b10 d
b10 c
b1 O
b1 Q#
b10101011 R
b10001000000000100 W
b10000010001000000000000 Y
b10 V
b10 X
b100 U
b10000010001000100010011 Z
b11000 P
b10011 h
b100100 ^"
b100000 g
b101000 A#
b101000 .$
0#
#65000
b100 ~#
1#
#70000
b100100 D#
b100100 K#
b100100 E#
b0 I
b0 V#
b0 A"
b0 S#
b0 U#
b0 @"
b0 R#
b0 T#
b1100 ]#
b1101 ^#
b111000 M#
b111000 C#
b110100 B#
b10100 e"
b10100 c"
b10100 n
b10000 l
b11100 z"
b11100 x"
b1 ("
b10000010001000000000000 *"
b11100 %"
b10 4"
b10 3"
b101010110000 ""
b10101011 &"
b100 )"
b10000010001000100010011 +"
b11000 #"
b100100 G"
b0 T
b0 d
b0 c
b0 O
b0 Q#
b0 R
b0 W
b0 Y
b0 V
b0 X
b0 U
b10011 Z
b100000 P
b101100 ^"
b101000 g
b110000 A#
b110000 .$
0#
#75000
b1001000000000000110010011 4
b1001000000000000110010011 d#
b110100010000000100010011 E
b110100010000000100010011 c#
b100 ~#
1#
#80000
b10101011 H
b10101011 )$
b11 5
b11 E$
b10 F
b10 B$
b10 =
b10 ($
b10 C$
b101010110000 7"
b101010110000 "$
b101100 D#
b101100 K#
b101100 E#
b10010 3#
b1001000000000000000000000 5#
b100000000010 1#
b11 4#
b10010 2#
b10010 ;#
b10010 A$
b11 9#
b11 >$
b10000100000001100 <"
b110100010000000000000000 >"
b10 :"
b10 ="
b1101 ;"
b1101 D"
b1101 =$
b10 C"
b10 <$
b10 B"
b10 :$
b1110 ]#
b1111 ^#
b1000000 M#
b1000000 C#
b111100 B#
b11100 e"
b11100 c"
b10000010001000000000000 s
b11100 n
b10 }
b10 !
b10 !$
b10 |
b101010110000 k
b10101011 o
b100 r
b10000010001000100010011 t
b11000 l
b100100 z"
b100100 x"
b0 ("
b0 *"
b100100 %"
b0 4"
b0 3"
b0 ""
b0 &"
b0 )"
b10011 +"
b100000 #"
b101100 G"
b101000 P
b1001000000000000110010011 _"
b110100010000000100010011 h
b110100 ^"
b110000 g
b111000 A#
b111000 .$
0#
#85000
b101010110000 H
b101010110000 )$
b10011 4
b10011 d#
b10011 E
b10011 c#
b100 ~#
1#
#90000
b0 H
b0 )$
0(
b10010 8
b10010 \#
0)
b101010111101 I
b101010111101 V#
b0 5
b0 E$
b0 F
b0 B$
b0 =
b0 ($
b0 C$
b0 7"
b0 "$
b1001000000000000000110100 D#
b10010 L#
b1000110 K#
b100000110110 E#
b10010 8#
b10010 Y#
b10010 [#
b1101 A"
b1101 S#
b1101 U#
b101010110000 @"
b101010110000 R#
b101010110000 T#
b0 3#
b0 5#
b0 1#
b0 4#
b0 2#
b0 ;#
b0 A$
b0 9#
b0 >$
b0 <"
b0 >"
b0 :"
b0 ="
b0 ;"
b0 D"
b0 =$
b0 C"
b0 <$
b0 B"
b0 :$
b10000 ]#
b10001 ^#
b1001000 M#
b1001000 C#
b1000100 B#
b100100 e"
b100100 c"
b0 s
b100100 n
b0 }
b0 !
b0 !$
b0 |
b0 k
b0 o
b0 r
b10011 t
b100000 l
b101100 z"
b101100 x"
b101100 %"
b101000 #"
b11 Z"
b10010 N"
b1001000000000000000000000 P"
b100000000010 M"
b11 O"
b10010 L"
b1001000000000000110010011 Q"
b110100 G"
b10 d
b10 c
b101010110000 R
b10000100000001100 W
b110100010000000000000000 Y
b10 V
b10 X
b1101 U
b110100010000000100010011 Z
b110000 P
b10011 _"
b10011 h
b111100 ^"
b111000 g
b1000000 A#
b1000000 .$
0#
#95000
b100 ~#
1#
#100000
1(
b0 8
b0 \#
1)
b0 I
b0 V#
bx *
bx n#
b100 l#
b100 p#
b111100 D#
b0 L#
b111100 K#
b111100 E#
b0 8#
b0 Y#
b0 [#
b0 A"
b0 S#
b0 U#
b0 @"
b0 R#
b0 T#
b10010 ]#
b10011 ^#
b1010000 M#
b1010000 C#
b1001100 B#
b101100 e"
b101100 c"
b101100 n
b101000 l
b1001000000000000000000000 !#
b1001000000000000000110100 z"
b11 *#
0-#
b10010 w"
b10010 e#
b10010 ~"
b1001000000000000110010011 "#
b110100 x"
b110100010000000000000000 *"
b1001000000000000000110100 %"
b10 4"
b10 3"
06"
b101010111101 ""
b101010110000 &"
b1101 )"
b110100010000000100010011 +"
b110000 #"
b0 Z"
b0 N"
b0 P"
b0 M"
b0 O"
b0 L"
b10011 Q"
b111100 G"
b0 d
b0 c
b0 R
b0 W
b0 Y
b0 V
b0 X
b0 U
b10011 Z
b111000 P
b1000100 ^"
b1000000 g
b1001000 A#
b1001000 .$
0#
#105000
b10000011001000110010011 E
b10000011001000110010011 c#
b100 ~#
1#
