processor.vcd
$date
	Sat Nov 29 17:38:34 2025
$end
$version
	Icarus Verilog
$end
$timescale
	1ps
$end
$scope module tb_processor $end
$scope module uut $end
$var wire 5 ! A_WB_destination [4:0] $end
$var wire 5 " B_WB_destination [4:0] $end
$var wire 1 # clock $end
$var wire 1 $ dir_pred $end
$var wire 1 % intra_packet_hazard $end
$var wire 1 & load_use_hazard $end
$var wire 1 ' reset $end
$var wire 32 ( tar_pred [31:0] $end
$var wire 1 ) trash $end
$var wire 1 * taken $end
$var wire 32 + dataOut [31:0] $end
$var wire 5 , B_src2 [4:0] $end
$var wire 5 - B_src1 [4:0] $end
$var wire 1 . B_isStore $end
$var wire 1 / B_isLui $end
$var wire 1 0 B_isLoad $end
$var wire 1 1 B_isJalr $end
$var wire 1 2 B_isJal $end
$var wire 1 3 B_isAuipc $end
$var wire 1 4 B_isABranch $end
$var wire 32 5 B_instruction [31:0] $end
$var wire 5 6 B_dest [4:0] $end
$var wire 32 7 B_data_readReg2 [31:0] $end
$var wire 32 8 B_data_readReg1 [31:0] $end
$var wire 32 9 B_aluResult [31:0] $end
$var wire 1 : B_RWE $end
$var wire 4 ; B_ALUop [3:0] $end
$var wire 1 < B_ALUinB $end
$var wire 5 = A_src2 [4:0] $end
$var wire 5 > A_src1 [4:0] $end
$var wire 1 ? A_isStore $end
$var wire 1 @ A_isLui $end
$var wire 1 A A_isLoad $end
$var wire 1 B A_isJalr $end
$var wire 1 C A_isJal $end
$var wire 1 D A_isAuipc $end
$var wire 1 E A_isABranch $end
$var wire 32 F A_instruction [31:0] $end
$var wire 5 G A_dest [4:0] $end
$var wire 32 H A_data_readReg2 [31:0] $end
$var wire 32 I A_data_readReg1 [31:0] $end
$var wire 32 J A_aluResult [31:0] $end
$var wire 1 K A_RWE $end
$var wire 4 L A_ALUop [3:0] $end
$var wire 1 M A_ALUinB $end
$var parameter 32 N NOP $end
$var reg 1 O A_DX_ALUinB $end
$var reg 4 P A_DX_ALUop [3:0] $end
$var reg 32 Q A_DX_PC [31:0] $end
$var reg 1 R A_DX_RWE $end
$var reg 32 S A_DX_dataA [31:0] $end
$var reg 32 T A_DX_dataB [31:0] $end
$var reg 3 U A_DX_func3 [2:0] $end
$var reg 32 V A_DX_imm [31:0] $end
$var reg 32 W A_DX_immB [31:0] $end
$var reg 32 X A_DX_immJ [31:0] $end
$var reg 32 Y A_DX_immS [31:0] $end
$var reg 32 Z A_DX_immU [31:0] $end
$var reg 32 [ A_DX_inst [31:0] $end
$var reg 1 \ A_DX_isABranch $end
$var reg 1 ] A_DX_isAuipc $end
$var reg 1 ^ A_DX_isJal $end
$var reg 1 _ A_DX_isJalr $end
$var reg 1 ` A_DX_isLoad $end
$var reg 1 a A_DX_isLui $end
$var reg 1 b A_DX_isStore $end
$var reg 1 c A_DX_prediction $end
$var reg 5 d A_DX_rd [4:0] $end
$var reg 5 e A_DX_src1 [4:0] $end
$var reg 5 f A_DX_src2 [4:0] $end
$var reg 32 g A_DX_target [31:0] $end
$var reg 32 h A_FD_PC [31:0] $end
$var reg 32 i A_FD_inst [31:0] $end
$var reg 3 j A_F_ALU1 [2:0] $end
$var reg 3 k A_F_ALU2 [2:0] $end
$var reg 32 l A_MW_ALURESULT [31:0] $end
$var reg 32 m A_MW_PC [31:0] $end
$var reg 1 n A_MW_RWE $end
$var reg 32 o A_MW_auipcResult [31:0] $end
$var reg 32 p A_MW_dataA [31:0] $end
$var reg 32 q A_MW_dataB [31:0] $end
$var reg 32 r A_MW_dmemOut [31:0] $end
$var reg 32 s A_MW_imm [31:0] $end
$var reg 32 t A_MW_immU [31:0] $end
$var reg 32 u A_MW_inst [31:0] $end
$var reg 1 v A_MW_isABranch $end
$var reg 1 w A_MW_isAuipc $end
$var reg 1 x A_MW_isJal $end
$var reg 1 y A_MW_isJalr $end
$var reg 1 z A_MW_isLoad $end
$var reg 1 { A_MW_isLui $end
$var reg 1 | A_MW_isStore $end
$var reg 5 } A_MW_rd [4:0] $end
$var reg 5 ~ A_MW_src1 [4:0] $end
$var reg 5 !" A_MW_src2 [4:0] $end
$var reg 1 "" A_MW_taken $end
$var reg 32 #" A_XM_ALURESULT [31:0] $end
$var reg 32 $" A_XM_PC [31:0] $end
$var reg 1 %" A_XM_RWE $end
$var reg 32 &" A_XM_auipcResult [31:0] $end
$var reg 32 '" A_XM_dataA [31:0] $end
$var reg 32 (" A_XM_dataB [31:0] $end
$var reg 3 )" A_XM_func3 [2:0] $end
$var reg 32 *" A_XM_imm [31:0] $end
$var reg 32 +" A_XM_immU [31:0] $end
$var reg 32 ," A_XM_inst [31:0] $end
$var reg 1 -" A_XM_isABranch $end
$var reg 1 ." A_XM_isAuipc $end
$var reg 1 /" A_XM_isJal $end
$var reg 1 0" A_XM_isJalr $end
$var reg 1 1" A_XM_isLoad $end
$var reg 1 2" A_XM_isLui $end
$var reg 1 3" A_XM_isStore $end
$var reg 5 4" A_XM_rd [4:0] $end
$var reg 5 5" A_XM_src1 [4:0] $end
$var reg 5 6" A_XM_src2 [4:0] $end
$var reg 1 7" A_XM_taken $end
$var reg 32 8" A_data_writeReg [31:0] $end
$var reg 3 9" A_func3 [2:0] $end
$var reg 7 :" A_func7 [6:0] $end
$var reg 32 ;" A_imm_B [31:0] $end
$var reg 32 <" A_imm_I [31:0] $end
$var reg 32 =" A_imm_J [31:0] $end
$var reg 32 >" A_imm_S [31:0] $end
$var reg 32 ?" A_imm_U [31:0] $end
$var reg 7 @" A_opcode [6:0] $end
$var reg 32 A" A_operand1 [31:0] $end
$var reg 32 B" A_operand2 [31:0] $end
$var reg 5 C" A_rd [4:0] $end
$var reg 5 D" A_rs1 [4:0] $end
$var reg 5 E" A_rs2 [4:0] $end
$var reg 1 F" B_DX_ALUinB $end
$var reg 4 G" B_DX_ALUop [3:0] $end
$var reg 32 H" B_DX_PC [31:0] $end
$var reg 1 I" B_DX_RWE $end
$var reg 32 J" B_DX_dataA [31:0] $end
$var reg 32 K" B_DX_dataB [31:0] $end
$var reg 3 L" B_DX_func3 [2:0] $end
$var reg 32 M" B_DX_imm [31:0] $end
$var reg 32 N" B_DX_immB [31:0] $end
$var reg 32 O" B_DX_immJ [31:0] $end
$var reg 32 P" B_DX_immS [31:0] $end
$var reg 32 Q" B_DX_immU [31:0] $end
$var reg 32 R" B_DX_inst [31:0] $end
$var reg 1 S" B_DX_isABranch $end
$var reg 1 T" B_DX_isAuipc $end
$var reg 1 U" B_DX_isJal $end
$var reg 1 V" B_DX_isJalr $end
$var reg 1 W" B_DX_isLoad $end
$var reg 1 X" B_DX_isLui $end
$var reg 1 Y" B_DX_isStore $end
$var reg 1 Z" B_DX_prediction $end
$var reg 5 [" B_DX_rd [4:0] $end
$var reg 5 \" B_DX_src1 [4:0] $end
$var reg 5 ]" B_DX_src2 [4:0] $end
$var reg 32 ^" B_DX_target [31:0] $end
$var reg 32 _" B_FD_PC [31:0] $end
$var reg 32 `" B_FD_inst [31:0] $end
$var reg 3 a" B_F_ALU1 [2:0] $end
$var reg 3 b" B_F_ALU2 [2:0] $end
$var reg 32 c" B_MW_ALURESULT [31:0] $end
$var reg 32 d" B_MW_PC [31:0] $end
$var reg 1 e" B_MW_RWE $end
$var reg 32 f" B_MW_auipcResult [31:0] $end
$var reg 32 g" B_MW_dataA [31:0] $end
$var reg 32 h" B_MW_dataB [31:0] $end
$var reg 32 i" B_MW_dmemOut [31:0] $end
$var reg 32 j" B_MW_imm [31:0] $end
$var reg 32 k" B_MW_immU [31:0] $end
$var reg 32 l" B_MW_inst [31:0] $end
$var reg 1 m" B_MW_isABranch $end
$var reg 1 n" B_MW_isAuipc $end
$var reg 1 o" B_MW_isJal $end
$var reg 1 p" B_MW_isJalr $end
$var reg 1 q" B_MW_isLoad $end
$var reg 1 r" B_MW_isLui $end
$var reg 1 s" B_MW_isStore $end
$var reg 5 t" B_MW_rd [4:0] $end
$var reg 5 u" B_MW_src1 [4:0] $end
$var reg 5 v" B_MW_src2 [4:0] $end
$var reg 1 w" B_MW_taken $end
$var reg 32 x" B_XM_ALURESULT [31:0] $end
$var reg 32 y" B_XM_PC [31:0] $end
$var reg 1 z" B_XM_RWE $end
$var reg 32 {" B_XM_auipcResult [31:0] $end
$var reg 32 |" B_XM_dataA [31:0] $end
$var reg 32 }" B_XM_dataB [31:0] $end
$var reg 3 ~" B_XM_func3 [2:0] $end
$var reg 32 !# B_XM_imm [31:0] $end
$var reg 32 "# B_XM_immU [31:0] $end
$var reg 32 ## B_XM_inst [31:0] $end
$var reg 1 $# B_XM_isABranch $end
$var reg 1 %# B_XM_isAuipc $end
$var reg 1 &# B_XM_isJal $end
$var reg 1 '# B_XM_isJalr $end
$var reg 1 (# B_XM_isLoad $end
$var reg 1 )# B_XM_isLui $end
$var reg 1 *# B_XM_isStore $end
$var reg 5 +# B_XM_rd [4:0] $end
$var reg 5 ,# B_XM_src1 [4:0] $end
$var reg 5 -# B_XM_src2 [4:0] $end
$var reg 1 .# B_XM_taken $end
$var reg 32 /# B_data_writeReg [31:0] $end
$var reg 3 0# B_func3 [2:0] $end
$var reg 7 1# B_func7 [6:0] $end
$var reg 32 2# B_imm_B [31:0] $end
$var reg 32 3# B_imm_I [31:0] $end
$var reg 32 4# B_imm_J [31:0] $end
$var reg 32 5# B_imm_S [31:0] $end
$var reg 32 6# B_imm_U [31:0] $end
$var reg 7 7# B_opcode [6:0] $end
$var reg 32 8# B_operand1 [31:0] $end
$var reg 32 9# B_operand2 [31:0] $end
$var reg 5 :# B_rd [4:0] $end
$var reg 5 ;# B_rs1 [4:0] $end
$var reg 5 <# B_rs2 [4:0] $end
$var reg 1 =# EX_mispredict $end
$var reg 32 ># EX_target [31:0] $end
$var reg 1 ?# FD_prediction $end
$var reg 32 @# FD_target [31:0] $end
$var reg 2 A# MEM_F [1:0] $end
$var reg 32 B# PC [31:0] $end
$var reg 32 C# PCplus4 [31:0] $end
$var reg 32 D# PCplus8 [31:0] $end
$var reg 32 E# auipcResult [31:0] $end
$var reg 32 F# branchTarget [31:0] $end
$var reg 32 G# counter [31:0] $end
$var reg 32 H# counter_out [31:0] $end
$var reg 32 I# dataIn [31:0] $end
$var reg 1 J# isCtrlA $end
$var reg 1 K# isCtrlB $end
$var reg 1 L# isMemA $end
$var reg 1 M# isMemB $end
$var reg 32 N# jalTarget [31:0] $end
$var reg 32 O# jalrTarget [31:0] $end
$var reg 32 P# nextPC [31:0] $end
$var reg 7 Q# opcodeA [6:0] $end
$var reg 7 R# opcodeB [6:0] $end
$var reg 2 S# pcSelect [1:0] $end
$scope module ALU_unit_A $end
$var wire 4 T# ALUop [3:0] $end
$var wire 32 U# operandA [31:0] $end
$var wire 32 V# operandB [31:0] $end
$var wire 32 W# signedA [31:0] $end
$var wire 32 X# signedB [31:0] $end
$var reg 1 ) branch $end
$var reg 32 Y# result [31:0] $end
$scope begin alu $end
$upscope $end
$scope begin branchcomb $end
$upscope $end
$upscope $end
$scope module ALU_unit_B $end
$var wire 4 Z# ALUop [3:0] $end
$var wire 32 [# operandA [31:0] $end
$var wire 32 \# operandB [31:0] $end
$var wire 32 ]# signedA [31:0] $end
$var wire 32 ^# signedB [31:0] $end
$var reg 1 * branch $end
$var reg 32 _# result [31:0] $end
$scope begin alu $end
$upscope $end
$scope begin branchcomb $end
$upscope $end
$upscope $end
$scope module InstMem $end
$var wire 16 `# addrA [15:0] $end
$var wire 16 a# addrB [15:0] $end
$var wire 1 # clk $end
$var parameter 32 b# ADDRESS_WIDTH $end
$var parameter 32 c# DATA_WIDTH $end
$var parameter 32 d# DEPTH $end
$var parameter 208 e# MEMFILE $end
$var reg 32 f# dataOutA [31:0] $end
$var reg 32 g# dataOutB [31:0] $end
$upscope $end
$scope module ProcMem $end
$var wire 32 h# addr [31:0] $end
$var wire 1 # clk $end
$var wire 32 i# dataIn [31:0] $end
$var wire 3 j# func3 [2:0] $end
$var wire 1 *# wEn $end
$var wire 32 k# ram_data_out [31:0] $end
$var parameter 32 l# ADDRESS_WIDTH $end
$var parameter 32 m# DATA_WIDTH $end
$var parameter 32 n# DEPTH $end
$var reg 16 o# addra [15:0] $end
$var reg 4 p# byte_wea [3:0] $end
$var reg 32 q# dataOut [31:0] $end
$var reg 32 r# ram_data_in [31:0] $end
$scope module my_favorite_rammy $end
$var wire 16 s# addrA [15:0] $end
$var wire 16 t# addrB [15:0] $end
$var wire 1 # clkA $end
$var wire 1 # clkB $end
$var wire 32 u# dinA [31:0] $end
$var wire 32 v# dinB [31:0] $end
$var wire 1 w# enaA $end
$var wire 1 x# enaB $end
$var wire 4 y# weA [3:0] $end
$var wire 4 z# weB [3:0] $end
$var parameter 32 {# ADDR_WIDTH $end
$var parameter 32 |# COL_WIDTH $end
$var parameter 64 }# DATA_WIDTH $end
$var parameter 32 ~# NUM_COL $end
$var reg 32 !$ doutA [31:0] $end
$var reg 32 "$ doutB [31:0] $end
$var integer 32 #$ i [31:0] $end
$upscope $end
$upscope $end
$scope module RegisterFile $end
$var wire 1 n A_ctrl_writeEnable $end
$var wire 5 $$ A_ctrl_writeReg [4:0] $end
$var wire 32 %$ A_data_writeReg [31:0] $end
$var wire 1 e" B_ctrl_writeEnable $end
$var wire 5 &$ B_ctrl_writeReg [4:0] $end
$var wire 32 '$ B_data_writeReg [31:0] $end
$var wire 1 # clock $end
$var wire 1 ' ctrl_reset $end
$var wire 5 ($ B_ctrl_readReg2 [4:0] $end
$var wire 5 )$ B_ctrl_readReg1 [4:0] $end
$var wire 5 *$ A_ctrl_readReg2 [4:0] $end
$var wire 5 +$ A_ctrl_readReg1 [4:0] $end
$var reg 32 ,$ A_data_readReg1 [31:0] $end
$var reg 32 -$ A_data_readReg2 [31:0] $end
$var reg 32 .$ B_data_readReg1 [31:0] $end
$var reg 32 /$ B_data_readReg2 [31:0] $end
$scope begin $ivl_for_loop0 $end
$var integer 32 0$ i [31:0] $end
$upscope $end
$upscope $end
$scope module control_unit $end
$var wire 3 1$ A_func3 [2:0] $end
$var wire 7 2$ A_func7 [6:0] $end
$var wire 7 3$ A_opcode [6:0] $end
$var wire 3 4$ B_func3 [2:0] $end
$var wire 7 5$ B_func7 [6:0] $end
$var wire 7 6$ B_opcode [6:0] $end
$var reg 1 M A_ALUinB $end
$var reg 4 7$ A_ALUop [3:0] $end
$var reg 1 K A_RWE $end
$var reg 1 E A_isABranch $end
$var reg 1 D A_isAuipc $end
$var reg 1 8$ A_isHalt $end
$var reg 1 C A_isJal $end
$var reg 1 B A_isJalr $end
$var reg 1 A A_isLoad $end
$var reg 1 @ A_isLui $end
$var reg 1 ? A_isStore $end
$var reg 1 9$ A_useFunc7 $end
$var reg 1 < B_ALUinB $end
$var reg 4 :$ B_ALUop [3:0] $end
$var reg 1 : B_RWE $end
$var reg 1 4 B_isABranch $end
$var reg 1 3 B_isAuipc $end
$var reg 1 ;$ B_isHalt $end
$var reg 1 2 B_isJal $end
$var reg 1 1 B_isJalr $end
$var reg 1 0 B_isLoad $end
$var reg 1 / B_isLui $end
$var reg 1 . B_isStore $end
$var reg 1 <$ B_useFunc7 $end
$upscope $end
$scope module set_src_dest $end
$var wire 5 =$ A_dest [4:0] $end
$var wire 7 >$ A_opcode [6:0] $end
$var wire 5 ?$ A_src1 [4:0] $end
$var wire 5 @$ A_src2 [4:0] $end
$var wire 5 A$ B_dest [4:0] $end
$var wire 7 B$ B_opcode [6:0] $end
$var wire 5 C$ B_src1 [4:0] $end
$var wire 5 D$ B_src2 [4:0] $end
$var reg 5 E$ A_out_dest [4:0] $end
$var reg 5 F$ A_out_src1 [4:0] $end
$var reg 5 G$ A_out_src2 [4:0] $end
$var reg 5 H$ B_out_dest [4:0] $end
$var reg 5 I$ B_out_src1 [4:0] $end
$var reg 5 J$ B_out_src2 [4:0] $end
$upscope $end
$scope begin DX_LATCH $end
$upscope $end
$scope begin FD_LATCH $end
$upscope $end
$scope begin MW_LATCH $end
$upscope $end
$scope begin XM_LATCH $end
$upscope $end
$scope begin fetch_comb $end
$upscope $end
$scope begin program_counter $end
$upscope $end
$upscope $end
$upscope $end
$enddefinitions $end
$comment Show the parameter values. $end
$dumpall
b100 ~#
b100000 }#
b1000 |#
b10000 {#
b1000000000000 n#
b100000 m#
b100000 l#
b100110101101001011000110111001001101111011000100110010101101110011000110110100001101101011000010111001001101011011100110010111101101101011010010110001101110010011011110011001000101110011011010110010101101101 e#
b10000000000000000 d#
b100000 c#
b10000 b#
b10011 N
$end
#0
$dumpvars
b0 J$
b0 I$
b0 H$
b0 G$
b0 F$
b0 E$
b0 D$
b0 C$
b0 B$
b0 A$
b0 @$
b0 ?$
b0 >$
b0 =$
0<$
0;$
b0 :$
09$
08$
b0 7$
b0 6$
b0 5$
b0 4$
b0 3$
b0 2$
b0 1$
b0 0$
b0 /$
b0 .$
b0 -$
b0 ,$
b0 +$
b0 *$
b0 )$
b0 ($
b0 '$
b0 &$
b0 %$
b0 $$
bx #$
bx "$
bx !$
b0 z#
b0 y#
0x#
1w#
b0 v#
b0 u#
b0 t#
b0 s#
b0 r#
bx q#
b0 p#
b0 o#
bx k#
b0 j#
b0 i#
b0 h#
b0 g#
b0 f#
b1 a#
b0 `#
b0 _#
b0 ^#
b0 ]#
b0 \#
b0 [#
b0 Z#
b0 Y#
b0 X#
b0 W#
b0 V#
b0 U#
b0 T#
b0 S#
b0 R#
b0 Q#
b1000 P#
b0 O#
bx N#
0M#
0L#
0K#
0J#
b0 I#
bx H#
b0 G#
bx F#
bx E#
b1000 D#
b100 C#
b0 B#
b0 A#
b0 @#
0?#
b0 >#
0=#
b0 <#
b0 ;#
b0 :#
b0 9#
b0 8#
b0 7#
b0 6#
b0 5#
b0 4#
b0 3#
b0 2#
b0 1#
b0 0#
b0 /#
0.#
b0 -#
b0 ,#
b0 +#
0*#
0)#
0(#
0'#
0&#
0%#
0$#
b0 ##
b0 "#
b0 !#
b0 ~"
b0 }"
b0 |"
b0 {"
0z"
b0 y"
b0 x"
0w"
b0 v"
b0 u"
b0 t"
0s"
0r"
0q"
0p"
0o"
0n"
0m"
b0 l"
b0 k"
b0 j"
b0 i"
b0 h"
b0 g"
b0 f"
0e"
b0 d"
b0 c"
b0 b"
b0 a"
b0 `"
b0 _"
b0 ^"
b0 ]"
b0 \"
b0 ["
0Z"
0Y"
0X"
0W"
0V"
0U"
0T"
0S"
b0 R"
b0 Q"
b0 P"
b0 O"
b0 N"
b0 M"
b0 L"
b0 K"
b0 J"
0I"
bx H"
b0 G"
0F"
b0 E"
b0 D"
b0 C"
b0 B"
b0 A"
b0 @"
b0 ?"
b0 >"
b0 ="
b0 <"
b0 ;"
b0 :"
b0 9"
b0 8"
07"
b0 6"
b0 5"
b0 4"
03"
02"
01"
00"
0/"
0."
0-"
b0 ,"
b0 +"
b0 *"
b0 )"
b0 ("
b0 '"
b0 &"
0%"
b0 $"
b0 #"
0""
b0 !"
b0 ~
b0 }
0|
0{
0z
0y
0x
0w
0v
b0 u
b0 t
b0 s
b0 r
b0 q
b0 p
b0 o
0n
b0 m
b0 l
b0 k
b0 j
b0 i
b0 h
b0 g
b0 f
b0 e
b0 d
0c
0b
0a
0`
0_
0^
0]
0\
b0 [
b0 Z
b0 Y
b0 X
b0 W
b0 V
b0 U
b0 T
b0 S
0R
bx Q
b0 P
0O
0M
b0 L
1K
b0 J
b0 I
b0 H
b0 G
b0 F
0E
0D
0C
0B
0A
0@
0?
b0 >
b0 =
0<
b0 ;
1:
b0 9
b0 8
b0 7
b0 6
b0 5
04
03
02
01
00
0/
0.
b0 -
b0 ,
bx +
1*
1)
b0 (
1'
0&
0%
0$
0#
b0 "
b0 !
$end
#5000
b10011 R#
b10011 Q#
b11111010000000000000100010011 5
b11111010000000000000100010011 g#
b10010011 F
b10010011 f#
b100000 0$
b100 #$
1#
#10000
0#
#15000
b100000 0$
b100 #$
1#
#20000
1<
1M
b10 6
b10 H$
b1 G
b1 E$
b0 E#
b0 N#
b0 F#
b111110100 4#
b11111010000000000000000000000 6#
b111100010 2#
b111100010 5#
b111110100 3#
b10100 <#
b10100 D$
b10 :#
b10 A$
b1111 1#
b1111 5$
b10011 7#
b10011 6$
b10011 B$
b100000000000 ;"
b1 >"
b1 C"
b1 =$
b10011 @"
b10011 3$
b10011 >$
b10000 P#
b10000 D#
b1100 C#
b10 `#
b11 a#
bx i"
bx {"
1.#
bx y"
bx &"
17"
bx $"
1I"
b0 H"
1R
b0 Q
b11111010000000000000100010011 `"
b10010011 i
b100 _"
b1000 B#
0#
0'
#25000
1K#
b1100011 R#
b11000010001100011 5
b11000010001100011 g#
b100001111000110010011 F
b100001111000110010011 f#
b1 G#
b100 #$
1#
#30000
1%
0*
b111110100 9
b111110100 _#
b0 6
b0 H$
b11 -
b11 )$
b11 I$
b11 G
b11 E$
b1 >
b1 +$
b1 F$
0:
14
0<
b111 L
b111 7$
b11111010000000000000000000100 E#
b111110100 O#
b111111000 N#
b111100110 F#
b111110100 ^#
b111110100 9#
b111110100 \#
b11000000000000000 4#
b11000000000000000 6#
b1000 2#
b1000 5#
b0 3#
b0 <#
b0 D$
b11 ;#
b11 C$
b1000 :#
b1000 A$
b0 1#
b0 5$
b1100011 7#
b1100011 6$
b1100011 B$
b1111100000000000 ="
b100001111000000000000 ?"
b100000000010 ;"
b11 >"
b1 <"
b1 E"
b1 @$
b1 D"
b1 ?$
b11 C"
b11 =$
b111 9"
b111 1$
1K#
b11000 P#
b11000 D#
b10100 C#
b100 `#
b101 a#
bx f"
1w"
bx d"
bx o
1""
bx m
b0 {"
1z"
b0 y"
b0 &"
1%"
b0 $"
b10 ["
1F"
b111110100 O"
b11111010000000000000000000000 Q"
b111100010 N"
b111100010 P"
b111110100 M"
b11111010000000000000100010011 R"
b100 H"
b1 d
1O
b100000000000 W
b1 Y
b10010011 [
b11000010001100011 `"
b100001111000110010011 i
b1100 _"
b1000 h
b10000 B#
0#
#35000
b10100 P#
1J#
0K#
b10011 R#
b1101111 Q#
b100100000001000010011 5
b100100000001000010011 g#
b100000000000000001101111 F
b100000000000000001101111 f#
b10 G#
b100 #$
1#
#40000
0%
1*
b0 9
b0 _#
b0 G
b0 E$
b0 >
b0 +$
b0 F$
b0 L
b0 7$
b1111101 o#
b1111101 s#
b100 E#
b0 O#
b100 N#
b100 F#
b10 j
0)
b0 ^#
b0 9#
b0 \#
b1 X#
b1 B"
b1 V#
b0 ="
b0 ?"
b0 ;"
b0 >"
b0 <"
b0 E"
b0 @$
b0 D"
b0 ?$
b0 C"
b0 =$
b0 9"
b0 1$
b0 f"
1e"
b0 d"
b0 o
1n
b0 m
b11111010000000000000000000000 "#
b11111010000000000000000000100 {"
b10 +#
0.#
b111110100 x"
b111110100 h#
b111110100 !#
b11111010000000000000100010011 ##
b100 y"
b11111010000000000000000000100 &"
b1 4"
07"
b10010011 ,"
0I"
b0 ["
0F"
b0 O"
b0 Q"
b0 N"
b0 P"
b0 M"
b0 R"
b111 U
b1 e
b11 d
b111 P
b111 T#
b1111100000000000 X
b100001111000000000000 Z
b100000000010 W
b11 Y
b1 V
b100001111000110010011 [
b1000 Q
b10011 i
0#
#45000
b11 G#
b100 #$
1#
#50000
12
1:
04
b0 -
b0 )$
b0 I$
b111110100 /#
b111110100 '$
b0 o#
b0 s#
b10100 >#
1=#
b11000000000001100 E#
b11000000000001100 N#
b10100 F#
b10 a"
b0 j
1)
b0 X#
b0 B"
b0 V#
b1000 4#
b100000000000000000000000 6#
b0 2#
b0 5#
b1000 3#
b1000 <#
b1000 D$
b0 ;#
b0 C$
b0 :#
b0 A$
b1101111 7#
b1101111 6$
b1101111 B$
1J#
b10100 P#
b11100 D#
b11000 C#
b101 `#
b110 a#
b11111010000000000000000000000 k"
b11111010000000000000000000100 f"
b10 "
b10 &$
b10 t"
0w"
b111110100 c"
b111110100 j"
b11111010000000000000100010011 l"
b100 d"
b11111010000000000000000000100 o
b1 !
b1 $$
b1 }
0""
b10010011 u
b0 "#
b100 {"
0z"
b0 +#
1.#
b0 x"
b0 h#
b0 !#
b0 ##
b111 )"
b100001111000000000000 +"
b100 &"
b1 5"
b11 4"
17"
b1 *"
b100001111000110010011 ,"
b1000 $"
1S"
b11 \"
b11000000000000000 O"
b11000000000000000 Q"
b1000 N"
b1000 P"
b11000010001100011 R"
b1100 H"
b0 U
b0 e
b0 d
b0 P
b0 T#
b0 X
b0 Z
b0 W
b0 Y
b0 V
b10011 [
b100000000000000001101111 `"
b10000 _"
b10000 h
b10100 B#
0#
#55000
0J#
b10011 Q#
b10100 P#
b100001000000010010011 5
b100001000000010010011 g#
b100100000001000010011 F
b100100000001000010011 f#
b100 G#
b100 #$
1#
#60000
b11100 P#
02
0M
b0 /#
b0 '$
b0 a"
b0 >#
0=#
b1100 E#
b1100 N#
b1100 F#
b0 4#
b0 6#
b0 3#
b0 <#
b0 D$
b0 7#
b0 6$
b0 B$
b0 @"
b0 3$
b0 >$
b0 k"
b100 f"
0e"
b0 "
b0 &$
b0 t"
1w"
b0 c"
b0 j"
b0 l"
b100001111000000000000 t
b100 o
b1 ~
b11 !
b11 $$
b11 }
1""
b1 s
b100001111000110010011 u
b1000 m
b11000000000000000 "#
b11000000000001100 {"
1$#
b11 ,#
b11000010001100011 ##
b1100 y"
b0 )"
b0 +"
b11000000000001100 &"
b0 5"
b0 4"
b0 *"
b10011 ,"
0S"
b0 \"
b0 O"
b0 Q"
b0 N"
b0 P"
b0 R"
0R
0O
b0 [
b0 `"
b0 i
b0 _"
b0 h
0#
#65000
b101 G#
b100 #$
1#
#70000
1<
1M
b1 6
b1 H$
b1 -
b1 )$
b1 I$
b100 G
b100 E$
b100 >
b100 +$
b100 F$
b0 E#
b0 N#
b0 F#
b1000100000000000 4#
b100001000000000000000 6#
b100000000000 2#
b1 5#
b1 3#
b1 <#
b1 D$
b1 ;#
b1 C$
b1 :#
b1 A$
b10011 7#
b10011 6$
b10011 B$
b100000100000000000 ="
b100100000000000000000 ?"
b100 ;"
b100 >"
b1 <"
b1 E"
b1 @$
b100 D"
b100 ?$
b100 C"
b100 =$
b10011 @"
b10011 3$
b10011 >$
b100100 P#
b100100 D#
b100000 C#
b111 `#
b1000 a#
b11000000000000000 k"
b11000000000001100 f"
1m"
b11 u"
b11000010001100011 l"
b1100 d"
b0 t
b11000000000001100 o
b0 ~
b0 !
b0 $$
b0 }
b0 s
b10011 u
b0 "#
b1100 {"
0$#
b0 ,#
b0 ##
b1100 &"
0%"
b0 ,"
1I"
b0 H"
1R
b0 Q
b100001000000010010011 `"
b100100000001000010011 i
b11000 _"
b10100 h
b11100 B#
0#
#75000
b100000 P#
xM#
xK#
1J#
bx R#
b1100011 Q#
bx 5
bx g#
b11111110001000001001011011100011 F
b11111110001000001001011011100011 f#
b110 G#
b100 #$
1#
#80000
b111110100 7
b111110100 /$
0*
b1 9
b1 _#
0)
b1 J
b1 Y#
0:
14
0<
b1 ;
b1 :$
b0 6
b0 H$
b10 ,
b10 ($
b10 J$
b0 G
b0 E$
b0 >
b0 +$
b0 F$
b100001000000000011000 E#
b1000100000011000 N#
b100000011000 F#
b1 ^#
b1 9#
b1 \#
b1 X#
b1 B"
b1 V#
b11111111111100001001011111100010 4#
b11111110001000001001000000000000 6#
b11111111111111111111111111101100 2#
b11111111111111111111111111101101 5#
b11111111111111111111111111100010 3#
b10 <#
b10 D$
b1101 :#
b1101 A$
b1 0#
b1 4$
b1111111 1#
b1111111 5$
b1100011 7#
b1100011 6$
b1100011 B$
b0 ="
b0 ?"
b0 ;"
b0 >"
b0 <"
b0 E"
b0 @$
b0 D"
b0 ?$
b0 C"
b0 =$
xK#
1J#
b100100 P#
b101000 D#
b100100 C#
b1000 `#
b1001 a#
b0 k"
b1100 f"
0m"
b0 u"
b0 l"
b1100 o
0n
b0 u
b0 {"
1z"
b0 y"
b0 &"
1%"
b0 $"
b1 \"
b1 ["
1F"
b1000100000000000 O"
b100001000000000000000 Q"
b100000000000 N"
b1 P"
b1 M"
b100001000000010010011 R"
b11000 H"
b100 e
b100 d
1O
b100000100000000000 X
b100100000000000000000 Z
b100 W
b100 Y
b1 V
b100100000001000010011 [
b10100 Q
b11111110001000001001011011100011 `"
b10011 i
b11100 _"
b11100 h
b100000 B#
0#
#85000
xL#
xK#
xJ#
bx Q#
b101000 P#
bx F
bx f#
b111 G#
b100 #$
1#
