processor.vcd
$date
	Thu Nov 20 12:47:38 2025
$end
$version
	Icarus Verilog
$end
$timescale
	1ps
$end
$scope module tb_processor $end
$scope module uut $end
$var wire 5 ! A_WB_destination [4:0] $end
$var wire 5 " B_WB_destination [4:0] $end
$var wire 1 # clock $end
$var wire 32 $ dataIn [31:0] $end
$var wire 1 % dir_pred $end
$var wire 1 & load_use_hazard $end
$var wire 1 ' reset $end
$var wire 32 ( tar_pred [31:0] $end
$var wire 1 ) trash $end
$var wire 1 * taken $end
$var wire 32 + dataOut [31:0] $end
$var wire 5 , B_src2 [4:0] $end
$var wire 5 - B_src1 [4:0] $end
$var wire 1 . B_isStore $end
$var wire 1 / B_isLui $end
$var wire 1 0 B_isLoad $end
$var wire 1 1 B_isJalr $end
$var wire 1 2 B_isJal $end
$var wire 1 3 B_isAuipc $end
$var wire 1 4 B_isABranch $end
$var wire 32 5 B_instruction [31:0] $end
$var wire 5 6 B_dest [4:0] $end
$var wire 32 7 B_data_readReg2 [31:0] $end
$var wire 32 8 B_data_readReg1 [31:0] $end
$var wire 32 9 B_aluResult [31:0] $end
$var wire 1 : B_RWE $end
$var wire 4 ; B_ALUop [3:0] $end
$var wire 1 < B_ALUinB $end
$var wire 5 = A_src2 [4:0] $end
$var wire 5 > A_src1 [4:0] $end
$var wire 1 ? A_isStore $end
$var wire 1 @ A_isLui $end
$var wire 1 A A_isLoad $end
$var wire 1 B A_isJalr $end
$var wire 1 C A_isJal $end
$var wire 1 D A_isAuipc $end
$var wire 1 E A_isABranch $end
$var wire 32 F A_instruction [31:0] $end
$var wire 5 G A_dest [4:0] $end
$var wire 32 H A_data_readReg2 [31:0] $end
$var wire 32 I A_data_readReg1 [31:0] $end
$var wire 32 J A_aluResult [31:0] $end
$var wire 1 K A_RWE $end
$var wire 4 L A_ALUop [3:0] $end
$var wire 1 M A_ALUinB $end
$var parameter 32 N NOP $end
$var reg 1 O A_DX_ALUinB $end
$var reg 4 P A_DX_ALUop [3:0] $end
$var reg 32 Q A_DX_PC [31:0] $end
$var reg 1 R A_DX_RWE $end
$var reg 32 S A_DX_dataA [31:0] $end
$var reg 32 T A_DX_dataB [31:0] $end
$var reg 3 U A_DX_func3 [2:0] $end
$var reg 32 V A_DX_imm [31:0] $end
$var reg 32 W A_DX_immB [31:0] $end
$var reg 32 X A_DX_immJ [31:0] $end
$var reg 32 Y A_DX_immS [31:0] $end
$var reg 32 Z A_DX_immU [31:0] $end
$var reg 32 [ A_DX_inst [31:0] $end
$var reg 1 \ A_DX_isABranch $end
$var reg 1 ] A_DX_isAuipc $end
$var reg 1 ^ A_DX_isJal $end
$var reg 1 _ A_DX_isJalr $end
$var reg 1 ` A_DX_isLoad $end
$var reg 1 a A_DX_isLui $end
$var reg 1 b A_DX_isStore $end
$var reg 1 c A_DX_prediction $end
$var reg 5 d A_DX_rd [4:0] $end
$var reg 5 e A_DX_src1 [4:0] $end
$var reg 5 f A_DX_src2 [4:0] $end
$var reg 32 g A_DX_target [31:0] $end
$var reg 32 h A_FD_PC [31:0] $end
$var reg 32 i A_FD_inst [31:0] $end
$var reg 32 j A_MW_ALURESULT [31:0] $end
$var reg 32 k A_MW_PC [31:0] $end
$var reg 1 l A_MW_RWE $end
$var reg 32 m A_MW_auipcResult [31:0] $end
$var reg 32 n A_MW_dataA [31:0] $end
$var reg 32 o A_MW_dataB [31:0] $end
$var reg 32 p A_MW_dmemOut [31:0] $end
$var reg 32 q A_MW_imm [31:0] $end
$var reg 32 r A_MW_immU [31:0] $end
$var reg 32 s A_MW_inst [31:0] $end
$var reg 1 t A_MW_isABranch $end
$var reg 1 u A_MW_isAuipc $end
$var reg 1 v A_MW_isJal $end
$var reg 1 w A_MW_isJalr $end
$var reg 1 x A_MW_isLoad $end
$var reg 1 y A_MW_isLui $end
$var reg 1 z A_MW_isStore $end
$var reg 5 { A_MW_rd [4:0] $end
$var reg 5 | A_MW_src1 [4:0] $end
$var reg 5 } A_MW_src2 [4:0] $end
$var reg 1 ~ A_MW_taken $end
$var reg 32 !" A_XM_ALURESULT [31:0] $end
$var reg 32 "" A_XM_PC [31:0] $end
$var reg 1 #" A_XM_RWE $end
$var reg 32 $" A_XM_auipcResult [31:0] $end
$var reg 32 %" A_XM_dataA [31:0] $end
$var reg 32 &" A_XM_dataB [31:0] $end
$var reg 3 '" A_XM_func3 [2:0] $end
$var reg 32 (" A_XM_imm [31:0] $end
$var reg 32 )" A_XM_immU [31:0] $end
$var reg 32 *" A_XM_inst [31:0] $end
$var reg 1 +" A_XM_isABranch $end
$var reg 1 ," A_XM_isAuipc $end
$var reg 1 -" A_XM_isJal $end
$var reg 1 ." A_XM_isJalr $end
$var reg 1 /" A_XM_isLoad $end
$var reg 1 0" A_XM_isLui $end
$var reg 1 1" A_XM_isStore $end
$var reg 5 2" A_XM_rd [4:0] $end
$var reg 5 3" A_XM_src1 [4:0] $end
$var reg 5 4" A_XM_src2 [4:0] $end
$var reg 1 5" A_XM_taken $end
$var reg 32 6" A_data_writeReg [31:0] $end
$var reg 3 7" A_func3 [2:0] $end
$var reg 7 8" A_func7 [6:0] $end
$var reg 32 9" A_imm_B [31:0] $end
$var reg 32 :" A_imm_I [31:0] $end
$var reg 32 ;" A_imm_J [31:0] $end
$var reg 32 <" A_imm_S [31:0] $end
$var reg 32 =" A_imm_U [31:0] $end
$var reg 7 >" A_opcode [6:0] $end
$var reg 32 ?" A_operand1 [31:0] $end
$var reg 32 @" A_operand2 [31:0] $end
$var reg 5 A" A_rd [4:0] $end
$var reg 5 B" A_rs1 [4:0] $end
$var reg 5 C" A_rs2 [4:0] $end
$var reg 1 D" B_DX_ALUinB $end
$var reg 4 E" B_DX_ALUop [3:0] $end
$var reg 32 F" B_DX_PC [31:0] $end
$var reg 1 G" B_DX_RWE $end
$var reg 32 H" B_DX_dataA [31:0] $end
$var reg 32 I" B_DX_dataB [31:0] $end
$var reg 3 J" B_DX_func3 [2:0] $end
$var reg 32 K" B_DX_imm [31:0] $end
$var reg 32 L" B_DX_immB [31:0] $end
$var reg 32 M" B_DX_immJ [31:0] $end
$var reg 32 N" B_DX_immS [31:0] $end
$var reg 32 O" B_DX_immU [31:0] $end
$var reg 32 P" B_DX_inst [31:0] $end
$var reg 1 Q" B_DX_isABranch $end
$var reg 1 R" B_DX_isAuipc $end
$var reg 1 S" B_DX_isJal $end
$var reg 1 T" B_DX_isJalr $end
$var reg 1 U" B_DX_isLoad $end
$var reg 1 V" B_DX_isLui $end
$var reg 1 W" B_DX_isStore $end
$var reg 1 X" B_DX_prediction $end
$var reg 5 Y" B_DX_rd [4:0] $end
$var reg 5 Z" B_DX_src1 [4:0] $end
$var reg 5 [" B_DX_src2 [4:0] $end
$var reg 32 \" B_DX_target [31:0] $end
$var reg 32 ]" B_FD_PC [31:0] $end
$var reg 32 ^" B_FD_inst [31:0] $end
$var reg 32 _" B_MW_ALURESULT [31:0] $end
$var reg 32 `" B_MW_PC [31:0] $end
$var reg 1 a" B_MW_RWE $end
$var reg 32 b" B_MW_auipcResult [31:0] $end
$var reg 32 c" B_MW_dataA [31:0] $end
$var reg 32 d" B_MW_dataB [31:0] $end
$var reg 32 e" B_MW_dmemOut [31:0] $end
$var reg 32 f" B_MW_imm [31:0] $end
$var reg 32 g" B_MW_immU [31:0] $end
$var reg 32 h" B_MW_inst [31:0] $end
$var reg 1 i" B_MW_isABranch $end
$var reg 1 j" B_MW_isAuipc $end
$var reg 1 k" B_MW_isJal $end
$var reg 1 l" B_MW_isJalr $end
$var reg 1 m" B_MW_isLoad $end
$var reg 1 n" B_MW_isLui $end
$var reg 1 o" B_MW_isStore $end
$var reg 5 p" B_MW_rd [4:0] $end
$var reg 5 q" B_MW_src1 [4:0] $end
$var reg 5 r" B_MW_src2 [4:0] $end
$var reg 1 s" B_MW_taken $end
$var reg 32 t" B_XM_ALURESULT [31:0] $end
$var reg 32 u" B_XM_PC [31:0] $end
$var reg 1 v" B_XM_RWE $end
$var reg 32 w" B_XM_auipcResult [31:0] $end
$var reg 32 x" B_XM_dataA [31:0] $end
$var reg 32 y" B_XM_dataB [31:0] $end
$var reg 3 z" B_XM_func3 [2:0] $end
$var reg 32 {" B_XM_imm [31:0] $end
$var reg 32 |" B_XM_immU [31:0] $end
$var reg 32 }" B_XM_inst [31:0] $end
$var reg 1 ~" B_XM_isABranch $end
$var reg 1 !# B_XM_isAuipc $end
$var reg 1 "# B_XM_isJal $end
$var reg 1 ## B_XM_isJalr $end
$var reg 1 $# B_XM_isLoad $end
$var reg 1 %# B_XM_isLui $end
$var reg 1 &# B_XM_isStore $end
$var reg 5 '# B_XM_rd [4:0] $end
$var reg 5 (# B_XM_src1 [4:0] $end
$var reg 5 )# B_XM_src2 [4:0] $end
$var reg 1 *# B_XM_taken $end
$var reg 32 +# B_data_writeReg [31:0] $end
$var reg 3 ,# B_func3 [2:0] $end
$var reg 7 -# B_func7 [6:0] $end
$var reg 32 .# B_imm_B [31:0] $end
$var reg 32 /# B_imm_I [31:0] $end
$var reg 32 0# B_imm_J [31:0] $end
$var reg 32 1# B_imm_S [31:0] $end
$var reg 32 2# B_imm_U [31:0] $end
$var reg 7 3# B_opcode [6:0] $end
$var reg 32 4# B_operand1 [31:0] $end
$var reg 32 5# B_operand2 [31:0] $end
$var reg 5 6# B_rd [4:0] $end
$var reg 5 7# B_rs1 [4:0] $end
$var reg 5 8# B_rs2 [4:0] $end
$var reg 1 9# EX_mispredict $end
$var reg 32 :# EX_target [31:0] $end
$var reg 1 ;# FD_prediction $end
$var reg 32 <# FD_target [31:0] $end
$var reg 32 =# PC [31:0] $end
$var reg 32 ># PCplus4 [31:0] $end
$var reg 32 ?# PCplus8 [31:0] $end
$var reg 32 @# auipcResult [31:0] $end
$var reg 32 A# branchTarget [31:0] $end
$var reg 1 B# isCtrlA $end
$var reg 1 C# isCtrlB $end
$var reg 1 D# isMemA $end
$var reg 1 E# isMemB $end
$var reg 32 F# jalTarget [31:0] $end
$var reg 32 G# jalrTarget [31:0] $end
$var reg 32 H# nextPC [31:0] $end
$var reg 7 I# opcodeA [6:0] $end
$var reg 7 J# opcodeB [6:0] $end
$var reg 2 K# pcSelect [1:0] $end
$scope module ALU_unit_A $end
$var wire 4 L# ALUop [3:0] $end
$var wire 32 M# operandA [31:0] $end
$var wire 32 N# operandB [31:0] $end
$var wire 32 O# signedA [31:0] $end
$var wire 32 P# signedB [31:0] $end
$var reg 1 * branch $end
$var reg 32 Q# result [31:0] $end
$scope begin alu $end
$upscope $end
$scope begin branchcomb $end
$upscope $end
$upscope $end
$scope module ALU_unit_B $end
$var wire 4 R# ALUop [3:0] $end
$var wire 32 S# operandA [31:0] $end
$var wire 32 T# operandB [31:0] $end
$var wire 32 U# signedA [31:0] $end
$var wire 32 V# signedB [31:0] $end
$var reg 1 ) branch $end
$var reg 32 W# result [31:0] $end
$scope begin alu $end
$upscope $end
$scope begin branchcomb $end
$upscope $end
$upscope $end
$scope module InstMem $end
$var wire 16 X# addrA [15:0] $end
$var wire 16 Y# addrB [15:0] $end
$var wire 1 # clk $end
$var parameter 32 Z# ADDRESS_WIDTH $end
$var parameter 32 [# DATA_WIDTH $end
$var parameter 32 \# DEPTH $end
$var parameter 160 ]# MEMFILE $end
$var reg 32 ^# dataOutA [31:0] $end
$var reg 32 _# dataOutB [31:0] $end
$upscope $end
$scope module ProcMem $end
$var wire 32 `# addr [31:0] $end
$var wire 1 # clk $end
$var wire 32 a# dataIn [31:0] $end
$var wire 3 b# func3 [2:0] $end
$var wire 1 &# wEn $end
$var wire 32 c# ram_data_out [31:0] $end
$var parameter 32 d# ADDRESS_WIDTH $end
$var parameter 32 e# DATA_WIDTH $end
$var parameter 32 f# DEPTH $end
$var reg 16 g# addra [15:0] $end
$var reg 4 h# byte_wea [3:0] $end
$var reg 32 i# dataOut [31:0] $end
$var reg 32 j# ram_data_in [31:0] $end
$scope module my_favorite_rammy $end
$var wire 16 k# addrA [15:0] $end
$var wire 16 l# addrB [15:0] $end
$var wire 1 # clkA $end
$var wire 1 # clkB $end
$var wire 32 m# dinA [31:0] $end
$var wire 32 n# dinB [31:0] $end
$var wire 1 o# enaA $end
$var wire 1 p# enaB $end
$var wire 4 q# weA [3:0] $end
$var wire 4 r# weB [3:0] $end
$var parameter 32 s# ADDR_WIDTH $end
$var parameter 32 t# COL_WIDTH $end
$var parameter 64 u# DATA_WIDTH $end
$var parameter 32 v# NUM_COL $end
$var reg 32 w# doutA [31:0] $end
$var reg 32 x# doutB [31:0] $end
$var integer 32 y# i [31:0] $end
$upscope $end
$upscope $end
$scope module RegisterFile $end
$var wire 1 l A_ctrl_writeEnable $end
$var wire 5 z# A_ctrl_writeReg [4:0] $end
$var wire 32 {# A_data_writeReg [31:0] $end
$var wire 1 a" B_ctrl_writeEnable $end
$var wire 5 |# B_ctrl_writeReg [4:0] $end
$var wire 32 }# B_data_writeReg [31:0] $end
$var wire 1 # clock $end
$var wire 1 ' ctrl_reset $end
$var wire 5 ~# B_ctrl_readReg2 [4:0] $end
$var wire 5 !$ B_ctrl_readReg1 [4:0] $end
$var wire 5 "$ A_ctrl_readReg2 [4:0] $end
$var wire 5 #$ A_ctrl_readReg1 [4:0] $end
$var reg 32 $$ A_data_readReg1 [31:0] $end
$var reg 32 %$ A_data_readReg2 [31:0] $end
$var reg 32 &$ B_data_readReg1 [31:0] $end
$var reg 32 '$ B_data_readReg2 [31:0] $end
$scope begin $ivl_for_loop0 $end
$var integer 32 ($ i [31:0] $end
$upscope $end
$upscope $end
$scope module branch_predictor $end
$var wire 32 )$ PC [31:0] $end
$var wire 1 # clock $end
$var wire 1 % direction $end
$var wire 32 *$ target [31:0] $end
$upscope $end
$scope module control_unit $end
$var wire 3 +$ A_func3 [2:0] $end
$var wire 7 ,$ A_func7 [6:0] $end
$var wire 7 -$ A_opcode [6:0] $end
$var wire 3 .$ B_func3 [2:0] $end
$var wire 7 /$ B_func7 [6:0] $end
$var wire 7 0$ B_opcode [6:0] $end
$var reg 1 M A_ALUinB $end
$var reg 4 1$ A_ALUop [3:0] $end
$var reg 1 K A_RWE $end
$var reg 1 E A_isABranch $end
$var reg 1 D A_isAuipc $end
$var reg 1 C A_isJal $end
$var reg 1 B A_isJalr $end
$var reg 1 A A_isLoad $end
$var reg 1 @ A_isLui $end
$var reg 1 ? A_isStore $end
$var reg 1 2$ A_useFunc7 $end
$var reg 1 < B_ALUinB $end
$var reg 4 3$ B_ALUop [3:0] $end
$var reg 1 : B_RWE $end
$var reg 1 4 B_isABranch $end
$var reg 1 3 B_isAuipc $end
$var reg 1 2 B_isJal $end
$var reg 1 1 B_isJalr $end
$var reg 1 0 B_isLoad $end
$var reg 1 / B_isLui $end
$var reg 1 . B_isStore $end
$var reg 1 4$ B_useFunc7 $end
$upscope $end
$scope module set_src_dest $end
$var wire 5 5$ A_dest [4:0] $end
$var wire 7 6$ A_opcode [6:0] $end
$var wire 5 7$ A_src1 [4:0] $end
$var wire 5 8$ A_src2 [4:0] $end
$var wire 5 9$ B_dest [4:0] $end
$var wire 7 :$ B_opcode [6:0] $end
$var wire 5 ;$ B_src1 [4:0] $end
$var wire 5 <$ B_src2 [4:0] $end
$var reg 5 =$ A_out_dest [4:0] $end
$var reg 5 >$ A_out_src1 [4:0] $end
$var reg 5 ?$ A_out_src2 [4:0] $end
$var reg 5 @$ B_out_dest [4:0] $end
$var reg 5 A$ B_out_src1 [4:0] $end
$var reg 5 B$ B_out_src2 [4:0] $end
$upscope $end
$scope begin DX_LATCH $end
$upscope $end
$scope begin FD_LATCH $end
$upscope $end
$scope begin MW_LATCH $end
$upscope $end
$scope begin XM_LATCH $end
$upscope $end
$scope begin fetch_comb $end
$upscope $end
$scope begin program_counter $end
$upscope $end
$upscope $end
$upscope $end
$enddefinitions $end
$comment Show the parameter values. $end
$dumpall
b100 v#
b100000 u#
b1000 t#
b10000 s#
b1000000000000 f#
b100000 e#
b100000 d#
b110000101110010011010010111010001101000010111110110111001101111010111110110100001100001011110100110000101110010011001000111001100101110011011010110010101101101 ]#
b10000000000000000 \#
b100000 [#
b10000 Z#
b10011 N
$end
#0
$dumpvars
b0 B$
b0 A$
b0 @$
b0 ?$
b0 >$
b0 =$
b0 <$
b0 ;$
b0 :$
b0 9$
b0 8$
b0 7$
b0 6$
b0 5$
04$
b0 3$
02$
b0 1$
b0 0$
b0 /$
b0 .$
b0 -$
b0 ,$
b0 +$
b0 *$
b0 )$
b0 ($
b0 '$
b0 &$
b0 %$
b0 $$
b0 #$
b0 "$
b0 !$
b0 ~#
b0 }#
b0 |#
b0 {#
b0 z#
bx y#
bx x#
bx w#
b0 r#
b0 q#
0p#
1o#
b0 n#
b0 m#
b0 l#
b0 k#
b0 j#
bx i#
b0 h#
b0 g#
bx c#
b0 b#
b0 a#
b0 `#
b0 _#
b0 ^#
b1 Y#
b0 X#
b0 W#
b0 V#
b0 U#
b0 T#
b0 S#
b0 R#
b0 Q#
b0 P#
b0 O#
b0 N#
b0 M#
b0 L#
b0 K#
b0 J#
b0 I#
b1000 H#
b0 G#
bx F#
0E#
0D#
0C#
0B#
bx A#
bx @#
b1000 ?#
b100 >#
b0 =#
b0 <#
0;#
b0 :#
09#
b0 8#
b0 7#
b0 6#
b0 5#
b0 4#
b0 3#
b0 2#
b0 1#
b0 0#
b0 /#
b0 .#
b0 -#
b0 ,#
b0 +#
0*#
b0 )#
b0 (#
b0 '#
0&#
0%#
0$#
0##
0"#
0!#
0~"
b0 }"
b0 |"
b0 {"
b0 z"
b0 y"
b0 x"
b0 w"
0v"
b0 u"
b0 t"
0s"
b0 r"
b0 q"
b0 p"
0o"
0n"
0m"
0l"
0k"
0j"
0i"
b0 h"
b0 g"
b0 f"
b0 e"
b0 d"
b0 c"
b0 b"
0a"
b0 `"
b0 _"
b0 ^"
b0 ]"
b0 \"
b0 ["
b0 Z"
b0 Y"
0X"
0W"
0V"
0U"
0T"
0S"
0R"
0Q"
b0 P"
b0 O"
b0 N"
b0 M"
b0 L"
b0 K"
b0 J"
b0 I"
b0 H"
0G"
bx F"
b0 E"
0D"
b0 C"
b0 B"
b0 A"
b0 @"
b0 ?"
b0 >"
b0 ="
b0 <"
b0 ;"
b0 :"
b0 9"
b0 8"
b0 7"
b0 6"
05"
b0 4"
b0 3"
b0 2"
01"
00"
0/"
0."
0-"
0,"
0+"
b0 *"
b0 )"
b0 ("
b0 '"
b0 &"
b0 %"
b0 $"
0#"
b0 ""
b0 !"
0~
b0 }
b0 |
b0 {
0z
0y
0x
0w
0v
0u
0t
b0 s
b0 r
b0 q
b0 p
b0 o
b0 n
b0 m
0l
b0 k
b0 j
b0 i
b0 h
b0 g
b0 f
b0 e
b0 d
0c
0b
0a
0`
0_
0^
0]
0\
b0 [
b0 Z
b0 Y
b0 X
b0 W
b0 V
b0 U
b0 T
b0 S
0R
bx Q
b0 P
0O
0M
b0 L
1K
b0 J
b0 I
b0 H
b0 G
b0 F
0E
0D
0C
0B
0A
0@
0?
b0 >
b0 =
0<
b0 ;
1:
b0 9
b0 8
b0 7
b0 6
b0 5
04
03
02
01
00
0/
0.
b0 -
b0 ,
bx +
1*
1)
b0 (
1'
0&
0%
b0 $
0#
b0 "
b0 !
$end
#5000
b10011 J#
b10011 I#
b1010101100000000000100010011 5
b1010101100000000000100010011 _#
b10010011 F
b10010011 ^#
b100000 ($
b100 y#
1#
#10000
0#
#15000
b100000 ($
b100 y#
1#
#20000
1<
1M
b10 6
b10 @$
b1 G
b1 =$
b0 @#
b0 F#
b0 A#
b100010101010 0#
b1010101100000000000000000000 2#
b10100010 .#
b10100010 1#
b10101011 /#
b1011 8#
b1011 <$
b10 6#
b10 9$
b101 -#
b101 /$
b10011 3#
b10011 0$
b10011 :$
b100000000000 9"
b1 <"
b1 A"
b1 5$
b10011 >"
b10011 -$
b10011 6$
b10 X#
b11 Y#
b10000 H#
b10000 ?#
b1100 >#
bx e"
bx w"
1*#
bx u"
bx $"
15"
bx ""
1G"
b0 F"
1R
b0 Q
b1010101100000000000100010011 ^"
b10010011 i
b100 ]"
b1000 =#
b1000 )$
0#
0'
#25000
b110100010000000100010011 5
b110100010000000100010011 _#
b10000010001000100010011 F
b10000010001000100010011 ^#
b100 y#
1#
#30000
0)
b10101011 9
b10101011 W#
b10 -
b10 !$
b10 A$
b10 G
b10 =$
b10 >
b10 #$
b10 >$
b1 L
b1 1$
12$
b1010101100000000000000000100 @#
b10101010 G#
b100010101110 F#
b10100110 A#
b10101011 5#
b10101011 T#
b10101011 V#
b10000100000001100 0#
b110100010000000000000000 2#
b10 .#
b10 1#
b1101 /#
b1101 8#
b1101 <$
b10 7#
b10 ;$
b0 -#
b0 /$
b10001000000000100 ;"
b10000010001000000000000 ="
b10 9"
b10 <"
b100 :"
b100 C"
b100 8$
b10 B"
b10 7$
b10 A"
b10 5$
b1 7"
b1 +$
b100 X#
b101 Y#
b11000 H#
b11000 ?#
b10100 >#
bx b"
1s"
bx `"
bx m
1~
bx k
b0 w"
1v"
b0 u"
b0 $"
1#"
b0 ""
b10 Y"
1D"
b100010101010 M"
b1010101100000000000000000000 O"
b10100010 L"
b10100010 N"
b10101011 K"
b1010101100000000000100010011 P"
b100 F"
b1 d
1O
b100000000000 W
b1 Y
b10010011 [
b110100010000000100010011 ^"
b10000010001000100010011 i
b1100 ]"
b1000 h
b10000 =#
b10000 )$
0#
#35000
b10000011001000110010011 5
b10000011001000110010011 _#
b1001000000000000110010011 F
b1001000000000000110010011 ^#
b100 y#
1#
#40000
b1101 9
b1101 W#
b11 6
b11 @$
b11 -
b11 !$
b11 A$
b11 G
b11 =$
b0 >
b0 #$
b0 >$
b1 ;
b1 3$
14$
b0 L
b0 1$
02$
bx +
bx i#
b101010 g#
b101010 k#
b110100010000000000001100 @#
b1100 G#
b10000100000011000 F#
b1110 A#
b1101 5#
b1101 T#
b1101 V#
b100 @"
b100 N#
b100 P#
b11001000000000100 0#
b10000011001000000000000 2#
b100000000010 .#
b11 1#
b100 /#
b100 8#
b100 <$
b11 7#
b11 ;$
b11 6#
b11 9$
b1 ,#
b1 .$
b10010 ;"
b1001000000000000000000000 ="
b100000000010 9"
b11 <"
b10010 :"
b10010 C"
b10010 8$
b0 B"
b0 7$
b11 A"
b11 5$
b0 7"
b0 +$
b110 X#
b111 Y#
b100000 H#
b100000 ?#
b11100 >#
b0 b"
1a"
b0 `"
b0 m
1l
b0 k
b1010101100000000000000000000 |"
b1010101100000000000000000100 w"
b10 '#
b10101011 t"
b10101011 `#
b10101011 {"
b1010101100000000000100010011 }"
b100 u"
b1010101100000000000000000100 $"
b1 2"
b10010011 *"
b10 Z"
b10000100000001100 M"
b110100010000000000000000 O"
b10 L"
b10 N"
b1101 K"
b110100010000000100010011 P"
b1100 F"
b1 U
b10 e
b10 d
b1 P
b1 L#
b10001000000000100 X
b10000010001000000000000 Z
b10 W
b10 Y
b100 V
b10000010001000100010011 [
b1000 Q
b10000011001000110010011 ^"
b1001000000000000110010011 i
b10100 ]"
b10000 h
b11000 =#
b11000 )$
0#
#45000
b101010100000000001000010011 5
b101010100000000001000010011 _#
b10000011000000110010011 F
b10000011000000110010011 ^#
b100 y#
1#
#50000
b0 ;
b0 3$
04$
b100 6
b100 @$
b0 -
b0 !$
b0 A$
b11 >
b11 #$
b11 >$
b10101011 +#
b10101011 }#
bx +
bx i#
b11 g#
b11 k#
1)
b0 9
b0 W#
b10000011001000000010100 @#
b100 G#
b11001000000011000 F#
b100000010110 A#
0*
b10010 J
b10010 Q#
b100 5#
b100 T#
b100 V#
b10010 @"
b10010 N#
b10010 P#
b100001010100 0#
b101010100000000000000000000 2#
b1000100 .#
b1000100 1#
b1010101 /#
b10101 8#
b10101 <$
b0 7#
b0 ;$
b100 6#
b100 9$
b0 ,#
b0 .$
b10 -#
b10 /$
b11000000000000100 ;"
b10000011000000000000000 ="
b100 :"
b100 C"
b100 8$
b11 B"
b11 7$
b1000 X#
b1001 Y#
b101000 H#
b101000 ?#
b100100 >#
b1010101100000000000000000000 g"
b1010101100000000000000000100 b"
b10 "
b10 |#
b10 p"
b10101011 _"
b10101011 f"
b1010101100000000000100010011 h"
b100 `"
b1010101100000000000000000100 m
b1 !
b1 z#
b1 {
b10010011 s
b110100010000000000000000 |"
b110100010000000000001100 w"
b10 (#
b1101 t"
b1101 `#
b1101 {"
b110100010000000100010011 }"
b1100 u"
b1 '"
b10000010001000000000000 )"
b110100010000000000001100 $"
b10 3"
b10 2"
b100 ("
b10000010001000100010011 *"
b1000 ""
b1 J"
b11 Z"
b11 Y"
b1 E"
b1 R#
b11001000000000100 M"
b10000011001000000000000 O"
b100000000010 L"
b11 N"
b100 K"
b10000011001000110010011 P"
b10100 F"
b0 U
b0 e
b11 d
b0 P
b0 L#
b10010 X
b1001000000000000000000000 Z
b100000000010 W
b11 Y
b10010 V
b1001000000000000110010011 [
b10000 Q
b101010100000000001000010011 ^"
b10000011000000110010011 i
b11100 ]"
b11000 h
b100000 =#
b100000 )$
0#
#55000
b100100 H#
1D#
b100011 I#
b10011 5
b10011 _#
b1000001010000000100011 F
b1000001010000000100011 ^#
b100 y#
1#
#60000
b10101011 7
b10101011 '$
b100 J
b100 Q#
0:
0<
1.
b0 6
b0 @$
b10 ,
b10 ~#
b10 B$
b1 -
b1 !$
b1 A$
b0 G
b0 =$
b0 >
b0 #$
b0 >$
b1101 +#
b1101 }#
b0 g#
b0 k#
0)
b1010101 9
b1010101 W#
b101010100000000000000011100 @#
b1010100 G#
b100001110000 F#
b1100000 A#
b1010101 5#
b1010101 T#
b1010101 V#
b100 @"
b100 N#
b100 P#
b1010000000000010 0#
b1000001010000000000000 2#
b0 .#
b0 1#
b10 /#
b10 8#
b10 <$
b1 7#
b1 ;$
b0 6#
b0 9$
b10 ,#
b10 .$
b0 -#
b0 /$
b100011 3#
b100011 0$
b100011 :$
b0 ;"
b0 ="
b0 9"
b0 <"
b0 :"
b0 C"
b0 8$
b0 B"
b0 7$
b0 A"
b0 5$
b1001 X#
b1010 Y#
b101000 H#
b101100 ?#
b101000 >#
b110100010000000000000000 g"
b110100010000000000001100 b"
b10 q"
b1101 _"
b1101 f"
b110100010000000100010011 h"
b1100 `"
b10000010001000000000000 r
b110100010000000000001100 m
b10 |
b10 !
b10 z#
b10 {
b100 q
b10000010001000100010011 s
b1000 k
b1 z"
b1 b#
b10000011001000000000000 |"
b10000011001000000010100 w"
b11 (#
b11 '#
0*#
b0 t"
b0 `#
b100 {"
b10000011001000110010011 }"
b10100 u"
b0 '"
b1001000000000000000000000 )"
b10000011001000000010100 $"
b0 3"
b11 2"
05"
b10010 !"
b10010 ("
b1001000000000000110010011 *"
b10000 ""
b0 J"
b0 Z"
b100 Y"
b0 E"
b0 R#
b100001010100 M"
b101010100000000000000000000 O"
b1000100 L"
b1000100 N"
b1010101 K"
b101010100000000001000010011 P"
b11100 F"
b11 e
b11000000000000100 X
b10000011000000000000000 Z
b100 V
b10000011000000110010011 [
b11000 Q
b1000001010000000100011 ^"
b10011 i
b100100 ]"
b100000 h
b100100 =#
b100100 )$
0#
#65000
1E#
0D#
b100011 J#
b10011 I#
b101100 H#
b1101 7
b1101 '$
b1100001001001000100011 5
b1100001001001000100011 _#
b10011 F
b10011 ^#
b100 y#
1#
#70000
b0 7
b0 '$
1)
b0 9
b0 W#
1*
b0 J
b0 Q#
b11 ,
b11 ~#
b11 B$
b0 +#
b0 }#
b10010 6"
b10010 {#
bx +
bx i#
b10101 g#
b10101 k#
b1000001010000000100100 @#
b10 G#
b1010000000100110 F#
b100100 A#
b0 5#
b0 T#
b0 V#
b0 @"
b0 N#
b0 P#
b1001100000000010 0#
b1100001001000000000000 2#
b100 .#
b100 1#
b11 /#
b11 8#
b11 <$
b100 6#
b100 9$
b1 ,#
b1 .$
b1011 X#
b1100 Y#
b110100 H#
b110100 ?#
b110000 >#
b10000011001000000000000 g"
b10000011001000000010100 b"
b11 q"
b11 "
b11 |#
b11 p"
0s"
b0 _"
b100 f"
b10000011001000110010011 h"
b10100 `"
b1001000000000000000000000 r
b10000011001000000010100 m
b0 |
b11 !
b11 z#
b11 {
0~
b10010 j
b10010 q
b1001000000000000110010011 s
b10000 k
b0 z"
b0 b#
b101010100000000000000000000 |"
b101010100000000000000011100 w"
b0 (#
b100 '#
b1010101 t"
b1010101 `#
b1010101 {"
b101010100000000001000010011 }"
b11100 u"
b10000011000000000000000 )"
b101010100000000000000011100 $"
b11 3"
b100 !"
b100 ("
b10000011000000110010011 *"
b11000 ""
1W"
b10 J"
0G"
b10 ["
b1 Z"
b0 Y"
0D"
b1101 I"
b1010000000000010 M"
b1000001010000000000000 O"
b0 L"
b0 N"
b10 K"
b1000001010000000100011 P"
b100100 F"
b0 e
b0 d
b0 X
b0 Z
b0 W
b0 Y
b0 V
b10011 [
b100000 Q
b1100001001001000100011 ^"
b101000 ]"
b100100 h
b101100 =#
b101100 )$
0#
#75000
b10000001000001100100011 5
b10000001000001100100011 _#
b100 y#
1#
